GFORTRAN module version '10' created from psb_desc_type.f90
MD5:a888aa7ade4505715ec83c182d713a9c -- If you edit this, you'll get what you deserve.

(() () () () () () () () () () () () () () () () () () () () () () ()
() () () ())

()

(('psb_desc_type' 'psb_descriptor_type' 2) ('psb_free' 'psb_hash_mod' 3
4 5) ('psb_hash_copy' 'psb_hash_mod' 6) ('psb_hash_init' 'psb_hash_mod'
7 8) ('psb_hash_type' 'psb_hash_mod' 9) ('psb_idxmap_type'
'psb_descriptor_type' 10) ('psb_is_asb_desc' 'psb_descriptor_type' 11) (
'psb_is_bld_desc' 'psb_descriptor_type' 12) ('psb_is_large_desc'
'psb_descriptor_type' 13) ('psb_is_ok_desc' 'psb_descriptor_type' 14) (
'psb_is_ovl_desc' 'psb_descriptor_type' 15) ('psb_is_upd_desc'
'psb_descriptor_type' 16) ('psb_map_l2g' 'psb_descriptor_type' 17 18 19
20) ('psb_move_alloc' 'psb_hash_mod' 21 22 23) ('psb_sizeof'
'psb_hash_mod' 24 25 26))

()

()

()

(2 'Psb_desc_type' 'psb_descriptor_type' '' 1 ((DERIVED UNKNOWN-INTENT
UNKNOWN-PROC UNKNOWN UNKNOWN 0 0 ALLOC_COMP POINTER_COMP) (UNKNOWN 0 0 0
0 UNKNOWN ()) 0 0 () () 0 ((27 'matrix_data' (INTEGER 4 0 0 0 INTEGER ())
(1 0 DEFERRED () ()) (UNKNOWN-FL UNKNOWN-INTENT UNKNOWN-PROC UNKNOWN
UNKNOWN 0 0 ALLOCATABLE DIMENSION) UNKNOWN-ACCESS ()) (28 'halo_index' (
INTEGER 4 0 0 0 INTEGER ()) (1 0 DEFERRED () ()) (UNKNOWN-FL
UNKNOWN-INTENT UNKNOWN-PROC UNKNOWN UNKNOWN 0 0 ALLOCATABLE DIMENSION)
UNKNOWN-ACCESS ()) (29 'ext_index' (INTEGER 4 0 0 0 INTEGER ()) (1 0
DEFERRED () ()) (UNKNOWN-FL UNKNOWN-INTENT UNKNOWN-PROC UNKNOWN UNKNOWN
0 0 ALLOCATABLE DIMENSION) UNKNOWN-ACCESS ()) (30 'ovrlap_index' (
INTEGER 4 0 0 0 INTEGER ()) (1 0 DEFERRED () ()) (UNKNOWN-FL
UNKNOWN-INTENT UNKNOWN-PROC UNKNOWN UNKNOWN 0 0 ALLOCATABLE DIMENSION)
UNKNOWN-ACCESS ()) (31 'ovrlap_elem' (INTEGER 4 0 0 0 INTEGER ()) (2 0
DEFERRED () () () ()) (UNKNOWN-FL UNKNOWN-INTENT UNKNOWN-PROC UNKNOWN
UNKNOWN 0 0 ALLOCATABLE DIMENSION) UNKNOWN-ACCESS ()) (32 'ovr_mst_idx'
(INTEGER 4 0 0 0 INTEGER ()) (1 0 DEFERRED () ()) (UNKNOWN-FL
UNKNOWN-INTENT UNKNOWN-PROC UNKNOWN UNKNOWN 0 0 ALLOCATABLE DIMENSION)
UNKNOWN-ACCESS ()) (33 'bnd_elem' (INTEGER 4 0 0 0 INTEGER ()) (1 0
DEFERRED () ()) (UNKNOWN-FL UNKNOWN-INTENT UNKNOWN-PROC UNKNOWN UNKNOWN
0 0 ALLOCATABLE DIMENSION) UNKNOWN-ACCESS ()) (34 'idxmap' (DERIVED 10 0
0 0 DERIVED ()) () (UNKNOWN-FL UNKNOWN-INTENT UNKNOWN-PROC UNKNOWN
UNKNOWN 0 0) UNKNOWN-ACCESS (STRUCTURE (DERIVED 10 0 0 0 DERIVED ()) 0 (
(() ()) ((NULL (INTEGER 4 0 0 0 INTEGER ()) 0) ()) ((NULL (INTEGER 4 0 0
0 INTEGER ()) 0) ()) (() ()) (() ()) ((NULL (INTEGER 4 0 0 0 INTEGER ())
0) ()) ((NULL (INTEGER 4 0 0 0 INTEGER ()) 0) ()) ((STRUCTURE (DERIVED 9
0 0 0 DERIVED ()) 0 ((() ()) (() ()) (() ()) (() ()) ((NULL (INTEGER 4 0
0 0 INTEGER ()) 0) ()) (() ()) (() ())) ()) ())) ())) (35 'lprm' (
INTEGER 4 0 0 0 INTEGER ()) (1 0 DEFERRED () ()) (UNKNOWN-FL
UNKNOWN-INTENT UNKNOWN-PROC UNKNOWN UNKNOWN 0 0 ALLOCATABLE DIMENSION)
UNKNOWN-ACCESS ()) (36 'base_desc' (DERIVED 2 0 0 0 DERIVED ()) () (
UNKNOWN-FL UNKNOWN-INTENT UNKNOWN-PROC UNKNOWN UNKNOWN 0 0 POINTER)
UNKNOWN-ACCESS (NULL (UNKNOWN 0 0 0 0 UNKNOWN ()) 0)) (37 'idx_space' (
INTEGER 4 0 0 0 INTEGER ()) (1 0 DEFERRED () ()) (UNKNOWN-FL
UNKNOWN-INTENT UNKNOWN-PROC UNKNOWN UNKNOWN 0 0 ALLOCATABLE DIMENSION)
UNKNOWN-ACCESS ())) PUBLIC (() () () ()) () 0 0 40140499)
9 'Psb_hash_type' 'psb_hash_mod' '' 1 ((DERIVED UNKNOWN-INTENT
UNKNOWN-PROC UNKNOWN UNKNOWN 0 0 ALLOC_COMP) (UNKNOWN 0 0 0 0 UNKNOWN ())
0 0 () () 0 ((38 'nbits' (INTEGER 4 0 0 0 INTEGER ()) () (UNKNOWN-FL
UNKNOWN-INTENT UNKNOWN-PROC UNKNOWN UNKNOWN 0 0) UNKNOWN-ACCESS ()) (39
'hsize' (INTEGER 4 0 0 0 INTEGER ()) () (UNKNOWN-FL UNKNOWN-INTENT
UNKNOWN-PROC UNKNOWN UNKNOWN 0 0) UNKNOWN-ACCESS ()) (40 'hmask' (
INTEGER 4 0 0 0 INTEGER ()) () (UNKNOWN-FL UNKNOWN-INTENT UNKNOWN-PROC
UNKNOWN UNKNOWN 0 0) UNKNOWN-ACCESS ()) (41 'nk' (INTEGER 4 0 0 0
INTEGER ()) () (UNKNOWN-FL UNKNOWN-INTENT UNKNOWN-PROC UNKNOWN UNKNOWN 0
0) UNKNOWN-ACCESS ()) (42 'table' (INTEGER 4 0 0 0 INTEGER ()) (2 0
DEFERRED () () () ()) (UNKNOWN-FL UNKNOWN-INTENT UNKNOWN-PROC UNKNOWN
UNKNOWN 0 0 ALLOCATABLE DIMENSION) UNKNOWN-ACCESS ()) (43 'nsrch' (
INTEGER 8 0 0 0 INTEGER ()) () (UNKNOWN-FL UNKNOWN-INTENT UNKNOWN-PROC
UNKNOWN UNKNOWN 0 0) UNKNOWN-ACCESS ()) (44 'nacc' (INTEGER 8 0 0 0
INTEGER ()) () (UNKNOWN-FL UNKNOWN-INTENT UNKNOWN-PROC UNKNOWN UNKNOWN 0
0) UNKNOWN-ACCESS ())) PUBLIC (() () () ()) () 0 0 24773533)
10 'Psb_idxmap_type' 'psb_descriptor_type' '' 1 ((DERIVED UNKNOWN-INTENT
UNKNOWN-PROC UNKNOWN UNKNOWN 0 0 ALLOC_COMP) (UNKNOWN 0 0 0 0 UNKNOWN ())
0 0 () () 0 ((45 'state' (INTEGER 4 0 0 0 INTEGER ()) () (UNKNOWN-FL
UNKNOWN-INTENT UNKNOWN-PROC UNKNOWN UNKNOWN 0 0) UNKNOWN-ACCESS ()) (46
'loc_to_glob' (INTEGER 4 0 0 0 INTEGER ()) (1 0 DEFERRED () ()) (
UNKNOWN-FL UNKNOWN-INTENT UNKNOWN-PROC UNKNOWN UNKNOWN 0 0 ALLOCATABLE
DIMENSION) UNKNOWN-ACCESS ()) (47 'glob_to_loc' (INTEGER 4 0 0 0 INTEGER
()) (1 0 DEFERRED () ()) (UNKNOWN-FL UNKNOWN-INTENT UNKNOWN-PROC UNKNOWN
UNKNOWN 0 0 ALLOCATABLE DIMENSION) UNKNOWN-ACCESS ()) (48 'hashvsize' (
INTEGER 4 0 0 0 INTEGER ()) () (UNKNOWN-FL UNKNOWN-INTENT UNKNOWN-PROC
UNKNOWN UNKNOWN 0 0) UNKNOWN-ACCESS ()) (49 'hashvmask' (INTEGER 4 0 0 0
INTEGER ()) () (UNKNOWN-FL UNKNOWN-INTENT UNKNOWN-PROC UNKNOWN UNKNOWN 0
0) UNKNOWN-ACCESS ()) (50 'hashv' (INTEGER 4 0 0 0 INTEGER ()) (1 0
DEFERRED () ()) (UNKNOWN-FL UNKNOWN-INTENT UNKNOWN-PROC UNKNOWN UNKNOWN
0 0 ALLOCATABLE DIMENSION) UNKNOWN-ACCESS ()) (51 'glb_lc' (INTEGER 4 0
0 0 INTEGER ()) (2 0 DEFERRED () () () ()) (UNKNOWN-FL UNKNOWN-INTENT
UNKNOWN-PROC UNKNOWN UNKNOWN 0 0 ALLOCATABLE DIMENSION) UNKNOWN-ACCESS ())
(52 'hash' (DERIVED 9 0 0 0 DERIVED ()) () (UNKNOWN-FL UNKNOWN-INTENT
UNKNOWN-PROC UNKNOWN UNKNOWN 0 0) UNKNOWN-ACCESS (STRUCTURE (DERIVED 9 0
0 0 DERIVED ()) 0 ((() ()) (() ()) (() ()) (() ()) ((NULL (INTEGER 4 0 0
0 INTEGER ()) 0) ()) (() ()) (() ())) ()))) PUBLIC (() () () ()) () 0 0
61816325)
53 '__convert_r4_r8' '(intrinsic)' '' 1 ((PROCEDURE UNKNOWN-INTENT
UNKNOWN-PROC UNKNOWN UNKNOWN 0 0 FUNCTION ELEMENTAL PURE) (REAL 8 0 0 0
REAL ()) 0 0 () () 53 () () () 0 0)
54 'clonehashtable' 'psb_hash_mod' '' 1 ((PROCEDURE UNKNOWN-INTENT
MODULE-PROC DECL UNKNOWN 0 0 SUBROUTINE ALWAYS_EXPLICIT) (UNKNOWN 0 0 0
0 UNKNOWN ()) 55 0 (56 57 58) () 0 () () () 0 0)
59 'cone' 'psb_const_mod' '' 1 ((PARAMETER UNKNOWN-INTENT UNKNOWN-PROC
UNKNOWN IMPLICIT-SAVE 0 0) (COMPLEX 4 0 0 0 COMPLEX ()) 0 0 () (
CONSTANT (COMPLEX 4 0 0 0 COMPLEX ()) 0 '0.1000000@1' '0.0000000@0') ()
0 () () () 0 0)
60 'czero' 'psb_const_mod' '' 1 ((PARAMETER UNKNOWN-INTENT UNKNOWN-PROC
UNKNOWN IMPLICIT-SAVE 0 0) (COMPLEX 4 0 0 0 COMPLEX ()) 0 0 () (
CONSTANT (COMPLEX 4 0 0 0 COMPLEX ()) 0 '0.0000000@0' '0.0000000@0') ()
0 () () () 0 0)
61 'd_epstol' 'psb_const_mod' '' 1 ((PARAMETER UNKNOWN-INTENT
UNKNOWN-PROC UNKNOWN IMPLICIT-SAVE 0 0) (REAL 8 0 0 0 REAL ()) 0 0 () (
CONSTANT (REAL 8 0 0 0 REAL ()) 0 '0.7ed2450285913c@-13') () 0 () () ()
0 0)
62 'done' 'psb_const_mod' '' 1 ((PARAMETER UNKNOWN-INTENT UNKNOWN-PROC
UNKNOWN IMPLICIT-SAVE 0 0) (REAL 8 0 0 0 REAL ()) 0 0 () (CONSTANT (
REAL 8 0 0 0 REAL ()) 0 '0.10000000000000@1') () 0 () () () 0 0)
63 'dzero' 'psb_const_mod' '' 1 ((PARAMETER UNKNOWN-INTENT UNKNOWN-PROC
UNKNOWN IMPLICIT-SAVE 0 0) (REAL 8 0 0 0 REAL ()) 0 0 () (CONSTANT (
REAL 8 0 0 0 REAL ()) 0 '0.00000000000000@0') () 0 () () () 0 0)
6 'hashcopy' 'psb_hash_mod' '' 1 ((PROCEDURE UNKNOWN-INTENT MODULE-PROC
DECL UNKNOWN 0 0 SUBROUTINE) (UNKNOWN 0 0 0 0 UNKNOWN ()) 64 0 (65 66 67)
() 0 () () () 0 0)
68 'hashduplicate' 'psb_hash_mod' '' 1 ((PARAMETER UNKNOWN-INTENT
UNKNOWN-PROC UNKNOWN IMPLICIT-SAVE 0 0) (INTEGER 4 0 0 0 INTEGER ()) 0 0
() (CONSTANT (INTEGER 4 0 0 0 INTEGER ()) 0 '123') () 0 () () () 0 0)
5 'hashfree' 'psb_hash_mod' '' 1 ((PROCEDURE UNKNOWN-INTENT MODULE-PROC
DECL UNKNOWN 0 0 SUBROUTINE) (UNKNOWN 0 0 0 0 UNKNOWN ()) 69 0 (70 71) ()
0 () () () 0 0)
72 'hashfreeentry' 'psb_hash_mod' '' 1 ((PARAMETER UNKNOWN-INTENT
UNKNOWN-PROC UNKNOWN IMPLICIT-SAVE 0 0) (INTEGER 4 0 0 0 INTEGER ()) 0 0
() (CONSTANT (INTEGER 4 0 0 0 INTEGER ()) 0 '-1') () 0 () () () 0 0)
73 'hashnotfound' 'psb_hash_mod' '' 1 ((PARAMETER UNKNOWN-INTENT
UNKNOWN-PROC UNKNOWN IMPLICIT-SAVE 0 0) (INTEGER 4 0 0 0 INTEGER ()) 0 0
() (CONSTANT (INTEGER 4 0 0 0 INTEGER ()) 0 '-256') () 0 () () () 0 0)
74 'hashok' 'psb_hash_mod' '' 1 ((PARAMETER UNKNOWN-INTENT UNKNOWN-PROC
UNKNOWN IMPLICIT-SAVE 0 0) (INTEGER 4 0 0 0 INTEGER ()) 0 0 () (
CONSTANT (INTEGER 4 0 0 0 INTEGER ()) 0 '0') () 0 () () () 0 0)
75 'hashoutofmemory' 'psb_hash_mod' '' 1 ((PARAMETER UNKNOWN-INTENT
UNKNOWN-PROC UNKNOWN IMPLICIT-SAVE 0 0) (INTEGER 4 0 0 0 INTEGER ()) 0 0
() (CONSTANT (INTEGER 4 0 0 0 INTEGER ()) 0 '-512') () 0 () () () 0 0)
23 'hashtransfer' 'psb_hash_mod' '' 1 ((PROCEDURE UNKNOWN-INTENT
MODULE-PROC DECL UNKNOWN 0 0 SUBROUTINE) (UNKNOWN 0 0 0 0 UNKNOWN ()) 76
0 (77 78 79) () 0 () () () 0 0)
80 'hashval' 'psb_hash_mod' '' 1 ((PROCEDURE UNKNOWN-INTENT MODULE-PROC
DECL UNKNOWN 0 0 FUNCTION IMPLICIT_PURE) (INTEGER 4 0 0 0 INTEGER ()) 81
0 (82) () 83 () () () 0 0)
84 'ione' 'psb_const_mod' '' 1 ((PARAMETER UNKNOWN-INTENT UNKNOWN-PROC
UNKNOWN IMPLICIT-SAVE 0 0) (INTEGER 4 0 0 0 INTEGER ()) 0 0 () (
CONSTANT (INTEGER 4 0 0 0 INTEGER ()) 0 '1') () 0 () () () 0 0)
85 'ithree' 'psb_const_mod' '' 1 ((PARAMETER UNKNOWN-INTENT UNKNOWN-PROC
UNKNOWN IMPLICIT-SAVE 0 0) (INTEGER 4 0 0 0 INTEGER ()) 0 0 () (
CONSTANT (INTEGER 4 0 0 0 INTEGER ()) 0 '3') () 0 () () () 0 0)
86 'itwo' 'psb_const_mod' '' 1 ((PARAMETER UNKNOWN-INTENT UNKNOWN-PROC
UNKNOWN IMPLICIT-SAVE 0 0) (INTEGER 4 0 0 0 INTEGER ()) 0 0 () (
CONSTANT (INTEGER 4 0 0 0 INTEGER ()) 0 '2') () 0 () () () 0 0)
87 'izero' 'psb_const_mod' '' 1 ((PARAMETER UNKNOWN-INTENT UNKNOWN-PROC
UNKNOWN IMPLICIT-SAVE 0 0) (INTEGER 4 0 0 0 INTEGER ()) 0 0 () (
CONSTANT (INTEGER 4 0 0 0 INTEGER ()) 0 '0') () 0 () () () 0 0)
88 'kind' '(intrinsic)' '' 1 ((PROCEDURE UNKNOWN-INTENT UNKNOWN-PROC
UNKNOWN UNKNOWN 0 0 FUNCTION) (INTEGER 4 0 0 0 INTEGER ()) 0 0 () () 88
() () () 0 0)
89 'longndig' 'psb_const_mod' '' 1 ((PARAMETER UNKNOWN-INTENT
UNKNOWN-PROC UNKNOWN IMPLICIT-SAVE 0 0) (INTEGER 4 0 0 0 INTEGER ()) 0 0
() (CONSTANT (INTEGER 4 0 0 0 INTEGER ()) 0 '12') () 0 () () () 0 0)
90 'mone' 'psb_const_mod' '' 1 ((PARAMETER UNKNOWN-INTENT UNKNOWN-PROC
UNKNOWN IMPLICIT-SAVE 0 0) (INTEGER 4 0 0 0 INTEGER ()) 0 0 () (
CONSTANT (INTEGER 4 0 0 0 INTEGER ()) 0 '-1') () 0 () () () 0 0)
91 'ndig' 'psb_const_mod' '' 1 ((PARAMETER UNKNOWN-INTENT UNKNOWN-PROC
UNKNOWN IMPLICIT-SAVE 0 0) (INTEGER 4 0 0 0 INTEGER ()) 0 0 () (
CONSTANT (INTEGER 4 0 0 0 INTEGER ()) 0 '8') () 0 () () () 0 0)
92 'null' '(intrinsic)' '' 1 ((PROCEDURE UNKNOWN-INTENT INTRINSIC-PROC
UNKNOWN UNKNOWN 0 0 FUNCTION) (UNKNOWN 0 0 0 0 UNKNOWN ()) 0 0 () () 0 ()
() () 0 0)
93 'psb_all_' 'psb_const_mod' '' 1 ((PARAMETER UNKNOWN-INTENT
UNKNOWN-PROC UNKNOWN IMPLICIT-SAVE 0 0) (CHARACTER 1 0 0 0 CHARACTER ((
CONSTANT (INTEGER 4 0 0 0 INTEGER ()) 0 '1'))) 0 0 () (CONSTANT (
CHARACTER 1 0 0 0 CHARACTER (())) 0 1 'A') () 0 () () () 0 0)
94 'psb_avg_' 'psb_descriptor_type' '' 1 ((PARAMETER UNKNOWN-INTENT
UNKNOWN-PROC UNKNOWN IMPLICIT-SAVE 0 0) (INTEGER 4 0 0 0 INTEGER ()) 0 0
() (CONSTANT (INTEGER 4 0 0 0 INTEGER ()) 0 '2') () 0 () () () 0 0)
95 'psb_cd_choose_large_state' 'psb_descriptor_type' '' 1 ((PROCEDURE
UNKNOWN-INTENT MODULE-PROC DECL UNKNOWN 0 0 FUNCTION) (LOGICAL 4 0 0 0
LOGICAL ()) 96 0 (97 98) () 95 () () () 0 0)
99 'psb_cd_get_context' 'psb_descriptor_type' '' 1 ((PROCEDURE
UNKNOWN-INTENT MODULE-PROC DECL UNKNOWN 0 0 FUNCTION) (INTEGER 4 0 0 0
INTEGER ()) 100 0 (101) () 99 () () () 0 0)
102 'psb_cd_get_dectype' 'psb_descriptor_type' '' 1 ((PROCEDURE
UNKNOWN-INTENT MODULE-PROC DECL UNKNOWN 0 0 FUNCTION) (INTEGER 4 0 0 0
INTEGER ()) 103 0 (104) () 102 () () () 0 0)
105 'psb_cd_get_global_cols' 'psb_descriptor_type' '' 1 ((PROCEDURE
UNKNOWN-INTENT MODULE-PROC DECL UNKNOWN 0 0 FUNCTION) (INTEGER 4 0 0 0
INTEGER ()) 106 0 (107) () 105 () () () 0 0)
108 'psb_cd_get_global_rows' 'psb_descriptor_type' '' 1 ((PROCEDURE
UNKNOWN-INTENT MODULE-PROC DECL UNKNOWN 0 0 FUNCTION) (INTEGER 4 0 0 0
INTEGER ()) 109 0 (110) () 108 () () () 0 0)
111 'psb_cd_get_large_threshold' 'psb_descriptor_type' '' 1 ((PROCEDURE
UNKNOWN-INTENT MODULE-PROC DECL UNKNOWN 0 0 FUNCTION IMPLICIT_PURE) (
INTEGER 4 0 0 0 INTEGER ()) 0 0 () () 111 () () () 0 0)
112 'psb_cd_get_list' 'psb_descriptor_type' '' 1 ((PROCEDURE
UNKNOWN-INTENT MODULE-PROC DECL UNKNOWN 0 0 SUBROUTINE ALWAYS_EXPLICIT)
(UNKNOWN 0 0 0 0 UNKNOWN ()) 113 0 (114 115 116 117 118 119 120) () 0 ()
() () 0 0)
121 'psb_cd_get_local_cols' 'psb_descriptor_type' '' 1 ((PROCEDURE
UNKNOWN-INTENT MODULE-PROC DECL UNKNOWN 0 0 FUNCTION) (INTEGER 4 0 0 0
INTEGER ()) 122 0 (123) () 121 () () () 0 0)
124 'psb_cd_get_local_rows' 'psb_descriptor_type' '' 1 ((PROCEDURE
UNKNOWN-INTENT MODULE-PROC DECL UNKNOWN 0 0 FUNCTION) (INTEGER 4 0 0 0
INTEGER ()) 125 0 (126) () 124 () () () 0 0)
127 'psb_cd_get_mpic' 'psb_descriptor_type' '' 1 ((PROCEDURE
UNKNOWN-INTENT MODULE-PROC DECL UNKNOWN 0 0 FUNCTION) (INTEGER 4 0 0 0
INTEGER ()) 128 0 (129) () 127 () () () 0 0)
130 'psb_cd_get_recv_idx' 'psb_descriptor_type' '' 1 ((PROCEDURE
UNKNOWN-INTENT MODULE-PROC DECL UNKNOWN 0 0 SUBROUTINE ALWAYS_EXPLICIT)
(UNKNOWN 0 0 0 0 UNKNOWN ()) 131 0 (132 133 134 135 136) () 0 () () () 0
0)
137 'psb_cd_get_size' 'psb_descriptor_type' '' 1 ((PROCEDURE
UNKNOWN-INTENT MODULE-PROC DECL UNKNOWN 0 0 FUNCTION) (INTEGER 4 0 0 0
INTEGER ()) 138 0 (139) () 137 () () () 0 0)
140 'psb_cd_ovl_asb_' 'psb_descriptor_type' '' 1 ((PARAMETER
UNKNOWN-INTENT UNKNOWN-PROC UNKNOWN IMPLICIT-SAVE 0 0) (INTEGER 4 0 0 0
INTEGER ()) 0 0 () (CONSTANT (INTEGER 4 0 0 0 INTEGER ()) 0 '3400') () 0
() () () 0 0)
141 'psb_cd_ovl_bld_' 'psb_descriptor_type' '' 1 ((PARAMETER
UNKNOWN-INTENT UNKNOWN-PROC UNKNOWN IMPLICIT-SAVE 0 0) (INTEGER 4 0 0 0
INTEGER ()) 0 0 () (CONSTANT (INTEGER 4 0 0 0 INTEGER ()) 0 '3399') () 0
() () () 0 0)
142 'psb_cd_set_large_threshold' 'psb_descriptor_type' '' 1 ((PROCEDURE
UNKNOWN-INTENT MODULE-PROC DECL UNKNOWN 0 0 SUBROUTINE) (UNKNOWN 0 0 0 0
UNKNOWN ()) 143 0 (144) () 0 () () () 0 0)
145 'psb_cd_set_ovl_asb' 'psb_descriptor_type' '' 1 ((PROCEDURE
UNKNOWN-INTENT MODULE-PROC DECL UNKNOWN 0 0 SUBROUTINE) (UNKNOWN 0 0 0 0
UNKNOWN ()) 146 0 (147 148) () 0 () () () 0 0)
25 'psb_cd_sizeof' 'psb_descriptor_type' '' 1 ((PROCEDURE UNKNOWN-INTENT
MODULE-PROC DECL UNKNOWN 0 0 FUNCTION) (INTEGER 8 0 0 0 INTEGER ()) 149
0 (150) () 151 () () () 0 0)
4 'psb_cdfree' 'psb_descriptor_type' '' 1 ((PROCEDURE UNKNOWN-INTENT
MODULE-PROC DECL UNKNOWN 0 0 SUBROUTINE) (UNKNOWN 0 0 0 0 UNKNOWN ())
152 0 (153 154) () 0 () () () 0 0)
22 'psb_cdtransfer' 'psb_descriptor_type' '' 1 ((PROCEDURE
UNKNOWN-INTENT MODULE-PROC DECL UNKNOWN 0 0 SUBROUTINE) (UNKNOWN 0 0 0 0
UNKNOWN ()) 155 0 (156 157 158) () 0 () () () 0 0)
159 'psb_comm_ext_' 'psb_descriptor_type' '' 1 ((PARAMETER
UNKNOWN-INTENT UNKNOWN-PROC UNKNOWN IMPLICIT-SAVE 0 0) (INTEGER 4 0 0 0
INTEGER ()) 0 0 () (CONSTANT (INTEGER 4 0 0 0 INTEGER ()) 0 '3') () 0 ()
() () 0 0)
160 'psb_comm_halo_' 'psb_descriptor_type' '' 1 ((PARAMETER
UNKNOWN-INTENT UNKNOWN-PROC UNKNOWN IMPLICIT-SAVE 0 0) (INTEGER 4 0 0 0
INTEGER ()) 0 0 () (CONSTANT (INTEGER 4 0 0 0 INTEGER ()) 0 '1') () 0 ()
() () 0 0)
161 'psb_comm_mov_' 'psb_descriptor_type' '' 1 ((PARAMETER
UNKNOWN-INTENT UNKNOWN-PROC UNKNOWN IMPLICIT-SAVE 0 0) (INTEGER 4 0 0 0
INTEGER ()) 0 0 () (CONSTANT (INTEGER 4 0 0 0 INTEGER ()) 0 '4') () 0 ()
() () 0 0)
162 'psb_comm_ovr_' 'psb_descriptor_type' '' 1 ((PARAMETER
UNKNOWN-INTENT UNKNOWN-PROC UNKNOWN IMPLICIT-SAVE 0 0) (INTEGER 4 0 0 0
INTEGER ()) 0 0 () (CONSTANT (INTEGER 4 0 0 0 INTEGER ()) 0 '2') () 0 ()
() () 0 0)
163 'psb_const_mod' 'psb_const_mod' '' 1 ((MODULE UNKNOWN-INTENT
UNKNOWN-PROC UNKNOWN UNKNOWN 0 0) (UNKNOWN 0 0 0 0 UNKNOWN ()) 0 0 () ()
0 () () () 0 0)
164 'psb_ctxt_' 'psb_descriptor_type' '' 1 ((PARAMETER UNKNOWN-INTENT
UNKNOWN-PROC UNKNOWN IMPLICIT-SAVE 0 0) (INTEGER 4 0 0 0 INTEGER ()) 0 0
() (CONSTANT (INTEGER 4 0 0 0 INTEGER ()) 0 '6') () 0 () () () 0 0)
165 'psb_dec_type_' 'psb_descriptor_type' '' 1 ((PARAMETER
UNKNOWN-INTENT UNKNOWN-PROC UNKNOWN IMPLICIT-SAVE 0 0) (INTEGER 4 0 0 0
INTEGER ()) 0 0 () (CONSTANT (INTEGER 4 0 0 0 INTEGER ()) 0 '1') () 0 ()
() () 0 0)
166 'psb_default_large_threshold' 'psb_descriptor_type' '' 1 ((
PARAMETER UNKNOWN-INTENT UNKNOWN-PROC UNKNOWN IMPLICIT-SAVE 0 0) (
INTEGER 4 0 0 0 INTEGER ()) 0 0 () (CONSTANT (INTEGER 4 0 0 0 INTEGER ())
0 '1048576') () 0 () () () 0 0)
167 'psb_desc_asb_' 'psb_descriptor_type' '' 1 ((PARAMETER
UNKNOWN-INTENT UNKNOWN-PROC UNKNOWN IMPLICIT-SAVE 0 0) (INTEGER 4 0 0 0
INTEGER ()) 0 0 () (CONSTANT (INTEGER 4 0 0 0 INTEGER ()) 0 '3099') () 0
() () () 0 0)
168 'psb_desc_bld_' 'psb_descriptor_type' '' 1 ((PARAMETER
UNKNOWN-INTENT UNKNOWN-PROC UNKNOWN IMPLICIT-SAVE 0 0) (INTEGER 4 0 0 0
INTEGER ()) 0 0 () (CONSTANT (INTEGER 4 0 0 0 INTEGER ()) 0 '3100') () 0
() () () 0 0)
169 'psb_desc_large_' 'psb_descriptor_type' '' 1 ((PARAMETER
UNKNOWN-INTENT UNKNOWN-PROC UNKNOWN IMPLICIT-SAVE 0 0) (INTEGER 4 0 0 0
INTEGER ()) 0 0 () (CONSTANT (INTEGER 4 0 0 0 INTEGER ()) 0 '3300') () 0
() () () 0 0)
170 'psb_desc_normal_' 'psb_descriptor_type' '' 1 ((PARAMETER
UNKNOWN-INTENT UNKNOWN-PROC UNKNOWN IMPLICIT-SAVE 0 0) (INTEGER 4 0 0 0
INTEGER ()) 0 0 () (CONSTANT (INTEGER 4 0 0 0 INTEGER ()) 0 '3299') () 0
() () () 0 0)
171 'psb_desc_repl_' 'psb_descriptor_type' '' 1 ((PARAMETER
UNKNOWN-INTENT UNKNOWN-PROC UNKNOWN IMPLICIT-SAVE 0 0) (INTEGER 4 0 0 0
INTEGER ()) 0 0 () (CONSTANT (INTEGER 4 0 0 0 INTEGER ()) 0 '3199') () 0
() () () 0 0)
172 'psb_desc_size_' 'psb_descriptor_type' '' 1 ((PARAMETER
UNKNOWN-INTENT UNKNOWN-PROC UNKNOWN IMPLICIT-SAVE 0 0) (INTEGER 4 0 0 0
INTEGER ()) 0 0 () (CONSTANT (INTEGER 4 0 0 0 INTEGER ()) 0 '7') () 0 ()
() () 0 0)
173 'psb_desc_type' 'psb_descriptor_type' '' 1 ((PROCEDURE
UNKNOWN-INTENT UNKNOWN-PROC DECL UNKNOWN 0 0 FUNCTION GENERIC) (UNKNOWN
0 0 0 0 UNKNOWN ()) 0 0 () () 0 () () () 0 0)
174 'psb_desc_upd_' 'psb_descriptor_type' '' 1 ((PARAMETER
UNKNOWN-INTENT UNKNOWN-PROC UNKNOWN IMPLICIT-SAVE 0 0) (INTEGER 4 0 0 0
INTEGER ()) 0 0 () (CONSTANT (INTEGER 4 0 0 0 INTEGER ()) 0 '3101') () 0
() () () 0 0)
175 'psb_descriptor_type' 'psb_descriptor_type' '' 1 ((MODULE
UNKNOWN-INTENT UNKNOWN-PROC UNKNOWN UNKNOWN 0 0) (UNKNOWN 0 0 0 0
UNKNOWN ()) 0 0 () () 0 () () () 0 0)
176 'psb_dpk_' 'psb_const_mod' '' 1 ((PARAMETER UNKNOWN-INTENT
UNKNOWN-PROC UNKNOWN IMPLICIT-SAVE 0 0) (INTEGER 4 0 0 0 INTEGER ()) 0 0
() (CONSTANT (INTEGER 4 0 0 0 INTEGER ()) 0 '8') () 0 () () () 0 0)
177 'psb_elem_recv_' 'psb_descriptor_type' '' 1 ((PARAMETER
UNKNOWN-INTENT UNKNOWN-PROC UNKNOWN IMPLICIT-SAVE 0 0) (INTEGER 4 0 0 0
INTEGER ()) 0 0 () (CONSTANT (INTEGER 4 0 0 0 INTEGER ()) 0 '2') () 0 ()
() () 0 0)
178 'psb_elem_send_' 'psb_descriptor_type' '' 1 ((PARAMETER
UNKNOWN-INTENT UNKNOWN-PROC UNKNOWN IMPLICIT-SAVE 0 0) (INTEGER 4 0 0 0
INTEGER ()) 0 0 () (CONSTANT (INTEGER 4 0 0 0 INTEGER ()) 0 '3') () 0 ()
() () 0 0)
179 'psb_err_alloc_dealloc_' 'psb_const_mod' '' 1 ((PARAMETER
UNKNOWN-INTENT UNKNOWN-PROC UNKNOWN IMPLICIT-SAVE 0 0) (INTEGER 4 0 0 0
INTEGER ()) 0 0 () (CONSTANT (INTEGER 4 0 0 0 INTEGER ()) 0 '4000') () 0
() () () 0 0)
180 'psb_err_alloc_request_' 'psb_const_mod' '' 1 ((PARAMETER
UNKNOWN-INTENT UNKNOWN-PROC UNKNOWN IMPLICIT-SAVE 0 0) (INTEGER 4 0 0 0
INTEGER ()) 0 0 () (CONSTANT (INTEGER 4 0 0 0 INTEGER ()) 0 '4025') () 0
() () () 0 0)
181 'psb_err_arg_m_required_' 'psb_const_mod' '' 1 ((PARAMETER
UNKNOWN-INTENT UNKNOWN-PROC UNKNOWN IMPLICIT-SAVE 0 0) (INTEGER 4 0 0 0
INTEGER ()) 0 0 () (CONSTANT (INTEGER 4 0 0 0 INTEGER ()) 0 '582') () 0
() () () 0 0)
182 'psb_err_asb_nrc_error_' 'psb_const_mod' '' 1 ((PARAMETER
UNKNOWN-INTENT UNKNOWN-PROC UNKNOWN IMPLICIT-SAVE 0 0) (INTEGER 4 0 0 0
INTEGER ()) 0 0 () (CONSTANT (INTEGER 4 0 0 0 INTEGER ()) 0 '71') () 0 ()
() () 0 0)
183 'psb_err_context_error_' 'psb_const_mod' '' 1 ((PARAMETER
UNKNOWN-INTENT UNKNOWN-PROC UNKNOWN IMPLICIT-SAVE 0 0) (INTEGER 4 0 0 0
INTEGER ()) 0 0 () (CONSTANT (INTEGER 4 0 0 0 INTEGER ()) 0 '2010') () 0
() () () 0 0)
184 'psb_err_dupl_cd_vl' 'psb_const_mod' '' 1 ((PARAMETER UNKNOWN-INTENT
UNKNOWN-PROC UNKNOWN IMPLICIT-SAVE 0 0) (INTEGER 4 0 0 0 INTEGER ()) 0 0
() (CONSTANT (INTEGER 4 0 0 0 INTEGER ()) 0 '123') () 0 () () () 0 0)
185 'psb_err_duplicate_coo' 'psb_const_mod' '' 1 ((PARAMETER
UNKNOWN-INTENT UNKNOWN-PROC UNKNOWN IMPLICIT-SAVE 0 0) (INTEGER 4 0 0 0
INTEGER ()) 0 0 () (CONSTANT (INTEGER 4 0 0 0 INTEGER ()) 0 '130') () 0
() () () 0 0)
186 'psb_err_entry_out_of_bounds_' 'psb_const_mod' '' 1 ((PARAMETER
UNKNOWN-INTENT UNKNOWN-PROC UNKNOWN IMPLICIT-SAVE 0 0) (INTEGER 4 0 0 0
INTEGER ()) 0 0 () (CONSTANT (INTEGER 4 0 0 0 INTEGER ()) 0 '551') () 0
() () () 0 0)
187 'psb_err_forgot_geall_' 'psb_const_mod' '' 1 ((PARAMETER
UNKNOWN-INTENT UNKNOWN-PROC UNKNOWN IMPLICIT-SAVE 0 0) (INTEGER 4 0 0 0
INTEGER ()) 0 0 () (CONSTANT (INTEGER 4 0 0 0 INTEGER ()) 0 '290') () 0
() () () 0 0)
188 'psb_err_forgot_spall_' 'psb_const_mod' '' 1 ((PARAMETER
UNKNOWN-INTENT UNKNOWN-PROC UNKNOWN IMPLICIT-SAVE 0 0) (INTEGER 4 0 0 0
INTEGER ()) 0 0 () (CONSTANT (INTEGER 4 0 0 0 INTEGER ()) 0 '295') () 0
() () () 0 0)
189 'psb_err_format_unknown_' 'psb_const_mod' '' 1 ((PARAMETER
UNKNOWN-INTENT UNKNOWN-PROC UNKNOWN IMPLICIT-SAVE 0 0) (INTEGER 4 0 0 0
INTEGER ()) 0 0 () (CONSTANT (INTEGER 4 0 0 0 INTEGER ()) 0 '136') () 0
() () () 0 0)
190 'psb_err_from_subroutine_' 'psb_const_mod' '' 1 ((PARAMETER
UNKNOWN-INTENT UNKNOWN-PROC UNKNOWN IMPLICIT-SAVE 0 0) (INTEGER 4 0 0 0
INTEGER ()) 0 0 () (CONSTANT (INTEGER 4 0 0 0 INTEGER ()) 0 '4010') () 0
() () () 0 0)
191 'psb_err_from_subroutine_ai_' 'psb_const_mod' '' 1 ((PARAMETER
UNKNOWN-INTENT UNKNOWN-PROC UNKNOWN IMPLICIT-SAVE 0 0) (INTEGER 4 0 0 0
INTEGER ()) 0 0 () (CONSTANT (INTEGER 4 0 0 0 INTEGER ()) 0 '4013') () 0
() () () 0 0)
192 'psb_err_from_subroutine_i_' 'psb_const_mod' '' 1 ((PARAMETER
UNKNOWN-INTENT UNKNOWN-PROC UNKNOWN IMPLICIT-SAVE 0 0) (INTEGER 4 0 0 0
INTEGER ()) 0 0 () (CONSTANT (INTEGER 4 0 0 0 INTEGER ()) 0 '4012') () 0
() () () 0 0)
193 'psb_err_from_subroutine_non_' 'psb_const_mod' '' 1 ((PARAMETER
UNKNOWN-INTENT UNKNOWN-PROC UNKNOWN IMPLICIT-SAVE 0 0) (INTEGER 4 0 0 0
INTEGER ()) 0 0 () (CONSTANT (INTEGER 4 0 0 0 INTEGER ()) 0 '4011') () 0
() () () 0 0)
194 'psb_err_ia1_badindices_' 'psb_const_mod' '' 1 ((PARAMETER
UNKNOWN-INTENT UNKNOWN-PROC UNKNOWN IMPLICIT-SAVE 0 0) (INTEGER 4 0 0 0
INTEGER ()) 0 0 () (CONSTANT (INTEGER 4 0 0 0 INTEGER ()) 0 '100') () 0
() () () 0 0)
195 'psb_err_ia1_not_increasing_' 'psb_const_mod' '' 1 ((PARAMETER
UNKNOWN-INTENT UNKNOWN-PROC UNKNOWN IMPLICIT-SAVE 0 0) (INTEGER 4 0 0 0
INTEGER ()) 0 0 () (CONSTANT (INTEGER 4 0 0 0 INTEGER ()) 0 '91') () 0 ()
() () 0 0)
196 'psb_err_ia2_not_increasing_' 'psb_const_mod' '' 1 ((PARAMETER
UNKNOWN-INTENT UNKNOWN-PROC UNKNOWN IMPLICIT-SAVE 0 0) (INTEGER 4 0 0 0
INTEGER ()) 0 0 () (CONSTANT (INTEGER 4 0 0 0 INTEGER ()) 0 '90') () 0 ()
() () 0 0)
197 'psb_err_iarg2_neg_' 'psb_const_mod' '' 1 ((PARAMETER UNKNOWN-INTENT
UNKNOWN-PROC UNKNOWN IMPLICIT-SAVE 0 0) (INTEGER 4 0 0 0 INTEGER ()) 0 0
() (CONSTANT (INTEGER 4 0 0 0 INTEGER ()) 0 '80') () 0 () () () 0 0)
198 'psb_err_iarg_invalid_i_' 'psb_const_mod' '' 1 ((PARAMETER
UNKNOWN-INTENT UNKNOWN-PROC UNKNOWN IMPLICIT-SAVE 0 0) (INTEGER 4 0 0 0
INTEGER ()) 0 0 () (CONSTANT (INTEGER 4 0 0 0 INTEGER ()) 0 '40') () 0 ()
() () 0 0)
199 'psb_err_iarg_invalid_value_' 'psb_const_mod' '' 1 ((PARAMETER
UNKNOWN-INTENT UNKNOWN-PROC UNKNOWN IMPLICIT-SAVE 0 0) (INTEGER 4 0 0 0
INTEGER ()) 0 0 () (CONSTANT (INTEGER 4 0 0 0 INTEGER ()) 0 '70') () 0 ()
() () 0 0)
200 'psb_err_iarg_mbeeiarra_i_' 'psb_const_mod' '' 1 ((PARAMETER
UNKNOWN-INTENT UNKNOWN-PROC UNKNOWN IMPLICIT-SAVE 0 0) (INTEGER 4 0 0 0
INTEGER ()) 0 0 () (CONSTANT (INTEGER 4 0 0 0 INTEGER ()) 0 '300') () 0
() () () 0 0)
201 'psb_err_iarg_n_mbgtian_' 'psb_const_mod' '' 1 ((PARAMETER
UNKNOWN-INTENT UNKNOWN-PROC UNKNOWN IMPLICIT-SAVE 0 0) (INTEGER 4 0 0 0
INTEGER ()) 0 0 () (CONSTANT (INTEGER 4 0 0 0 INTEGER ()) 0 '120') () 0
() () () 0 0)
202 'psb_err_iarg_neg_' 'psb_const_mod' '' 1 ((PARAMETER UNKNOWN-INTENT
UNKNOWN-PROC UNKNOWN IMPLICIT-SAVE 0 0) (INTEGER 4 0 0 0 INTEGER ()) 0 0
() (CONSTANT (INTEGER 4 0 0 0 INTEGER ()) 0 '10') () 0 () () () 0 0)
203 'psb_err_iarg_not_gteia_ii_' 'psb_const_mod' '' 1 ((PARAMETER
UNKNOWN-INTENT UNKNOWN-PROC UNKNOWN IMPLICIT-SAVE 0 0) (INTEGER 4 0 0 0
INTEGER ()) 0 0 () (CONSTANT (INTEGER 4 0 0 0 INTEGER ()) 0 '60') () 0 ()
() () 0 0)
204 'psb_err_iarg_not_gtia_ii_' 'psb_const_mod' '' 1 ((PARAMETER
UNKNOWN-INTENT UNKNOWN-PROC UNKNOWN IMPLICIT-SAVE 0 0) (INTEGER 4 0 0 0
INTEGER ()) 0 0 () (CONSTANT (INTEGER 4 0 0 0 INTEGER ()) 0 '50') () 0 ()
() () 0 0)
205 'psb_err_iarg_pos_' 'psb_const_mod' '' 1 ((PARAMETER UNKNOWN-INTENT
UNKNOWN-PROC UNKNOWN IMPLICIT-SAVE 0 0) (INTEGER 4 0 0 0 INTEGER ()) 0 0
() (CONSTANT (INTEGER 4 0 0 0 INTEGER ()) 0 '20') () 0 () () () 0 0)
206 'psb_err_iarray_outside_bounds_' 'psb_const_mod' '' 1 ((PARAMETER
UNKNOWN-INTENT UNKNOWN-PROC UNKNOWN IMPLICIT-SAVE 0 0) (INTEGER 4 0 0 0
INTEGER ()) 0 0 () (CONSTANT (INTEGER 4 0 0 0 INTEGER ()) 0 '140') () 0
() () () 0 0)
207 'psb_err_iarray_outside_process_' 'psb_const_mod' '' 1 ((PARAMETER
UNKNOWN-INTENT UNKNOWN-PROC UNKNOWN IMPLICIT-SAVE 0 0) (INTEGER 4 0 0 0
INTEGER ()) 0 0 () (CONSTANT (INTEGER 4 0 0 0 INTEGER ()) 0 '150') () 0
() () () 0 0)
208 'psb_err_inconsistent_index_lists_' 'psb_const_mod' '' 1 ((
PARAMETER UNKNOWN-INTENT UNKNOWN-PROC UNKNOWN IMPLICIT-SAVE 0 0) (
INTEGER 4 0 0 0 INTEGER ()) 0 0 () (CONSTANT (INTEGER 4 0 0 0 INTEGER ())
0 '552') () 0 () () () 0 0)
209 'psb_err_initerror_neugh_procs_' 'psb_const_mod' '' 1 ((PARAMETER
UNKNOWN-INTENT UNKNOWN-PROC UNKNOWN IMPLICIT-SAVE 0 0) (INTEGER 4 0 0 0
INTEGER ()) 0 0 () (CONSTANT (INTEGER 4 0 0 0 INTEGER ()) 0 '2011') () 0
() () () 0 0)
210 'psb_err_input_asize_invalid_i_' 'psb_const_mod' '' 1 ((PARAMETER
UNKNOWN-INTENT UNKNOWN-PROC UNKNOWN IMPLICIT-SAVE 0 0) (INTEGER 4 0 0 0
INTEGER ()) 0 0 () (CONSTANT (INTEGER 4 0 0 0 INTEGER ()) 0 '35') () 0 ()
() () 0 0)
211 'psb_err_input_matrix_unassembled_' 'psb_const_mod' '' 1 ((
PARAMETER UNKNOWN-INTENT UNKNOWN-PROC UNKNOWN IMPLICIT-SAVE 0 0) (
INTEGER 4 0 0 0 INTEGER ()) 0 0 () (CONSTANT (INTEGER 4 0 0 0 INTEGER ())
0 '3110') () 0 () () () 0 0)
212 'psb_err_input_no_regen_' 'psb_const_mod' '' 1 ((PARAMETER
UNKNOWN-INTENT UNKNOWN-PROC UNKNOWN IMPLICIT-SAVE 0 0) (INTEGER 4 0 0 0
INTEGER ()) 0 0 () (CONSTANT (INTEGER 4 0 0 0 INTEGER ()) 0 '2232') () 0
() () () 0 0)
213 'psb_err_input_value_invalid_i_' 'psb_const_mod' '' 1 ((PARAMETER
UNKNOWN-INTENT UNKNOWN-PROC UNKNOWN IMPLICIT-SAVE 0 0) (INTEGER 4 0 0 0
INTEGER ()) 0 0 () (CONSTANT (INTEGER 4 0 0 0 INTEGER ()) 0 '30') () 0 ()
() () 0 0)
214 'psb_err_internal_error_' 'psb_const_mod' '' 1 ((PARAMETER
UNKNOWN-INTENT UNKNOWN-PROC UNKNOWN IMPLICIT-SAVE 0 0) (INTEGER 4 0 0 0
INTEGER ()) 0 0 () (CONSTANT (INTEGER 4 0 0 0 INTEGER ()) 0 '4001') () 0
() () () 0 0)
215 'psb_err_invalid_a_and_cd_state_' 'psb_const_mod' '' 1 ((PARAMETER
UNKNOWN-INTENT UNKNOWN-PROC UNKNOWN IMPLICIT-SAVE 0 0) (INTEGER 4 0 0 0
INTEGER ()) 0 0 () (CONSTANT (INTEGER 4 0 0 0 INTEGER ()) 0 '1123') () 0
() () () 0 0)
216 'psb_err_invalid_args_combination_' 'psb_const_mod' '' 1 ((
PARAMETER UNKNOWN-INTENT UNKNOWN-PROC UNKNOWN IMPLICIT-SAVE 0 0) (
INTEGER 4 0 0 0 INTEGER ()) 0 0 () (CONSTANT (INTEGER 4 0 0 0 INTEGER ())
0 '110') () 0 () () () 0 0)
217 'psb_err_invalid_cd_state_' 'psb_const_mod' '' 1 ((PARAMETER
UNKNOWN-INTENT UNKNOWN-PROC UNKNOWN IMPLICIT-SAVE 0 0) (INTEGER 4 0 0 0
INTEGER ()) 0 0 () (CONSTANT (INTEGER 4 0 0 0 INTEGER ()) 0 '1122') () 0
() () () 0 0)
218 'psb_err_invalid_input_' 'psb_const_mod' '' 1 ((PARAMETER
UNKNOWN-INTENT UNKNOWN-PROC UNKNOWN IMPLICIT-SAVE 0 0) (INTEGER 4 0 0 0
INTEGER ()) 0 0 () (CONSTANT (INTEGER 4 0 0 0 INTEGER ()) 0 '5') () 0 ()
() () 0 0)
219 'psb_err_invalid_input_format_' 'psb_const_mod' '' 1 ((PARAMETER
UNKNOWN-INTENT UNKNOWN-PROC UNKNOWN IMPLICIT-SAVE 0 0) (INTEGER 4 0 0 0
INTEGER ()) 0 0 () (CONSTANT (INTEGER 4 0 0 0 INTEGER ()) 0 '134') () 0
() () () 0 0)
220 'psb_err_invalid_istop_' 'psb_const_mod' '' 1 ((PARAMETER
UNKNOWN-INTENT UNKNOWN-PROC UNKNOWN IMPLICIT-SAVE 0 0) (INTEGER 4 0 0 0
INTEGER ()) 0 0 () (CONSTANT (INTEGER 4 0 0 0 INTEGER ()) 0 '5001') () 0
() () () 0 0)
221 'psb_err_invalid_matrix_input_state_' 'psb_const_mod' '' 1 ((
PARAMETER UNKNOWN-INTENT UNKNOWN-PROC UNKNOWN IMPLICIT-SAVE 0 0) (
INTEGER 4 0 0 0 INTEGER ()) 0 0 () (CONSTANT (INTEGER 4 0 0 0 INTEGER ())
0 '2231') () 0 () () () 0 0)
222 'psb_err_invalid_ovr_num_' 'psb_const_mod' '' 1 ((PARAMETER
UNKNOWN-INTENT UNKNOWN-PROC UNKNOWN IMPLICIT-SAVE 0 0) (INTEGER 4 0 0 0
INTEGER ()) 0 0 () (CONSTANT (INTEGER 4 0 0 0 INTEGER ()) 0 '3') () 0 ()
() () 0 0)
223 'psb_err_invalid_pid_arg_' 'psb_const_mod' '' 1 ((PARAMETER
UNKNOWN-INTENT UNKNOWN-PROC UNKNOWN IMPLICIT-SAVE 0 0) (INTEGER 4 0 0 0
INTEGER ()) 0 0 () (CONSTANT (INTEGER 4 0 0 0 INTEGER ()) 0 '115') () 0
() () () 0 0)
224 'psb_err_ix_n1_iy_n1_unsupported_' 'psb_const_mod' '' 1 ((PARAMETER
UNKNOWN-INTENT UNKNOWN-PROC UNKNOWN IMPLICIT-SAVE 0 0) (INTEGER 4 0 0 0
INTEGER ()) 0 0 () (CONSTANT (INTEGER 4 0 0 0 INTEGER ()) 0 '3040') () 0
() () () 0 0)
225 'psb_err_ja_nix_ia_niy_unsupported_' 'psb_const_mod' '' 1 ((
PARAMETER UNKNOWN-INTENT UNKNOWN-PROC UNKNOWN IMPLICIT-SAVE 0 0) (
INTEGER 4 0 0 0 INTEGER ()) 0 0 () (CONSTANT (INTEGER 4 0 0 0 INTEGER ())
0 '3030') () 0 () () () 0 0)
226 'psb_err_lld_case_not_implemented_' 'psb_const_mod' '' 1 ((
PARAMETER UNKNOWN-INTENT UNKNOWN-PROC UNKNOWN IMPLICIT-SAVE 0 0) (
INTEGER 4 0 0 0 INTEGER ()) 0 0 () (CONSTANT (INTEGER 4 0 0 0 INTEGER ())
0 '3010') () 0 () () () 0 0)
227 'psb_err_mpi_error_' 'psb_const_mod' '' 1 ((PARAMETER UNKNOWN-INTENT
UNKNOWN-PROC UNKNOWN IMPLICIT-SAVE 0 0) (INTEGER 4 0 0 0 INTEGER ()) 0 0
() (CONSTANT (INTEGER 4 0 0 0 INTEGER ()) 0 '400') () 0 () () () 0 0)
228 'psb_err_no_optional_arg_' 'psb_const_mod' '' 1 ((PARAMETER
UNKNOWN-INTENT UNKNOWN-PROC UNKNOWN IMPLICIT-SAVE 0 0) (INTEGER 4 0 0 0
INTEGER ()) 0 0 () (CONSTANT (INTEGER 4 0 0 0 INTEGER ()) 0 '581') () 0
() () () 0 0)
229 'psb_err_only_unit_diag_' 'psb_const_mod' '' 1 ((PARAMETER
UNKNOWN-INTENT UNKNOWN-PROC UNKNOWN IMPLICIT-SAVE 0 0) (INTEGER 4 0 0 0
INTEGER ()) 0 0 () (CONSTANT (INTEGER 4 0 0 0 INTEGER ()) 0 '3022') () 0
() () () 0 0)
230 'psb_err_parm_differs_among_procs_' 'psb_const_mod' '' 1 ((
PARAMETER UNKNOWN-INTENT UNKNOWN-PROC UNKNOWN IMPLICIT-SAVE 0 0) (
INTEGER 4 0 0 0 INTEGER ()) 0 0 () (CONSTANT (INTEGER 4 0 0 0 INTEGER ())
0 '550') () 0 () () () 0 0)
231 'psb_err_partfunc_toofewprocs_' 'psb_const_mod' '' 1 ((PARAMETER
UNKNOWN-INTENT UNKNOWN-PROC UNKNOWN IMPLICIT-SAVE 0 0) (INTEGER 4 0 0 0
INTEGER ()) 0 0 () (CONSTANT (INTEGER 4 0 0 0 INTEGER ()) 0 '575') () 0
() () () 0 0)
232 'psb_err_partfunc_toomuchprocs_' 'psb_const_mod' '' 1 ((PARAMETER
UNKNOWN-INTENT UNKNOWN-PROC UNKNOWN IMPLICIT-SAVE 0 0) (INTEGER 4 0 0 0
INTEGER ()) 0 0 () (CONSTANT (INTEGER 4 0 0 0 INTEGER ()) 0 '570') () 0
() () () 0 0)
233 'psb_err_partfunc_wrong_pid_' 'psb_const_mod' '' 1 ((PARAMETER
UNKNOWN-INTENT UNKNOWN-PROC UNKNOWN IMPLICIT-SAVE 0 0) (INTEGER 4 0 0 0
INTEGER ()) 0 0 () (CONSTANT (INTEGER 4 0 0 0 INTEGER ()) 0 '580') () 0
() () () 0 0)
234 'psb_err_pivot_too_small_' 'psb_const_mod' '' 1 ((PARAMETER
UNKNOWN-INTENT UNKNOWN-PROC UNKNOWN IMPLICIT-SAVE 0 0) (INTEGER 4 0 0 0
INTEGER ()) 0 0 () (CONSTANT (INTEGER 4 0 0 0 INTEGER ()) 0 '2') () 0 ()
() () 0 0)
235 'psb_err_spmat_invalid_state_' 'psb_const_mod' '' 1 ((PARAMETER
UNKNOWN-INTENT UNKNOWN-PROC UNKNOWN IMPLICIT-SAVE 0 0) (INTEGER 4 0 0 0
INTEGER ()) 0 0 () (CONSTANT (INTEGER 4 0 0 0 INTEGER ()) 0 '600') () 0
() () () 0 0)
236 'psb_err_transpose_c_unsupported_' 'psb_const_mod' '' 1 ((PARAMETER
UNKNOWN-INTENT UNKNOWN-PROC UNKNOWN IMPLICIT-SAVE 0 0) (INTEGER 4 0 0 0
INTEGER ()) 0 0 () (CONSTANT (INTEGER 4 0 0 0 INTEGER ()) 0 '3020') () 0
() () () 0 0)
237 'psb_err_transpose_not_n_unsupported_' 'psb_const_mod' '' 1 ((
PARAMETER UNKNOWN-INTENT UNKNOWN-PROC UNKNOWN IMPLICIT-SAVE 0 0) (
INTEGER 4 0 0 0 INTEGER ()) 0 0 () (CONSTANT (INTEGER 4 0 0 0 INTEGER ())
0 '3021') () 0 () () () 0 0)
238 'psb_err_transpose_unsupported_' 'psb_const_mod' '' 1 ((PARAMETER
UNKNOWN-INTENT UNKNOWN-PROC UNKNOWN IMPLICIT-SAVE 0 0) (INTEGER 4 0 0 0
INTEGER ()) 0 0 () (CONSTANT (INTEGER 4 0 0 0 INTEGER ()) 0 '3015') () 0
() () () 0 0)
239 'psb_err_unsupported_format_' 'psb_const_mod' '' 1 ((PARAMETER
UNKNOWN-INTENT UNKNOWN-PROC UNKNOWN IMPLICIT-SAVE 0 0) (INTEGER 4 0 0 0
INTEGER ()) 0 0 () (CONSTANT (INTEGER 4 0 0 0 INTEGER ()) 0 '135') () 0
() () () 0 0)
240 'psb_err_wrong_ins_' 'psb_const_mod' '' 1 ((PARAMETER UNKNOWN-INTENT
UNKNOWN-PROC UNKNOWN IMPLICIT-SAVE 0 0) (INTEGER 4 0 0 0 INTEGER ()) 0 0
() (CONSTANT (INTEGER 4 0 0 0 INTEGER ()) 0 '298') () 0 () () () 0 0)
241 'psb_fidasize_' 'psb_const_mod' '' 1 ((PARAMETER UNKNOWN-INTENT
UNKNOWN-PROC UNKNOWN IMPLICIT-SAVE 0 0) (INTEGER 4 0 0 0 INTEGER ()) 0 0
() (CONSTANT (INTEGER 4 0 0 0 INTEGER ()) 0 '16') () 0 () () () 0 0)
242 'psb_get_xch_idx' 'psb_descriptor_type' '' 1 ((PROCEDURE
UNKNOWN-INTENT MODULE-PROC DECL UNKNOWN 0 0 SUBROUTINE ALWAYS_EXPLICIT)
(UNKNOWN 0 0 0 0 UNKNOWN ()) 243 0 (244 245 246 247) () 0 () () () 0 0)
248 'psb_halo_' 'psb_descriptor_type' '' 1 ((PARAMETER UNKNOWN-INTENT
UNKNOWN-PROC UNKNOWN IMPLICIT-SAVE 0 0) (INTEGER 4 0 0 0 INTEGER ()) 0 0
() (CONSTANT (INTEGER 4 0 0 0 INTEGER ()) 0 '1') () 0 () () () 0 0)
249 'psb_hash_avg_acc' 'psb_hash_mod' '' 1 ((PROCEDURE UNKNOWN-INTENT
MODULE-PROC DECL UNKNOWN 0 0 FUNCTION IMPLICIT_PURE) (REAL 8 0 0 0 REAL
()) 250 0 (251) () 249 () () () 0 0)
252 'psb_hash_bits' 'psb_descriptor_type' '' 1 ((PARAMETER
UNKNOWN-INTENT UNKNOWN-PROC UNKNOWN IMPLICIT-SAVE 0 0) (INTEGER 4 0 0 0
INTEGER ()) 0 0 () (CONSTANT (INTEGER 4 0 0 0 INTEGER ()) 0 '16') () 0 ()
() () 0 0)
7 'psb_hash_init_n' 'psb_hash_mod' '' 1 ((PROCEDURE UNKNOWN-INTENT
MODULE-PROC DECL UNKNOWN 0 0 SUBROUTINE) (UNKNOWN 0 0 0 0 UNKNOWN ())
253 0 (254 255 256) () 0 () () () 0 0)
8 'psb_hash_init_v' 'psb_hash_mod' '' 1 ((PROCEDURE UNKNOWN-INTENT
MODULE-PROC DECL UNKNOWN 0 0 SUBROUTINE ALWAYS_EXPLICIT) (UNKNOWN 0 0 0
0 UNKNOWN ()) 257 0 (258 259 260) () 0 () () () 0 0)
261 'psb_hash_mask' 'psb_descriptor_type' '' 1 ((PARAMETER
UNKNOWN-INTENT UNKNOWN-PROC UNKNOWN IMPLICIT-SAVE 0 0) (INTEGER 4 0 0 0
INTEGER ()) 0 0 () (CONSTANT (INTEGER 4 0 0 0 INTEGER ()) 0 '65535') ()
0 () () () 0 0)
262 'psb_hash_mod' 'psb_hash_mod' '' 1 ((MODULE UNKNOWN-INTENT
UNKNOWN-PROC UNKNOWN UNKNOWN 0 0) (UNKNOWN 0 0 0 0 UNKNOWN ()) 0 0 () ()
0 () () () 0 0)
263 'psb_hash_realloc' 'psb_hash_mod' '' 1 ((PROCEDURE UNKNOWN-INTENT
MODULE-PROC DECL UNKNOWN 0 0 SUBROUTINE) (UNKNOWN 0 0 0 0 UNKNOWN ())
264 0 (265 266) () 0 () () () 0 0)
267 'psb_hash_searchinskey' 'psb_hash_mod' '' 1 ((PROCEDURE
UNKNOWN-INTENT MODULE-PROC DECL UNKNOWN 0 0 SUBROUTINE RECURSIVE) (
UNKNOWN 0 0 0 0 UNKNOWN ()) 268 0 (269 270 271 272 273) () 0 () () () 0
0)
274 'psb_hash_searchkey' 'psb_hash_mod' '' 1 ((PROCEDURE UNKNOWN-INTENT
MODULE-PROC DECL UNKNOWN 0 0 SUBROUTINE) (UNKNOWN 0 0 0 0 UNKNOWN ())
275 0 (276 277 278 279) () 0 () () () 0 0)
280 'psb_hash_size' 'psb_descriptor_type' '' 1 ((PARAMETER
UNKNOWN-INTENT UNKNOWN-PROC UNKNOWN IMPLICIT-SAVE 0 0) (INTEGER 4 0 0 0
INTEGER ()) 0 0 () (CONSTANT (INTEGER 4 0 0 0 INTEGER ()) 0 '65536') ()
0 () () () 0 0)
281 'psb_hash_type' 'psb_hash_mod' '' 1 ((PROCEDURE UNKNOWN-INTENT
UNKNOWN-PROC DECL UNKNOWN 0 0 FUNCTION GENERIC) (REAL 4 0 0 0 REAL ()) 0
0 () () 0 () () () 0 0)
282 'psb_hpnt_nentries_' 'psb_descriptor_type' '' 1 ((PARAMETER
UNKNOWN-INTENT UNKNOWN-PROC UNKNOWN IMPLICIT-SAVE 0 0) (INTEGER 4 0 0 0
INTEGER ()) 0 0 () (CONSTANT (INTEGER 4 0 0 0 INTEGER ()) 0 '7') () 0 ()
() () 0 0)
283 'psb_idxmap_copy' 'psb_descriptor_type' '' 1 ((PROCEDURE
UNKNOWN-INTENT MODULE-PROC DECL UNKNOWN 0 0 SUBROUTINE) (UNKNOWN 0 0 0 0
UNKNOWN ()) 284 0 (285 286 287) () 0 () () () 0 0)
3 'psb_idxmap_free' 'psb_descriptor_type' '' 1 ((PROCEDURE
UNKNOWN-INTENT MODULE-PROC DECL UNKNOWN 0 0 SUBROUTINE) (UNKNOWN 0 0 0 0
UNKNOWN ()) 288 0 (289 290) () 0 () () () 0 0)
24 'psb_idxmap_sizeof' 'psb_descriptor_type' '' 1 ((PROCEDURE
UNKNOWN-INTENT MODULE-PROC DECL UNKNOWN 0 0 FUNCTION) (INTEGER 8 0 0 0
INTEGER ()) 291 0 (292) () 293 () () () 0 0)
21 'psb_idxmap_transfer' 'psb_descriptor_type' '' 1 ((PROCEDURE
UNKNOWN-INTENT MODULE-PROC DECL UNKNOWN 0 0 SUBROUTINE) (UNKNOWN 0 0 0 0
UNKNOWN ()) 294 0 (295 296 297) () 0 () () () 0 0)
298 'psb_idxmap_type' 'psb_descriptor_type' '' 1 ((PROCEDURE
UNKNOWN-INTENT UNKNOWN-PROC DECL UNKNOWN 0 0 FUNCTION GENERIC) (UNKNOWN
0 0 0 0 UNKNOWN ()) 0 0 () () 0 () () () 0 0)
299 'psb_int_k_' 'psb_const_mod' '' 1 ((PARAMETER UNKNOWN-INTENT
UNKNOWN-PROC UNKNOWN IMPLICIT-SAVE 0 0) (INTEGER 4 0 0 0 INTEGER ()) 0 0
() (CONSTANT (INTEGER 4 0 0 0 INTEGER ()) 0 '4') () 0 () () () 0 0)
300 'psb_is_asb_dec' 'psb_descriptor_type' '' 1 ((PROCEDURE
UNKNOWN-INTENT MODULE-PROC DECL UNKNOWN 0 0 FUNCTION) (LOGICAL 4 0 0 0
LOGICAL ()) 301 0 (302) () 300 () () () 0 0)
11 'psb_is_asb_desc' 'psb_descriptor_type' '' 1 ((PROCEDURE
UNKNOWN-INTENT MODULE-PROC DECL UNKNOWN 0 0 FUNCTION GENERIC) (LOGICAL 4
0 0 0 LOGICAL ()) 303 0 (304) () 11 () () () 0 0)
305 'psb_is_bld_dec' 'psb_descriptor_type' '' 1 ((PROCEDURE
UNKNOWN-INTENT MODULE-PROC DECL UNKNOWN 0 0 FUNCTION) (LOGICAL 4 0 0 0
LOGICAL ()) 306 0 (307) () 305 () () () 0 0)
12 'psb_is_bld_desc' 'psb_descriptor_type' '' 1 ((PROCEDURE
UNKNOWN-INTENT MODULE-PROC DECL UNKNOWN 0 0 FUNCTION GENERIC) (LOGICAL 4
0 0 0 LOGICAL ()) 308 0 (309) () 12 () () () 0 0)
13 'psb_is_large_desc' 'psb_descriptor_type' '' 1 ((PROCEDURE
UNKNOWN-INTENT MODULE-PROC DECL UNKNOWN 0 0 FUNCTION GENERIC) (LOGICAL 4
0 0 0 LOGICAL ()) 310 0 (311) () 13 () () () 0 0)
312 'psb_is_ok_dec' 'psb_descriptor_type' '' 1 ((PROCEDURE
UNKNOWN-INTENT MODULE-PROC DECL UNKNOWN 0 0 FUNCTION) (LOGICAL 4 0 0 0
LOGICAL ()) 313 0 (314) () 312 () () () 0 0)
14 'psb_is_ok_desc' 'psb_descriptor_type' '' 1 ((PROCEDURE
UNKNOWN-INTENT MODULE-PROC DECL UNKNOWN 0 0 FUNCTION GENERIC) (LOGICAL 4
0 0 0 LOGICAL ()) 315 0 (316) () 14 () () () 0 0)
317 'psb_is_ovl_dec' 'psb_descriptor_type' '' 1 ((PROCEDURE
UNKNOWN-INTENT MODULE-PROC DECL UNKNOWN 0 0 FUNCTION) (LOGICAL 4 0 0 0
LOGICAL ()) 318 0 (319) () 317 () () () 0 0)
15 'psb_is_ovl_desc' 'psb_descriptor_type' '' 1 ((PROCEDURE
UNKNOWN-INTENT MODULE-PROC DECL UNKNOWN 0 0 FUNCTION GENERIC) (LOGICAL 4
0 0 0 LOGICAL ()) 320 0 (321) () 15 () () () 0 0)
322 'psb_is_repl_dec' 'psb_descriptor_type' '' 1 ((PROCEDURE
UNKNOWN-INTENT MODULE-PROC DECL UNKNOWN 0 0 FUNCTION) (LOGICAL 4 0 0 0
LOGICAL ()) 323 0 (324) () 322 () () () 0 0)
325 'psb_is_repl_desc' 'psb_descriptor_type' '' 1 ((PROCEDURE
UNKNOWN-INTENT MODULE-PROC DECL UNKNOWN 0 0 FUNCTION) (LOGICAL 4 0 0 0
LOGICAL ()) 326 0 (327) () 325 () () () 0 0)
328 'psb_is_upd_dec' 'psb_descriptor_type' '' 1 ((PROCEDURE
UNKNOWN-INTENT MODULE-PROC DECL UNKNOWN 0 0 FUNCTION) (LOGICAL 4 0 0 0
LOGICAL ()) 329 0 (330) () 328 () () () 0 0)
16 'psb_is_upd_desc' 'psb_descriptor_type' '' 1 ((PROCEDURE
UNKNOWN-INTENT MODULE-PROC DECL UNKNOWN 0 0 FUNCTION GENERIC) (LOGICAL 4
0 0 0 LOGICAL ()) 331 0 (332) () 16 () () () 0 0)
333 'psb_long_int_k_' 'psb_const_mod' '' 1 ((PARAMETER UNKNOWN-INTENT
UNKNOWN-PROC UNKNOWN IMPLICIT-SAVE 0 0) (INTEGER 4 0 0 0 INTEGER ()) 0 0
() (CONSTANT (INTEGER 4 0 0 0 INTEGER ()) 0 '8') () 0 () () () 0 0)
334 'psb_m_' 'psb_descriptor_type' '' 1 ((PARAMETER UNKNOWN-INTENT
UNKNOWN-PROC UNKNOWN IMPLICIT-SAVE 0 0) (INTEGER 4 0 0 0 INTEGER ()) 0 0
() (CONSTANT (INTEGER 4 0 0 0 INTEGER ()) 0 '2') () 0 () () () 0 0)
335 'psb_map_aggr_' 'psb_descriptor_type' '' 1 ((PARAMETER
UNKNOWN-INTENT UNKNOWN-PROC UNKNOWN IMPLICIT-SAVE 0 0) (INTEGER 4 0 0 0
INTEGER ()) 0 0 () (CONSTANT (INTEGER 4 0 0 0 INTEGER ()) 0 '125') () 0
() () () 0 0)
336 'psb_map_asov_' 'psb_descriptor_type' '' 1 ((PARAMETER
UNKNOWN-INTENT UNKNOWN-PROC UNKNOWN IMPLICIT-SAVE 0 0) (INTEGER 4 0 0 0
INTEGER ()) 0 0 () (CONSTANT (INTEGER 4 0 0 0 INTEGER ()) 0 '124') () 0
() () () 0 0)
337 'psb_map_gen_linear_' 'psb_descriptor_type' '' 1 ((PARAMETER
UNKNOWN-INTENT UNKNOWN-PROC UNKNOWN IMPLICIT-SAVE 0 0) (INTEGER 4 0 0 0
INTEGER ()) 0 0 () (CONSTANT (INTEGER 4 0 0 0 INTEGER ()) 0 '126') () 0
() () () 0 0)
20 'psb_map_l2g_s1' 'psb_descriptor_type' '' 1 ((PROCEDURE
UNKNOWN-INTENT MODULE-PROC DECL UNKNOWN 0 0 SUBROUTINE) (UNKNOWN 0 0 0 0
UNKNOWN ()) 338 0 (339 340 341) () 0 () () () 0 0)
19 'psb_map_l2g_s2' 'psb_descriptor_type' '' 1 ((PROCEDURE
UNKNOWN-INTENT MODULE-PROC DECL UNKNOWN 0 0 SUBROUTINE) (UNKNOWN 0 0 0 0
UNKNOWN ()) 342 0 (343 344 345 346) () 0 () () () 0 0)
18 'psb_map_l2g_v1' 'psb_descriptor_type' '' 1 ((PROCEDURE
UNKNOWN-INTENT MODULE-PROC DECL UNKNOWN 0 0 SUBROUTINE ALWAYS_EXPLICIT)
(UNKNOWN 0 0 0 0 UNKNOWN ()) 347 0 (348 349 350) () 0 () () () 0 0)
17 'psb_map_l2g_v2' 'psb_descriptor_type' '' 1 ((PROCEDURE
UNKNOWN-INTENT MODULE-PROC DECL UNKNOWN 0 0 SUBROUTINE ALWAYS_EXPLICIT)
(UNKNOWN 0 0 0 0 UNKNOWN ()) 351 0 (352 353 354 355) () 0 () () () 0 0)
356 'psb_map_xhal_' 'psb_descriptor_type' '' 1 ((PARAMETER
UNKNOWN-INTENT UNKNOWN-PROC UNKNOWN IMPLICIT-SAVE 0 0) (INTEGER 4 0 0 0
INTEGER ()) 0 0 () (CONSTANT (INTEGER 4 0 0 0 INTEGER ()) 0 '123') () 0
() () () 0 0)
357 'psb_max_hash_bits' 'psb_descriptor_type' '' 1 ((PARAMETER
UNKNOWN-INTENT UNKNOWN-PROC UNKNOWN IMPLICIT-SAVE 0 0) (INTEGER 4 0 0 0
INTEGER ()) 0 0 () (CONSTANT (INTEGER 4 0 0 0 INTEGER ()) 0 '22') () 0 ()
() () 0 0)
358 'psb_mdata_size_' 'psb_descriptor_type' '' 1 ((PARAMETER
UNKNOWN-INTENT UNKNOWN-PROC UNKNOWN IMPLICIT-SAVE 0 0) (INTEGER 4 0 0 0
INTEGER ()) 0 0 () (CONSTANT (INTEGER 4 0 0 0 INTEGER ()) 0 '24') () 0 ()
() () 0 0)
359 'psb_mpi_c_' 'psb_descriptor_type' '' 1 ((PARAMETER UNKNOWN-INTENT
UNKNOWN-PROC UNKNOWN IMPLICIT-SAVE 0 0) (INTEGER 4 0 0 0 INTEGER ()) 0 0
() (CONSTANT (INTEGER 4 0 0 0 INTEGER ()) 0 '9') () 0 () () () 0 0)
360 'psb_mpi_integer' 'psb_const_mod' '' 1 ((VARIABLE UNKNOWN-INTENT
UNKNOWN-PROC UNKNOWN EXPLICIT-SAVE 0 0) (INTEGER 4 0 0 0 INTEGER ()) 0 0
() () 0 () () () 0 0)
361 'psb_n_' 'psb_descriptor_type' '' 1 ((PARAMETER UNKNOWN-INTENT
UNKNOWN-PROC UNKNOWN IMPLICIT-SAVE 0 0) (INTEGER 4 0 0 0 INTEGER ()) 0 0
() (CONSTANT (INTEGER 4 0 0 0 INTEGER ()) 0 '3') () 0 () () () 0 0)
362 'psb_n_col_' 'psb_descriptor_type' '' 1 ((PARAMETER UNKNOWN-INTENT
UNKNOWN-PROC UNKNOWN IMPLICIT-SAVE 0 0) (INTEGER 4 0 0 0 INTEGER ()) 0 0
() (CONSTANT (INTEGER 4 0 0 0 INTEGER ()) 0 '5') () 0 () () () 0 0)
363 'psb_n_dom_ovr_' 'psb_descriptor_type' '' 1 ((PARAMETER
UNKNOWN-INTENT UNKNOWN-PROC UNKNOWN IMPLICIT-SAVE 0 0) (INTEGER 4 0 0 0
INTEGER ()) 0 0 () (CONSTANT (INTEGER 4 0 0 0 INTEGER ()) 0 '1') () 0 ()
() () 0 0)
364 'psb_n_elem_recv_' 'psb_descriptor_type' '' 1 ((PARAMETER
UNKNOWN-INTENT UNKNOWN-PROC UNKNOWN IMPLICIT-SAVE 0 0) (INTEGER 4 0 0 0
INTEGER ()) 0 0 () (CONSTANT (INTEGER 4 0 0 0 INTEGER ()) 0 '1') () 0 ()
() () 0 0)
365 'psb_n_elem_send_' 'psb_descriptor_type' '' 1 ((PARAMETER
UNKNOWN-INTENT UNKNOWN-PROC UNKNOWN IMPLICIT-SAVE 0 0) (INTEGER 4 0 0 0
INTEGER ()) 0 0 () (CONSTANT (INTEGER 4 0 0 0 INTEGER ()) 0 '2') () 0 ()
() () 0 0)
366 'psb_n_ovrlp_elem_' 'psb_descriptor_type' '' 1 ((PARAMETER
UNKNOWN-INTENT UNKNOWN-PROC UNKNOWN IMPLICIT-SAVE 0 0) (INTEGER 4 0 0 0
INTEGER ()) 0 0 () (CONSTANT (INTEGER 4 0 0 0 INTEGER ()) 0 '1') () 0 ()
() () 0 0)
367 'psb_n_row_' 'psb_descriptor_type' '' 1 ((PARAMETER UNKNOWN-INTENT
UNKNOWN-PROC UNKNOWN IMPLICIT-SAVE 0 0) (INTEGER 4 0 0 0 INTEGER ()) 0 0
() (CONSTANT (INTEGER 4 0 0 0 INTEGER ()) 0 '4') () 0 () () () 0 0)
368 'psb_no_comm_' 'psb_descriptor_type' '' 1 ((PARAMETER UNKNOWN-INTENT
UNKNOWN-PROC UNKNOWN IMPLICIT-SAVE 0 0) (INTEGER 4 0 0 0 INTEGER ()) 0 0
() (CONSTANT (INTEGER 4 0 0 0 INTEGER ()) 0 '-1') () 0 () () () 0 0)
369 'psb_nohalo_' 'psb_descriptor_type' '' 1 ((PARAMETER UNKNOWN-INTENT
UNKNOWN-PROC UNKNOWN IMPLICIT-SAVE 0 0) (INTEGER 4 0 0 0 INTEGER ()) 0 0
() (CONSTANT (INTEGER 4 0 0 0 INTEGER ()) 0 '0') () 0 () () () 0 0)
370 'psb_none_' 'psb_descriptor_type' '' 1 ((PARAMETER UNKNOWN-INTENT
UNKNOWN-PROC UNKNOWN IMPLICIT-SAVE 0 0) (INTEGER 4 0 0 0 INTEGER ()) 0 0
() (CONSTANT (INTEGER 4 0 0 0 INTEGER ()) 0 '0') () 0 () () () 0 0)
371 'psb_nullify_desc' 'psb_descriptor_type' '' 1 ((PROCEDURE
UNKNOWN-INTENT MODULE-PROC DECL UNKNOWN 0 0 SUBROUTINE IMPLICIT_PURE) (
UNKNOWN 0 0 0 0 UNKNOWN ()) 372 0 (373) () 0 () () () 0 0)
374 'psb_ovrlp_elem_' 'psb_descriptor_type' '' 1 ((PARAMETER
UNKNOWN-INTENT UNKNOWN-PROC UNKNOWN IMPLICIT-SAVE 0 0) (INTEGER 4 0 0 0
INTEGER ()) 0 0 () (CONSTANT (INTEGER 4 0 0 0 INTEGER ()) 0 '0') () 0 ()
() () 0 0)
375 'psb_ovrlp_elem_to_' 'psb_descriptor_type' '' 1 ((PARAMETER
UNKNOWN-INTENT UNKNOWN-PROC UNKNOWN IMPLICIT-SAVE 0 0) (INTEGER 4 0 0 0
INTEGER ()) 0 0 () (CONSTANT (INTEGER 4 0 0 0 INTEGER ()) 0 '2') () 0 ()
() () 0 0)
376 'psb_ovt_asov_' 'psb_descriptor_type' '' 1 ((PARAMETER
UNKNOWN-INTENT UNKNOWN-PROC UNKNOWN IMPLICIT-SAVE 0 0) (INTEGER 4 0 0 0
INTEGER ()) 0 0 () (CONSTANT (INTEGER 4 0 0 0 INTEGER ()) 0 '124') () 0
() () () 0 0)
377 'psb_ovt_xhal_' 'psb_descriptor_type' '' 1 ((PARAMETER
UNKNOWN-INTENT UNKNOWN-PROC UNKNOWN IMPLICIT-SAVE 0 0) (INTEGER 4 0 0 0
INTEGER ()) 0 0 () (CONSTANT (INTEGER 4 0 0 0 INTEGER ()) 0 '123') () 0
() () () 0 0)
378 'psb_patchlevel' 'psb_const_mod' '' 1 ((PARAMETER UNKNOWN-INTENT
UNKNOWN-PROC UNKNOWN IMPLICIT-SAVE 0 0) (INTEGER 4 0 0 0 INTEGER ()) 0 0
() (CONSTANT (INTEGER 4 0 0 0 INTEGER ()) 0 '0') () 0 () () () 0 0)
379 'psb_percent_' 'psb_const_mod' '' 1 ((PARAMETER UNKNOWN-INTENT
UNKNOWN-PROC UNKNOWN IMPLICIT-SAVE 0 0) (REAL 8 0 0 0 REAL ()) 0 0 () (
CONSTANT (REAL 8 0 0 0 REAL ()) 0 '0.b3333300000000@0') () 0 () () () 0
0)
380 'psb_pnt_h_' 'psb_descriptor_type' '' 1 ((PARAMETER UNKNOWN-INTENT
UNKNOWN-PROC UNKNOWN IMPLICIT-SAVE 0 0) (INTEGER 4 0 0 0 INTEGER ()) 0 0
() (CONSTANT (INTEGER 4 0 0 0 INTEGER ()) 0 '10') () 0 () () () 0 0)
381 'psb_proc_id_' 'psb_descriptor_type' '' 1 ((PARAMETER UNKNOWN-INTENT
UNKNOWN-PROC UNKNOWN IMPLICIT-SAVE 0 0) (INTEGER 4 0 0 0 INTEGER ()) 0 0
() (CONSTANT (INTEGER 4 0 0 0 INTEGER ()) 0 '0') () 0 () () () 0 0)
382 'psb_root_' 'psb_const_mod' '' 1 ((PARAMETER UNKNOWN-INTENT
UNKNOWN-PROC UNKNOWN IMPLICIT-SAVE 0 0) (INTEGER 4 0 0 0 INTEGER ()) 0 0
() (CONSTANT (INTEGER 4 0 0 0 INTEGER ()) 0 '0') () 0 () () () 0 0)
383 'psb_setzero_' 'psb_descriptor_type' '' 1 ((PARAMETER UNKNOWN-INTENT
UNKNOWN-PROC UNKNOWN IMPLICIT-SAVE 0 0) (INTEGER 4 0 0 0 INTEGER ()) 0 0
() (CONSTANT (INTEGER 4 0 0 0 INTEGER ()) 0 '4') () 0 () () () 0 0)
384 'psb_sizeof_dp' 'psb_const_mod' '' 1 ((VARIABLE UNKNOWN-INTENT
UNKNOWN-PROC UNKNOWN EXPLICIT-SAVE 0 0) (INTEGER 4 0 0 0 INTEGER ()) 0 0
() () 0 () () () 0 0)
26 'psb_sizeof_hash_type' 'psb_hash_mod' '' 1 ((PROCEDURE UNKNOWN-INTENT
MODULE-PROC DECL UNKNOWN 0 0 FUNCTION) (INTEGER 8 0 0 0 INTEGER ()) 385
0 (386) () 387 () () () 0 0)
388 'psb_sizeof_int' 'psb_const_mod' '' 1 ((VARIABLE UNKNOWN-INTENT
UNKNOWN-PROC UNKNOWN EXPLICIT-SAVE 0 0) (INTEGER 4 0 0 0 INTEGER ()) 0 0
() () 0 () () () 0 0)
389 'psb_sizeof_long_int' 'psb_const_mod' '' 1 ((VARIABLE UNKNOWN-INTENT
UNKNOWN-PROC UNKNOWN EXPLICIT-SAVE 0 0) (INTEGER 4 0 0 0 INTEGER ()) 0 0
() () 0 () () () 0 0)
390 'psb_sizeof_sp' 'psb_const_mod' '' 1 ((VARIABLE UNKNOWN-INTENT
UNKNOWN-PROC UNKNOWN EXPLICIT-SAVE 0 0) (INTEGER 4 0 0 0 INTEGER ()) 0 0
() () 0 () () () 0 0)
391 'psb_spk_' 'psb_const_mod' '' 1 ((PARAMETER UNKNOWN-INTENT
UNKNOWN-PROC UNKNOWN IMPLICIT-SAVE 0 0) (INTEGER 4 0 0 0 INTEGER ()) 0 0
() (CONSTANT (INTEGER 4 0 0 0 INTEGER ()) 0 '4') () 0 () () () 0 0)
392 'psb_square_root_' 'psb_descriptor_type' '' 1 ((PARAMETER
UNKNOWN-INTENT UNKNOWN-PROC UNKNOWN IMPLICIT-SAVE 0 0) (INTEGER 4 0 0 0
INTEGER ()) 0 0 () (CONSTANT (INTEGER 4 0 0 0 INTEGER ()) 0 '3') () 0 ()
() () 0 0)
393 'psb_success_' 'psb_const_mod' '' 1 ((PARAMETER UNKNOWN-INTENT
UNKNOWN-PROC UNKNOWN IMPLICIT-SAVE 0 0) (INTEGER 4 0 0 0 INTEGER ()) 0 0
() (CONSTANT (INTEGER 4 0 0 0 INTEGER ()) 0 '0') () 0 () () () 0 0)
394 'psb_sum_' 'psb_descriptor_type' '' 1 ((PARAMETER UNKNOWN-INTENT
UNKNOWN-PROC UNKNOWN IMPLICIT-SAVE 0 0) (INTEGER 4 0 0 0 INTEGER ()) 0 0
() (CONSTANT (INTEGER 4 0 0 0 INTEGER ()) 0 '1') () 0 () () () 0 0)
395 'psb_swap_mpi_' 'psb_descriptor_type' '' 1 ((PARAMETER
UNKNOWN-INTENT UNKNOWN-PROC UNKNOWN IMPLICIT-SAVE 0 0) (INTEGER 4 0 0 0
INTEGER ()) 0 0 () (CONSTANT (INTEGER 4 0 0 0 INTEGER ()) 0 '8') () 0 ()
() () 0 0)
396 'psb_swap_recv_' 'psb_descriptor_type' '' 1 ((PARAMETER
UNKNOWN-INTENT UNKNOWN-PROC UNKNOWN IMPLICIT-SAVE 0 0) (INTEGER 4 0 0 0
INTEGER ()) 0 0 () (CONSTANT (INTEGER 4 0 0 0 INTEGER ()) 0 '2') () 0 ()
() () 0 0)
397 'psb_swap_send_' 'psb_descriptor_type' '' 1 ((PARAMETER
UNKNOWN-INTENT UNKNOWN-PROC UNKNOWN IMPLICIT-SAVE 0 0) (INTEGER 4 0 0 0
INTEGER ()) 0 0 () (CONSTANT (INTEGER 4 0 0 0 INTEGER ()) 0 '1') () 0 ()
() () 0 0)
398 'psb_swap_sync_' 'psb_descriptor_type' '' 1 ((PARAMETER
UNKNOWN-INTENT UNKNOWN-PROC UNKNOWN IMPLICIT-SAVE 0 0) (INTEGER 4 0 0 0
INTEGER ()) 0 0 () (CONSTANT (INTEGER 4 0 0 0 INTEGER ()) 0 '4') () 0 ()
() () 0 0)
399 'psb_text_rcv_' 'psb_descriptor_type' '' 1 ((PARAMETER
UNKNOWN-INTENT UNKNOWN-PROC UNKNOWN IMPLICIT-SAVE 0 0) (INTEGER 4 0 0 0
INTEGER ()) 0 0 () (CONSTANT (INTEGER 4 0 0 0 INTEGER ()) 0 '19') () 0 ()
() () 0 0)
400 'psb_text_snd_' 'psb_descriptor_type' '' 1 ((PARAMETER
UNKNOWN-INTENT UNKNOWN-PROC UNKNOWN IMPLICIT-SAVE 0 0) (INTEGER 4 0 0 0
INTEGER ()) 0 0 () (CONSTANT (INTEGER 4 0 0 0 INTEGER ()) 0 '18') () 0 ()
() () 0 0)
401 'psb_text_xch_' 'psb_descriptor_type' '' 1 ((PARAMETER
UNKNOWN-INTENT UNKNOWN-PROC UNKNOWN IMPLICIT-SAVE 0 0) (INTEGER 4 0 0 0
INTEGER ()) 0 0 () (CONSTANT (INTEGER 4 0 0 0 INTEGER ()) 0 '17') () 0 ()
() () 0 0)
402 'psb_thal_rcv_' 'psb_descriptor_type' '' 1 ((PARAMETER
UNKNOWN-INTENT UNKNOWN-PROC UNKNOWN IMPLICIT-SAVE 0 0) (INTEGER 4 0 0 0
INTEGER ()) 0 0 () (CONSTANT (INTEGER 4 0 0 0 INTEGER ()) 0 '13') () 0 ()
() () 0 0)
403 'psb_thal_snd_' 'psb_descriptor_type' '' 1 ((PARAMETER
UNKNOWN-INTENT UNKNOWN-PROC UNKNOWN IMPLICIT-SAVE 0 0) (INTEGER 4 0 0 0
INTEGER ()) 0 0 () (CONSTANT (INTEGER 4 0 0 0 INTEGER ()) 0 '12') () 0 ()
() () 0 0)
404 'psb_thal_xch_' 'psb_descriptor_type' '' 1 ((PARAMETER
UNKNOWN-INTENT UNKNOWN-PROC UNKNOWN IMPLICIT-SAVE 0 0) (INTEGER 4 0 0 0
INTEGER ()) 0 0 () (CONSTANT (INTEGER 4 0 0 0 INTEGER ()) 0 '11') () 0 ()
() () 0 0)
405 'psb_tmov_rcv_' 'psb_descriptor_type' '' 1 ((PARAMETER
UNKNOWN-INTENT UNKNOWN-PROC UNKNOWN IMPLICIT-SAVE 0 0) (INTEGER 4 0 0 0
INTEGER ()) 0 0 () (CONSTANT (INTEGER 4 0 0 0 INTEGER ()) 0 '22') () 0 ()
() () 0 0)
406 'psb_tmov_snd_' 'psb_descriptor_type' '' 1 ((PARAMETER
UNKNOWN-INTENT UNKNOWN-PROC UNKNOWN IMPLICIT-SAVE 0 0) (INTEGER 4 0 0 0
INTEGER ()) 0 0 () (CONSTANT (INTEGER 4 0 0 0 INTEGER ()) 0 '21') () 0 ()
() () 0 0)
407 'psb_tmov_xch_' 'psb_descriptor_type' '' 1 ((PARAMETER
UNKNOWN-INTENT UNKNOWN-PROC UNKNOWN IMPLICIT-SAVE 0 0) (INTEGER 4 0 0 0
INTEGER ()) 0 0 () (CONSTANT (INTEGER 4 0 0 0 INTEGER ()) 0 '20') () 0 ()
() () 0 0)
408 'psb_topdef_' 'psb_const_mod' '' 1 ((PARAMETER UNKNOWN-INTENT
UNKNOWN-PROC UNKNOWN IMPLICIT-SAVE 0 0) (CHARACTER 1 0 0 0 CHARACTER ((
CONSTANT (INTEGER 4 0 0 0 INTEGER ()) 0 '1'))) 0 0 () (CONSTANT (
CHARACTER 1 0 0 0 CHARACTER (())) 0 1 ' ') () 0 () () () 0 0)
409 'psb_tovr_rcv_' 'psb_descriptor_type' '' 1 ((PARAMETER
UNKNOWN-INTENT UNKNOWN-PROC UNKNOWN IMPLICIT-SAVE 0 0) (INTEGER 4 0 0 0
INTEGER ()) 0 0 () (CONSTANT (INTEGER 4 0 0 0 INTEGER ()) 0 '16') () 0 ()
() () 0 0)
410 'psb_tovr_snd_' 'psb_descriptor_type' '' 1 ((PARAMETER
UNKNOWN-INTENT UNKNOWN-PROC UNKNOWN IMPLICIT-SAVE 0 0) (INTEGER 4 0 0 0
INTEGER ()) 0 0 () (CONSTANT (INTEGER 4 0 0 0 INTEGER ()) 0 '15') () 0 ()
() () 0 0)
411 'psb_tovr_xch_' 'psb_descriptor_type' '' 1 ((PARAMETER
UNKNOWN-INTENT UNKNOWN-PROC UNKNOWN IMPLICIT-SAVE 0 0) (INTEGER 4 0 0 0
INTEGER ()) 0 0 () (CONSTANT (INTEGER 4 0 0 0 INTEGER ()) 0 '14') () 0 ()
() () 0 0)
412 'psb_upd_glbnum_' 'psb_descriptor_type' '' 1 ((PARAMETER
UNKNOWN-INTENT UNKNOWN-PROC UNKNOWN IMPLICIT-SAVE 0 0) (INTEGER 4 0 0 0
INTEGER ()) 0 0 () (CONSTANT (INTEGER 4 0 0 0 INTEGER ()) 0 '998') () 0
() () () 0 0)
413 'psb_upd_locnum_' 'psb_descriptor_type' '' 1 ((PARAMETER
UNKNOWN-INTENT UNKNOWN-PROC UNKNOWN IMPLICIT-SAVE 0 0) (INTEGER 4 0 0 0
INTEGER ()) 0 0 () (CONSTANT (INTEGER 4 0 0 0 INTEGER ()) 0 '997') () 0
() () () 0 0)
414 'psb_version_major' 'psb_const_mod' '' 1 ((PARAMETER UNKNOWN-INTENT
UNKNOWN-PROC UNKNOWN IMPLICIT-SAVE 0 0) (INTEGER 4 0 0 0 INTEGER ()) 0 0
() (CONSTANT (INTEGER 4 0 0 0 INTEGER ()) 0 '2') () 0 () () () 0 0)
415 'psb_version_minor' 'psb_const_mod' '' 1 ((PARAMETER UNKNOWN-INTENT
UNKNOWN-PROC UNKNOWN IMPLICIT-SAVE 0 0) (INTEGER 4 0 0 0 INTEGER ()) 0 0
() (CONSTANT (INTEGER 4 0 0 0 INTEGER ()) 0 '4') () 0 () () () 0 0)
416 'psb_version_string' 'psb_const_mod' '' 1 ((PARAMETER UNKNOWN-INTENT
UNKNOWN-PROC UNKNOWN IMPLICIT-SAVE 0 0) (CHARACTER 1 0 0 0 CHARACTER ((
CONSTANT (INTEGER 4 0 0 0 INTEGER ()) 0 '5'))) 0 0 () (CONSTANT (
CHARACTER 1 0 0 0 CHARACTER (())) 0 5 '2.4.0') () 0 () () () 0 0)
417 's_epstol' 'psb_const_mod' '' 1 ((PARAMETER UNKNOWN-INTENT
UNKNOWN-PROC UNKNOWN IMPLICIT-SAVE 0 0) (REAL 4 0 0 0 REAL ()) 0 0 () (
CONSTANT (REAL 4 0 0 0 REAL ()) 0 '0.d6bf950@-6') () 0 () () () 0 0)
418 'selected_int_kind' '(intrinsic)' '' 1 ((PROCEDURE UNKNOWN-INTENT
UNKNOWN-PROC UNKNOWN UNKNOWN 0 0 FUNCTION) (REAL 4 0 0 0 REAL ()) 0 0 ()
() 418 () () () 0 0)
419 'sone' 'psb_const_mod' '' 1 ((PARAMETER UNKNOWN-INTENT UNKNOWN-PROC
UNKNOWN IMPLICIT-SAVE 0 0) (REAL 4 0 0 0 REAL ()) 0 0 () (CONSTANT (
REAL 4 0 0 0 REAL ()) 0 '0.1000000@1') () 0 () () () 0 0)
420 'szero' 'psb_const_mod' '' 1 ((PARAMETER UNKNOWN-INTENT UNKNOWN-PROC
UNKNOWN IMPLICIT-SAVE 0 0) (REAL 4 0 0 0 REAL ()) 0 0 () (CONSTANT (
REAL 4 0 0 0 REAL ()) 0 '0.0000000@0') () 0 () () () 0 0)
421 'zone' 'psb_const_mod' '' 1 ((PARAMETER UNKNOWN-INTENT UNKNOWN-PROC
UNKNOWN IMPLICIT-SAVE 0 0) (COMPLEX 8 0 0 0 COMPLEX ()) 0 0 () (
CONSTANT (COMPLEX 8 0 0 0 COMPLEX ()) 0 '0.10000000000000@1'
'0.00000000000000@0') () 0 () () () 0 0)
422 'zzero' 'psb_const_mod' '' 1 ((PARAMETER UNKNOWN-INTENT UNKNOWN-PROC
UNKNOWN IMPLICIT-SAVE 0 0) (COMPLEX 8 0 0 0 COMPLEX ()) 0 0 () (
CONSTANT (COMPLEX 8 0 0 0 COMPLEX ()) 0 '0.00000000000000@0'
'0.00000000000000@0') () 0 () () () 0 0)
56 'hashin' '' '' 55 ((VARIABLE UNKNOWN-INTENT UNKNOWN-PROC UNKNOWN
UNKNOWN 0 0 POINTER DUMMY) (DERIVED 9 0 0 0 DERIVED ()) 0 0 () () 0 () ()
() 0 0)
57 'hashout' '' '' 55 ((VARIABLE UNKNOWN-INTENT UNKNOWN-PROC UNKNOWN
UNKNOWN 0 0 POINTER DUMMY) (DERIVED 9 0 0 0 DERIVED ()) 0 0 () () 0 () ()
() 0 0)
58 'info' '' '' 55 ((VARIABLE OUT UNKNOWN-PROC UNKNOWN UNKNOWN 0 0 DUMMY)
(INTEGER 4 0 0 0 INTEGER ()) 0 0 () () 0 () () () 0 0)
65 'hashin' '' '' 64 ((VARIABLE UNKNOWN-INTENT UNKNOWN-PROC UNKNOWN
UNKNOWN 0 0 DUMMY) (DERIVED 9 0 0 0 DERIVED ()) 0 0 () () 0 () () () 0 0)
66 'hashout' '' '' 64 ((VARIABLE UNKNOWN-INTENT UNKNOWN-PROC UNKNOWN
UNKNOWN 0 0 DUMMY) (DERIVED 9 0 0 0 DERIVED ()) 0 0 () () 0 () () () 0 0)
67 'info' '' '' 64 ((VARIABLE OUT UNKNOWN-PROC UNKNOWN UNKNOWN 0 0 DUMMY)
(INTEGER 4 0 0 0 INTEGER ()) 0 0 () () 0 () () () 0 0)
70 'hashin' '' '' 69 ((VARIABLE UNKNOWN-INTENT UNKNOWN-PROC UNKNOWN
UNKNOWN 0 0 DUMMY) (DERIVED 9 0 0 0 DERIVED ()) 0 0 () () 0 () () () 0 0)
71 'info' '' '' 69 ((VARIABLE UNKNOWN-INTENT UNKNOWN-PROC UNKNOWN
UNKNOWN 0 0 DUMMY) (INTEGER 4 0 0 0 INTEGER ()) 0 0 () () 0 () () () 0 0)
77 'hashin' '' '' 76 ((VARIABLE UNKNOWN-INTENT UNKNOWN-PROC UNKNOWN
UNKNOWN 0 0 DUMMY) (DERIVED 9 0 0 0 DERIVED ()) 0 0 () () 0 () () () 0 0)
78 'hashout' '' '' 76 ((VARIABLE UNKNOWN-INTENT UNKNOWN-PROC UNKNOWN
UNKNOWN 0 0 DUMMY) (DERIVED 9 0 0 0 DERIVED ()) 0 0 () () 0 () () () 0 0)
79 'info' '' '' 76 ((VARIABLE OUT UNKNOWN-PROC UNKNOWN UNKNOWN 0 0 DUMMY)
(INTEGER 4 0 0 0 INTEGER ()) 0 0 () () 0 () () () 0 0)
82 'key' '' '' 81 ((VARIABLE IN UNKNOWN-PROC UNKNOWN UNKNOWN 0 0 DUMMY)
(INTEGER 4 0 0 0 INTEGER ()) 0 0 () () 0 () () () 0 0)
83 'val' '' '' 81 ((VARIABLE UNKNOWN-INTENT UNKNOWN-PROC UNKNOWN UNKNOWN
0 0 RESULT) (INTEGER 4 0 0 0 INTEGER ()) 0 0 () () 0 () () () 0 0)
97 'ictxt' '' '' 96 ((VARIABLE IN UNKNOWN-PROC UNKNOWN UNKNOWN 0 0 DUMMY)
(INTEGER 4 0 0 0 INTEGER ()) 0 0 () () 0 () () () 0 0)
98 'm' '' '' 96 ((VARIABLE IN UNKNOWN-PROC UNKNOWN UNKNOWN 0 0 DUMMY) (
INTEGER 4 0 0 0 INTEGER ()) 0 0 () () 0 () () () 0 0)
101 'desc' '' '' 100 ((VARIABLE IN UNKNOWN-PROC UNKNOWN UNKNOWN 0 0
DUMMY) (DERIVED 2 0 0 0 DERIVED ()) 0 0 () () 0 () () () 0 0)
104 'desc' '' '' 103 ((VARIABLE IN UNKNOWN-PROC UNKNOWN UNKNOWN 0 0
DUMMY) (DERIVED 2 0 0 0 DERIVED ()) 0 0 () () 0 () () () 0 0)
107 'desc' '' '' 106 ((VARIABLE IN UNKNOWN-PROC UNKNOWN UNKNOWN 0 0
DUMMY) (DERIVED 2 0 0 0 DERIVED ()) 0 0 () () 0 () () () 0 0)
110 'desc' '' '' 109 ((VARIABLE IN UNKNOWN-PROC UNKNOWN UNKNOWN 0 0
DUMMY) (DERIVED 2 0 0 0 DERIVED ()) 0 0 () () 0 () () () 0 0)
114 'data' '' '' 113 ((VARIABLE IN UNKNOWN-PROC UNKNOWN UNKNOWN 0 0
DUMMY) (INTEGER 4 0 0 0 INTEGER ()) 0 0 () () 0 () () () 0 0)
115 'desc' '' '' 113 ((VARIABLE UNKNOWN-INTENT UNKNOWN-PROC UNKNOWN
UNKNOWN 0 0 TARGET DUMMY) (DERIVED 2 0 0 0 DERIVED ()) 0 0 () () 0 () ()
() 0 0)
116 'ipnt' '' '' 113 ((VARIABLE UNKNOWN-INTENT UNKNOWN-PROC UNKNOWN
UNKNOWN 0 0 DIMENSION POINTER DUMMY) (INTEGER 4 0 0 0 INTEGER ()) 0 0 ()
(1 0 DEFERRED () ()) 0 () () () 0 0)
117 'totxch' '' '' 113 ((VARIABLE OUT UNKNOWN-PROC UNKNOWN UNKNOWN 0 0
DUMMY) (INTEGER 4 0 0 0 INTEGER ()) 0 0 () () 0 () () () 0 0)
118 'idxr' '' '' 113 ((VARIABLE OUT UNKNOWN-PROC UNKNOWN UNKNOWN 0 0
DUMMY) (INTEGER 4 0 0 0 INTEGER ()) 0 0 () () 0 () () () 0 0)
119 'idxs' '' '' 113 ((VARIABLE OUT UNKNOWN-PROC UNKNOWN UNKNOWN 0 0
DUMMY) (INTEGER 4 0 0 0 INTEGER ()) 0 0 () () 0 () () () 0 0)
120 'info' '' '' 113 ((VARIABLE OUT UNKNOWN-PROC UNKNOWN UNKNOWN 0 0
DUMMY) (INTEGER 4 0 0 0 INTEGER ()) 0 0 () () 0 () () () 0 0)
123 'desc' '' '' 122 ((VARIABLE IN UNKNOWN-PROC UNKNOWN UNKNOWN 0 0
DUMMY) (DERIVED 2 0 0 0 DERIVED ()) 0 0 () () 0 () () () 0 0)
126 'desc' '' '' 125 ((VARIABLE IN UNKNOWN-PROC UNKNOWN UNKNOWN 0 0
DUMMY) (DERIVED 2 0 0 0 DERIVED ()) 0 0 () () 0 () () () 0 0)
129 'desc' '' '' 128 ((VARIABLE IN UNKNOWN-PROC UNKNOWN UNKNOWN 0 0
DUMMY) (DERIVED 2 0 0 0 DERIVED ()) 0 0 () () 0 () () () 0 0)
132 'tmp' '' '' 131 ((VARIABLE OUT UNKNOWN-PROC UNKNOWN UNKNOWN 0 0
ALLOCATABLE DIMENSION DUMMY) (INTEGER 4 0 0 0 INTEGER ()) 0 0 () (1 0
DEFERRED () ()) 0 () () () 0 0)
133 'desc' '' '' 131 ((VARIABLE IN UNKNOWN-PROC UNKNOWN UNKNOWN 0 0
TARGET DUMMY) (DERIVED 2 0 0 0 DERIVED ()) 0 0 () () 0 () () () 0 0)
134 'data' '' '' 131 ((VARIABLE IN UNKNOWN-PROC UNKNOWN UNKNOWN 0 0
DUMMY) (INTEGER 4 0 0 0 INTEGER ()) 0 0 () () 0 () () () 0 0)
135 'info' '' '' 131 ((VARIABLE OUT UNKNOWN-PROC UNKNOWN UNKNOWN 0 0
DUMMY) (INTEGER 4 0 0 0 INTEGER ()) 0 0 () () 0 () () () 0 0)
136 'toglob' '' '' 131 ((VARIABLE IN UNKNOWN-PROC UNKNOWN UNKNOWN 0 0
DUMMY) (LOGICAL 4 0 0 0 LOGICAL ()) 0 0 () () 0 () () () 0 0)
139 'desc' '' '' 138 ((VARIABLE IN UNKNOWN-PROC UNKNOWN UNKNOWN 0 0
DUMMY) (DERIVED 2 0 0 0 DERIVED ()) 0 0 () () 0 () () () 0 0)
144 'ith' '' '' 143 ((VARIABLE IN UNKNOWN-PROC UNKNOWN UNKNOWN 0 0 DUMMY)
(INTEGER 4 0 0 0 INTEGER ()) 0 0 () () 0 () () () 0 0)
147 'desc' '' '' 146 ((VARIABLE INOUT UNKNOWN-PROC UNKNOWN UNKNOWN 0 0
DUMMY) (DERIVED 2 0 0 0 DERIVED ()) 0 0 () () 0 () () () 0 0)
148 'info' '' '' 146 ((VARIABLE UNKNOWN-INTENT UNKNOWN-PROC UNKNOWN
UNKNOWN 0 0 DUMMY) (INTEGER 4 0 0 0 INTEGER ()) 0 0 () () 0 () () () 0 0)
150 'desc' '' '' 149 ((VARIABLE IN UNKNOWN-PROC UNKNOWN UNKNOWN 0 0
DUMMY) (DERIVED 2 0 0 0 DERIVED ()) 0 0 () () 0 () () () 0 0)
151 'val' '' '' 149 ((VARIABLE UNKNOWN-INTENT UNKNOWN-PROC UNKNOWN
UNKNOWN 0 0 RESULT) (INTEGER 8 0 0 0 INTEGER ()) 0 0 () () 0 () () () 0
0)
153 'desc_a' '' '' 152 ((VARIABLE INOUT UNKNOWN-PROC UNKNOWN UNKNOWN 0 0
DUMMY) (DERIVED 2 0 0 0 DERIVED ()) 0 0 () () 0 () () () 0 0)
154 'info' '' '' 152 ((VARIABLE OUT UNKNOWN-PROC UNKNOWN UNKNOWN 0 0
DUMMY) (INTEGER 4 0 0 0 INTEGER ()) 0 0 () () 0 () () () 0 0)
156 'desc_in' '' '' 155 ((VARIABLE INOUT UNKNOWN-PROC UNKNOWN UNKNOWN 0
0 DUMMY) (DERIVED 2 0 0 0 DERIVED ()) 0 0 () () 0 () () () 0 0)
157 'desc_out' '' '' 155 ((VARIABLE INOUT UNKNOWN-PROC UNKNOWN UNKNOWN 0
0 DUMMY) (DERIVED 2 0 0 0 DERIVED ()) 0 0 () () 0 () () () 0 0)
158 'info' '' '' 155 ((VARIABLE OUT UNKNOWN-PROC UNKNOWN UNKNOWN 0 0
DUMMY) (INTEGER 4 0 0 0 INTEGER ()) 0 0 () () 0 () () () 0 0)
244 'idx' '' '' 243 ((VARIABLE IN UNKNOWN-PROC UNKNOWN UNKNOWN 0 0
DIMENSION DUMMY) (INTEGER 4 0 0 0 INTEGER ()) 0 0 () (1 0 ASSUMED_SHAPE
(CONSTANT (INTEGER 4 0 0 0 INTEGER ()) 0 '1') ()) 0 () () () 0 0)
245 'totxch' '' '' 243 ((VARIABLE OUT UNKNOWN-PROC UNKNOWN UNKNOWN 0 0
DUMMY) (INTEGER 4 0 0 0 INTEGER ()) 0 0 () () 0 () () () 0 0)
246 'totsnd' '' '' 243 ((VARIABLE OUT UNKNOWN-PROC UNKNOWN UNKNOWN 0 0
DUMMY) (INTEGER 4 0 0 0 INTEGER ()) 0 0 () () 0 () () () 0 0)
247 'totrcv' '' '' 243 ((VARIABLE OUT UNKNOWN-PROC UNKNOWN UNKNOWN 0 0
DUMMY) (INTEGER 4 0 0 0 INTEGER ()) 0 0 () () 0 () () () 0 0)
251 'hash' '' '' 250 ((VARIABLE IN UNKNOWN-PROC UNKNOWN UNKNOWN 0 0
DUMMY) (DERIVED 9 0 0 0 DERIVED ()) 0 0 () () 0 () () () 0 0)
254 'nv' '' '' 253 ((VARIABLE IN UNKNOWN-PROC UNKNOWN UNKNOWN 0 0 DUMMY)
(INTEGER 4 0 0 0 INTEGER ()) 0 0 () () 0 () () () 0 0)
255 'hash' '' '' 253 ((VARIABLE OUT UNKNOWN-PROC UNKNOWN UNKNOWN 0 0
DUMMY) (DERIVED 9 0 0 0 DERIVED ()) 0 0 () () 0 () () () 0 0)
256 'info' '' '' 253 ((VARIABLE OUT UNKNOWN-PROC UNKNOWN UNKNOWN 0 0
DUMMY) (INTEGER 4 0 0 0 INTEGER ()) 0 0 () () 0 () () () 0 0)
258 'v' '' '' 257 ((VARIABLE IN UNKNOWN-PROC UNKNOWN UNKNOWN 0 0
DIMENSION DUMMY) (INTEGER 4 0 0 0 INTEGER ()) 0 0 () (1 0 ASSUMED_SHAPE
(CONSTANT (INTEGER 4 0 0 0 INTEGER ()) 0 '1') ()) 0 () () () 0 0)
259 'hash' '' '' 257 ((VARIABLE OUT UNKNOWN-PROC UNKNOWN UNKNOWN 0 0
DUMMY) (DERIVED 9 0 0 0 DERIVED ()) 0 0 () () 0 () () () 0 0)
260 'info' '' '' 257 ((VARIABLE OUT UNKNOWN-PROC UNKNOWN UNKNOWN 0 0
DUMMY) (INTEGER 4 0 0 0 INTEGER ()) 0 0 () () 0 () () () 0 0)
265 'hash' '' '' 264 ((VARIABLE INOUT UNKNOWN-PROC UNKNOWN UNKNOWN 0 0
DUMMY) (DERIVED 9 0 0 0 DERIVED ()) 0 0 () () 0 () () () 0 0)
266 'info' '' '' 264 ((VARIABLE OUT UNKNOWN-PROC UNKNOWN UNKNOWN 0 0
DUMMY) (INTEGER 4 0 0 0 INTEGER ()) 0 0 () () 0 () () () 0 0)
269 'key' '' '' 268 ((VARIABLE IN UNKNOWN-PROC UNKNOWN UNKNOWN 0 0 DUMMY)
(INTEGER 4 0 0 0 INTEGER ()) 0 0 () () 0 () () () 0 0)
270 'val' '' '' 268 ((VARIABLE OUT UNKNOWN-PROC UNKNOWN UNKNOWN 0 0
DUMMY) (INTEGER 4 0 0 0 INTEGER ()) 0 0 () () 0 () () () 0 0)
271 'nextval' '' '' 268 ((VARIABLE IN UNKNOWN-PROC UNKNOWN UNKNOWN 0 0
DUMMY) (INTEGER 4 0 0 0 INTEGER ()) 0 0 () () 0 () () () 0 0)
272 'hash' '' '' 268 ((VARIABLE UNKNOWN-INTENT UNKNOWN-PROC UNKNOWN
UNKNOWN 0 0 DUMMY) (DERIVED 9 0 0 0 DERIVED ()) 0 0 () () 0 () () () 0 0)
273 'info' '' '' 268 ((VARIABLE OUT UNKNOWN-PROC UNKNOWN UNKNOWN 0 0
DUMMY) (INTEGER 4 0 0 0 INTEGER ()) 0 0 () () 0 () () () 0 0)
276 'key' '' '' 275 ((VARIABLE IN UNKNOWN-PROC UNKNOWN UNKNOWN 0 0 DUMMY)
(INTEGER 4 0 0 0 INTEGER ()) 0 0 () () 0 () () () 0 0)
277 'val' '' '' 275 ((VARIABLE OUT UNKNOWN-PROC UNKNOWN UNKNOWN 0 0
DUMMY) (INTEGER 4 0 0 0 INTEGER ()) 0 0 () () 0 () () () 0 0)
278 'hash' '' '' 275 ((VARIABLE UNKNOWN-INTENT UNKNOWN-PROC UNKNOWN
UNKNOWN 0 0 DUMMY) (DERIVED 9 0 0 0 DERIVED ()) 0 0 () () 0 () () () 0 0)
279 'info' '' '' 275 ((VARIABLE OUT UNKNOWN-PROC UNKNOWN UNKNOWN 0 0
DUMMY) (INTEGER 4 0 0 0 INTEGER ()) 0 0 () () 0 () () () 0 0)
285 'map_in' '' '' 284 ((VARIABLE IN UNKNOWN-PROC UNKNOWN UNKNOWN 0 0
DUMMY) (DERIVED 10 0 0 0 DERIVED ()) 0 0 () () 0 () () () 0 0)
286 'map_out' '' '' 284 ((VARIABLE INOUT UNKNOWN-PROC UNKNOWN UNKNOWN 0
0 DUMMY) (DERIVED 10 0 0 0 DERIVED ()) 0 0 () () 0 () () () 0 0)
287 'info' '' '' 284 ((VARIABLE OUT UNKNOWN-PROC UNKNOWN UNKNOWN 0 0
DUMMY) (INTEGER 4 0 0 0 INTEGER ()) 0 0 () () 0 () () () 0 0)
289 'map' '' '' 288 ((VARIABLE INOUT UNKNOWN-PROC UNKNOWN UNKNOWN 0 0
DUMMY) (DERIVED 10 0 0 0 DERIVED ()) 0 0 () () 0 () () () 0 0)
290 'info' '' '' 288 ((VARIABLE OUT UNKNOWN-PROC UNKNOWN UNKNOWN 0 0
DUMMY) (INTEGER 4 0 0 0 INTEGER ()) 0 0 () () 0 () () () 0 0)
292 'map' '' '' 291 ((VARIABLE IN UNKNOWN-PROC UNKNOWN UNKNOWN 0 0 DUMMY)
(DERIVED 10 0 0 0 DERIVED ()) 0 0 () () 0 () () () 0 0)
293 'val' '' '' 291 ((VARIABLE UNKNOWN-INTENT UNKNOWN-PROC UNKNOWN
UNKNOWN 0 0 RESULT) (INTEGER 8 0 0 0 INTEGER ()) 0 0 () () 0 () () () 0
0)
295 'map_in' '' '' 294 ((VARIABLE INOUT UNKNOWN-PROC UNKNOWN UNKNOWN 0 0
DUMMY) (DERIVED 10 0 0 0 DERIVED ()) 0 0 () () 0 () () () 0 0)
296 'map_out' '' '' 294 ((VARIABLE INOUT UNKNOWN-PROC UNKNOWN UNKNOWN 0
0 DUMMY) (DERIVED 10 0 0 0 DERIVED ()) 0 0 () () 0 () () () 0 0)
297 'info' '' '' 294 ((VARIABLE OUT UNKNOWN-PROC UNKNOWN UNKNOWN 0 0
DUMMY) (INTEGER 4 0 0 0 INTEGER ()) 0 0 () () 0 () () () 0 0)
302 'dectype' '' '' 301 ((VARIABLE UNKNOWN-INTENT UNKNOWN-PROC UNKNOWN
UNKNOWN 0 0 DUMMY) (INTEGER 4 0 0 0 INTEGER ()) 0 0 () () 0 () () () 0 0)
304 'desc' '' '' 303 ((VARIABLE IN UNKNOWN-PROC UNKNOWN UNKNOWN 0 0
DUMMY) (DERIVED 2 0 0 0 DERIVED ()) 0 0 () () 0 () () () 0 0)
307 'dectype' '' '' 306 ((VARIABLE UNKNOWN-INTENT UNKNOWN-PROC UNKNOWN
UNKNOWN 0 0 DUMMY) (INTEGER 4 0 0 0 INTEGER ()) 0 0 () () 0 () () () 0 0)
309 'desc' '' '' 308 ((VARIABLE IN UNKNOWN-PROC UNKNOWN UNKNOWN 0 0
DUMMY) (DERIVED 2 0 0 0 DERIVED ()) 0 0 () () 0 () () () 0 0)
311 'desc' '' '' 310 ((VARIABLE IN UNKNOWN-PROC UNKNOWN UNKNOWN 0 0
DUMMY) (DERIVED 2 0 0 0 DERIVED ()) 0 0 () () 0 () () () 0 0)
314 'dectype' '' '' 313 ((VARIABLE UNKNOWN-INTENT UNKNOWN-PROC UNKNOWN
UNKNOWN 0 0 DUMMY) (INTEGER 4 0 0 0 INTEGER ()) 0 0 () () 0 () () () 0 0)
316 'desc' '' '' 315 ((VARIABLE IN UNKNOWN-PROC UNKNOWN UNKNOWN 0 0
DUMMY) (DERIVED 2 0 0 0 DERIVED ()) 0 0 () () 0 () () () 0 0)
319 'dectype' '' '' 318 ((VARIABLE UNKNOWN-INTENT UNKNOWN-PROC UNKNOWN
UNKNOWN 0 0 DUMMY) (INTEGER 4 0 0 0 INTEGER ()) 0 0 () () 0 () () () 0 0)
321 'desc' '' '' 320 ((VARIABLE IN UNKNOWN-PROC UNKNOWN UNKNOWN 0 0
DUMMY) (DERIVED 2 0 0 0 DERIVED ()) 0 0 () () 0 () () () 0 0)
324 'dectype' '' '' 323 ((VARIABLE UNKNOWN-INTENT UNKNOWN-PROC UNKNOWN
UNKNOWN 0 0 DUMMY) (INTEGER 4 0 0 0 INTEGER ()) 0 0 () () 0 () () () 0 0)
327 'desc' '' '' 326 ((VARIABLE IN UNKNOWN-PROC UNKNOWN UNKNOWN 0 0
DUMMY) (DERIVED 2 0 0 0 DERIVED ()) 0 0 () () 0 () () () 0 0)
330 'dectype' '' '' 329 ((VARIABLE UNKNOWN-INTENT UNKNOWN-PROC UNKNOWN
UNKNOWN 0 0 DUMMY) (INTEGER 4 0 0 0 INTEGER ()) 0 0 () () 0 () () () 0 0)
332 'desc' '' '' 331 ((VARIABLE IN UNKNOWN-PROC UNKNOWN UNKNOWN 0 0
DUMMY) (DERIVED 2 0 0 0 DERIVED ()) 0 0 () () 0 () () () 0 0)
339 'idx' '' '' 338 ((VARIABLE INOUT UNKNOWN-PROC UNKNOWN UNKNOWN 0 0
DUMMY) (INTEGER 4 0 0 0 INTEGER ()) 0 0 () () 0 () () () 0 0)
340 'map' '' '' 338 ((VARIABLE UNKNOWN-INTENT UNKNOWN-PROC UNKNOWN
UNKNOWN 0 0 DUMMY) (DERIVED 10 0 0 0 DERIVED ()) 0 0 () () 0 () () () 0
0)
341 'info' '' '' 338 ((VARIABLE OUT UNKNOWN-PROC UNKNOWN UNKNOWN 0 0
DUMMY) (INTEGER 4 0 0 0 INTEGER ()) 0 0 () () 0 () () () 0 0)
343 'idx' '' '' 342 ((VARIABLE IN UNKNOWN-PROC UNKNOWN UNKNOWN 0 0 DUMMY)
(INTEGER 4 0 0 0 INTEGER ()) 0 0 () () 0 () () () 0 0)
344 'gidx' '' '' 342 ((VARIABLE OUT UNKNOWN-PROC UNKNOWN UNKNOWN 0 0
DUMMY) (INTEGER 4 0 0 0 INTEGER ()) 0 0 () () 0 () () () 0 0)
345 'map' '' '' 342 ((VARIABLE UNKNOWN-INTENT UNKNOWN-PROC UNKNOWN
UNKNOWN 0 0 DUMMY) (DERIVED 10 0 0 0 DERIVED ()) 0 0 () () 0 () () () 0
0)
346 'info' '' '' 342 ((VARIABLE OUT UNKNOWN-PROC UNKNOWN UNKNOWN 0 0
DUMMY) (INTEGER 4 0 0 0 INTEGER ()) 0 0 () () 0 () () () 0 0)
348 'idx' '' '' 347 ((VARIABLE INOUT UNKNOWN-PROC UNKNOWN UNKNOWN 0 0
DIMENSION DUMMY) (INTEGER 4 0 0 0 INTEGER ()) 0 0 () (1 0 ASSUMED_SHAPE
(CONSTANT (INTEGER 4 0 0 0 INTEGER ()) 0 '1') ()) 0 () () () 0 0)
349 'map' '' '' 347 ((VARIABLE UNKNOWN-INTENT UNKNOWN-PROC UNKNOWN
UNKNOWN 0 0 DUMMY) (DERIVED 10 0 0 0 DERIVED ()) 0 0 () () 0 () () () 0
0)
350 'info' '' '' 347 ((VARIABLE OUT UNKNOWN-PROC UNKNOWN UNKNOWN 0 0
DUMMY) (INTEGER 4 0 0 0 INTEGER ()) 0 0 () () 0 () () () 0 0)
352 'idx' '' '' 351 ((VARIABLE IN UNKNOWN-PROC UNKNOWN UNKNOWN 0 0
DIMENSION DUMMY) (INTEGER 4 0 0 0 INTEGER ()) 0 0 () (1 0 ASSUMED_SHAPE
(CONSTANT (INTEGER 4 0 0 0 INTEGER ()) 0 '1') ()) 0 () () () 0 0)
353 'gidx' '' '' 351 ((VARIABLE OUT UNKNOWN-PROC UNKNOWN UNKNOWN 0 0
DIMENSION DUMMY) (INTEGER 4 0 0 0 INTEGER ()) 0 0 () (1 0 ASSUMED_SHAPE
(CONSTANT (INTEGER 4 0 0 0 INTEGER ()) 0 '1') ()) 0 () () () 0 0)
354 'map' '' '' 351 ((VARIABLE UNKNOWN-INTENT UNKNOWN-PROC UNKNOWN
UNKNOWN 0 0 DUMMY) (DERIVED 10 0 0 0 DERIVED ()) 0 0 () () 0 () () () 0
0)
355 'info' '' '' 351 ((VARIABLE OUT UNKNOWN-PROC UNKNOWN UNKNOWN 0 0
DUMMY) (INTEGER 4 0 0 0 INTEGER ()) 0 0 () () 0 () () () 0 0)
373 'desc' '' '' 372 ((VARIABLE INOUT UNKNOWN-PROC UNKNOWN UNKNOWN 0 0
DUMMY) (DERIVED 2 0 0 0 DERIVED ()) 0 0 () () 0 () () () 0 0)
386 'hash' '' '' 385 ((VARIABLE UNKNOWN-INTENT UNKNOWN-PROC UNKNOWN
UNKNOWN 0 0 DUMMY) (DERIVED 9 0 0 0 DERIVED ()) 0 0 () () 0 () () () 0 0)
387 'val' '' '' 385 ((VARIABLE UNKNOWN-INTENT UNKNOWN-PROC UNKNOWN
UNKNOWN 0 0 RESULT) (INTEGER 8 0 0 0 INTEGER ()) 0 0 () () 0 () () () 0
0)
)

('Psb_desc_type' 0 2 'Psb_hash_type' 0 9 'Psb_idxmap_type' 0 10
'__convert_r4_r8' 0 53 'clonehashtable' 0 54 'cone' 0 59 'czero' 0 60
'd_epstol' 0 61 'done' 0 62 'dzero' 0 63 'hashcopy' 0 6 'hashduplicate'
0 68 'hashfree' 0 5 'hashfreeentry' 0 72 'hashnotfound' 0 73 'hashok' 0
74 'hashoutofmemory' 0 75 'hashtransfer' 0 23 'hashval' 0 80 'ione' 0 84
'ithree' 0 85 'itwo' 0 86 'izero' 0 87 'kind' 0 88 'longndig' 0 89 'mone'
0 90 'ndig' 0 91 'null' 0 92 'psb_all_' 0 93 'psb_avg_' 0 94
'psb_cd_choose_large_state' 0 95 'psb_cd_get_context' 0 99
'psb_cd_get_dectype' 0 102 'psb_cd_get_global_cols' 0 105
'psb_cd_get_global_rows' 0 108 'psb_cd_get_large_threshold' 0 111
'psb_cd_get_list' 0 112 'psb_cd_get_local_cols' 0 121
'psb_cd_get_local_rows' 0 124 'psb_cd_get_mpic' 0 127
'psb_cd_get_recv_idx' 0 130 'psb_cd_get_size' 0 137 'psb_cd_ovl_asb_' 0
140 'psb_cd_ovl_bld_' 0 141 'psb_cd_set_large_threshold' 0 142
'psb_cd_set_ovl_asb' 0 145 'psb_cd_sizeof' 0 25 'psb_cdfree' 0 4
'psb_cdtransfer' 0 22 'psb_comm_ext_' 0 159 'psb_comm_halo_' 0 160
'psb_comm_mov_' 0 161 'psb_comm_ovr_' 0 162 'psb_const_mod' 0 163
'psb_ctxt_' 0 164 'psb_dec_type_' 0 165 'psb_default_large_threshold' 0
166 'psb_desc_asb_' 0 167 'psb_desc_bld_' 0 168 'psb_desc_large_' 0 169
'psb_desc_normal_' 0 170 'psb_desc_repl_' 0 171 'psb_desc_size_' 0 172
'psb_desc_type' 0 173 'psb_desc_upd_' 0 174 'psb_descriptor_type' 0 175
'psb_dpk_' 0 176 'psb_elem_recv_' 0 177 'psb_elem_send_' 0 178
'psb_err_alloc_dealloc_' 0 179 'psb_err_alloc_request_' 0 180
'psb_err_arg_m_required_' 0 181 'psb_err_asb_nrc_error_' 0 182
'psb_err_context_error_' 0 183 'psb_err_dupl_cd_vl' 0 184
'psb_err_duplicate_coo' 0 185 'psb_err_entry_out_of_bounds_' 0 186
'psb_err_forgot_geall_' 0 187 'psb_err_forgot_spall_' 0 188
'psb_err_format_unknown_' 0 189 'psb_err_from_subroutine_' 0 190
'psb_err_from_subroutine_ai_' 0 191 'psb_err_from_subroutine_i_' 0 192
'psb_err_from_subroutine_non_' 0 193 'psb_err_ia1_badindices_' 0 194
'psb_err_ia1_not_increasing_' 0 195 'psb_err_ia2_not_increasing_' 0 196
'psb_err_iarg2_neg_' 0 197 'psb_err_iarg_invalid_i_' 0 198
'psb_err_iarg_invalid_value_' 0 199 'psb_err_iarg_mbeeiarra_i_' 0 200
'psb_err_iarg_n_mbgtian_' 0 201 'psb_err_iarg_neg_' 0 202
'psb_err_iarg_not_gteia_ii_' 0 203 'psb_err_iarg_not_gtia_ii_' 0 204
'psb_err_iarg_pos_' 0 205 'psb_err_iarray_outside_bounds_' 0 206
'psb_err_iarray_outside_process_' 0 207
'psb_err_inconsistent_index_lists_' 0 208 'psb_err_initerror_neugh_procs_'
0 209 'psb_err_input_asize_invalid_i_' 0 210
'psb_err_input_matrix_unassembled_' 0 211 'psb_err_input_no_regen_' 0
212 'psb_err_input_value_invalid_i_' 0 213 'psb_err_internal_error_' 0
214 'psb_err_invalid_a_and_cd_state_' 0 215
'psb_err_invalid_args_combination_' 0 216 'psb_err_invalid_cd_state_' 0
217 'psb_err_invalid_input_' 0 218 'psb_err_invalid_input_format_' 0 219
'psb_err_invalid_istop_' 0 220 'psb_err_invalid_matrix_input_state_' 0
221 'psb_err_invalid_ovr_num_' 0 222 'psb_err_invalid_pid_arg_' 0 223
'psb_err_ix_n1_iy_n1_unsupported_' 0 224
'psb_err_ja_nix_ia_niy_unsupported_' 0 225
'psb_err_lld_case_not_implemented_' 0 226 'psb_err_mpi_error_' 0 227
'psb_err_no_optional_arg_' 0 228 'psb_err_only_unit_diag_' 0 229
'psb_err_parm_differs_among_procs_' 0 230 'psb_err_partfunc_toofewprocs_'
0 231 'psb_err_partfunc_toomuchprocs_' 0 232 'psb_err_partfunc_wrong_pid_'
0 233 'psb_err_pivot_too_small_' 0 234 'psb_err_spmat_invalid_state_' 0
235 'psb_err_transpose_c_unsupported_' 0 236
'psb_err_transpose_not_n_unsupported_' 0 237
'psb_err_transpose_unsupported_' 0 238 'psb_err_unsupported_format_' 0
239 'psb_err_wrong_ins_' 0 240 'psb_fidasize_' 0 241 'psb_get_xch_idx' 0
242 'psb_halo_' 0 248 'psb_hash_avg_acc' 0 249 'psb_hash_bits' 0 252
'psb_hash_init_n' 0 7 'psb_hash_init_v' 0 8 'psb_hash_mask' 0 261
'psb_hash_mod' 0 262 'psb_hash_realloc' 0 263 'psb_hash_searchinskey' 0
267 'psb_hash_searchkey' 0 274 'psb_hash_size' 0 280 'psb_hash_type' 0
281 'psb_hpnt_nentries_' 0 282 'psb_idxmap_copy' 0 283 'psb_idxmap_free'
0 3 'psb_idxmap_sizeof' 0 24 'psb_idxmap_transfer' 0 21 'psb_idxmap_type'
0 298 'psb_int_k_' 0 299 'psb_is_asb_dec' 0 300 'psb_is_asb_desc' 0 11
'psb_is_bld_dec' 0 305 'psb_is_bld_desc' 0 12 'psb_is_large_desc' 0 13
'psb_is_ok_dec' 0 312 'psb_is_ok_desc' 0 14 'psb_is_ovl_dec' 0 317
'psb_is_ovl_desc' 0 15 'psb_is_repl_dec' 0 322 'psb_is_repl_desc' 0 325
'psb_is_upd_dec' 0 328 'psb_is_upd_desc' 0 16 'psb_long_int_k_' 0 333
'psb_m_' 0 334 'psb_map_aggr_' 0 335 'psb_map_asov_' 0 336
'psb_map_gen_linear_' 0 337 'psb_map_l2g_s1' 0 20 'psb_map_l2g_s2' 0 19
'psb_map_l2g_v1' 0 18 'psb_map_l2g_v2' 0 17 'psb_map_xhal_' 0 356
'psb_max_hash_bits' 0 357 'psb_mdata_size_' 0 358 'psb_mpi_c_' 0 359
'psb_mpi_integer' 0 360 'psb_n_' 0 361 'psb_n_col_' 0 362 'psb_n_dom_ovr_'
0 363 'psb_n_elem_recv_' 0 364 'psb_n_elem_send_' 0 365
'psb_n_ovrlp_elem_' 0 366 'psb_n_row_' 0 367 'psb_no_comm_' 0 368
'psb_nohalo_' 0 369 'psb_none_' 0 370 'psb_nullify_desc' 0 371
'psb_ovrlp_elem_' 0 374 'psb_ovrlp_elem_to_' 0 375 'psb_ovt_asov_' 0 376
'psb_ovt_xhal_' 0 377 'psb_patchlevel' 0 378 'psb_percent_' 0 379
'psb_pnt_h_' 0 380 'psb_proc_id_' 0 381 'psb_root_' 0 382 'psb_setzero_'
0 383 'psb_sizeof_dp' 0 384 'psb_sizeof_hash_type' 0 26 'psb_sizeof_int'
0 388 'psb_sizeof_long_int' 0 389 'psb_sizeof_sp' 0 390 'psb_spk_' 0 391
'psb_square_root_' 0 392 'psb_success_' 0 393 'psb_sum_' 0 394
'psb_swap_mpi_' 0 395 'psb_swap_recv_' 0 396 'psb_swap_send_' 0 397
'psb_swap_sync_' 0 398 'psb_text_rcv_' 0 399 'psb_text_snd_' 0 400
'psb_text_xch_' 0 401 'psb_thal_rcv_' 0 402 'psb_thal_snd_' 0 403
'psb_thal_xch_' 0 404 'psb_tmov_rcv_' 0 405 'psb_tmov_snd_' 0 406
'psb_tmov_xch_' 0 407 'psb_topdef_' 0 408 'psb_tovr_rcv_' 0 409
'psb_tovr_snd_' 0 410 'psb_tovr_xch_' 0 411 'psb_upd_glbnum_' 0 412
'psb_upd_locnum_' 0 413 'psb_version_major' 0 414 'psb_version_minor' 0
415 'psb_version_string' 0 416 's_epstol' 0 417 'selected_int_kind' 0
418 'sone' 0 419 'szero' 0 420 'zone' 0 421 'zzero' 0 422)
