GFORTRAN module version '10' created from psi_bcast_mod.F90
MD5:a9e5d5ae906fca4be93fdd645dc79ba1 -- If you edit this, you'll get what you deserve.

(() () () () () () () () () () () () () () () () () () () () () () ()
() () () ())

()

(('psb_abort' 'psi_penv_mod' 2) ('psb_barrier' 'psi_penv_mod' 3) (
'psb_bcast' 'psi_bcast_mod' 4 5 6 7 8 9 10 11 12 13 14 15 16 17 18 19 20
21 22) ('psb_buffer_queue' 'psi_comm_buffers_mod' 23) ('psb_exit'
'psi_penv_mod' 24) ('psb_info' 'psi_penv_mod' 25) ('psb_init'
'psi_penv_mod' 26) ('psb_wtime' 'psi_penv_mod' 27))

()

()

()

(28 'Psb_buffer_node' 'psi_comm_buffers_mod' '' 1 ((DERIVED
UNKNOWN-INTENT UNKNOWN-PROC UNKNOWN UNKNOWN 0 0 ALLOC_COMP POINTER_COMP)
(UNKNOWN 0 0 0 0 UNKNOWN ()) 0 0 () () 0 ((29 'request' (INTEGER 4 0 0 0
INTEGER ()) () (UNKNOWN-FL UNKNOWN-INTENT UNKNOWN-PROC UNKNOWN UNKNOWN 0
0) UNKNOWN-ACCESS ()) (30 'icontxt' (INTEGER 4 0 0 0 INTEGER ()) () (
UNKNOWN-FL UNKNOWN-INTENT UNKNOWN-PROC UNKNOWN UNKNOWN 0 0)
UNKNOWN-ACCESS ()) (31 'buffer_type' (INTEGER 4 0 0 0 INTEGER ()) () (
UNKNOWN-FL UNKNOWN-INTENT UNKNOWN-PROC UNKNOWN UNKNOWN 0 0)
UNKNOWN-ACCESS ()) (32 'intbuf' (INTEGER 4 0 0 0 INTEGER ()) (1 0
DEFERRED () ()) (UNKNOWN-FL UNKNOWN-INTENT UNKNOWN-PROC UNKNOWN UNKNOWN
0 0 ALLOCATABLE DIMENSION) UNKNOWN-ACCESS ()) (33 'int8buf' (INTEGER 8 0
0 0 INTEGER ()) (1 0 DEFERRED () ()) (UNKNOWN-FL UNKNOWN-INTENT
UNKNOWN-PROC UNKNOWN UNKNOWN 0 0 ALLOCATABLE DIMENSION) UNKNOWN-ACCESS ())
(34 'realbuf' (REAL 4 0 0 0 REAL ()) (1 0 DEFERRED () ()) (UNKNOWN-FL
UNKNOWN-INTENT UNKNOWN-PROC UNKNOWN UNKNOWN 0 0 ALLOCATABLE DIMENSION)
UNKNOWN-ACCESS ()) (35 'doublebuf' (REAL 8 0 0 0 REAL ()) (1 0 DEFERRED
() ()) (UNKNOWN-FL UNKNOWN-INTENT UNKNOWN-PROC UNKNOWN UNKNOWN 0 0
ALLOCATABLE DIMENSION) UNKNOWN-ACCESS ()) (36 'complexbuf' (COMPLEX 4 0
0 0 COMPLEX ()) (1 0 DEFERRED () ()) (UNKNOWN-FL UNKNOWN-INTENT
UNKNOWN-PROC UNKNOWN UNKNOWN 0 0 ALLOCATABLE DIMENSION) UNKNOWN-ACCESS ())
(37 'dcomplbuf' (COMPLEX 8 0 0 0 COMPLEX ()) (1 0 DEFERRED () ()) (
UNKNOWN-FL UNKNOWN-INTENT UNKNOWN-PROC UNKNOWN UNKNOWN 0 0 ALLOCATABLE
DIMENSION) UNKNOWN-ACCESS ()) (38 'logbuf' (LOGICAL 4 0 0 0 LOGICAL ())
(1 0 DEFERRED () ()) (UNKNOWN-FL UNKNOWN-INTENT UNKNOWN-PROC UNKNOWN
UNKNOWN 0 0 ALLOCATABLE DIMENSION) UNKNOWN-ACCESS ()) (39 'charbuf' (
CHARACTER 1 0 0 0 CHARACTER ((CONSTANT (INTEGER 4 0 0 0 INTEGER ()) 0 '1')))
(1 0 DEFERRED () ()) (UNKNOWN-FL UNKNOWN-INTENT UNKNOWN-PROC UNKNOWN
UNKNOWN 0 0 ALLOCATABLE DIMENSION) UNKNOWN-ACCESS ()) (40 'prev' (
DERIVED 28 0 0 0 DERIVED ()) () (UNKNOWN-FL UNKNOWN-INTENT UNKNOWN-PROC
UNKNOWN UNKNOWN 0 0 POINTER) UNKNOWN-ACCESS (NULL (UNKNOWN 0 0 0 0
UNKNOWN ()) 0)) (41 'next' (DERIVED 28 0 0 0 DERIVED ()) () (UNKNOWN-FL
UNKNOWN-INTENT UNKNOWN-PROC UNKNOWN UNKNOWN 0 0 POINTER) UNKNOWN-ACCESS
(NULL (UNKNOWN 0 0 0 0 UNKNOWN ()) 0))) PUBLIC (() () () ()) () 0 0
41275390)
23 'Psb_buffer_queue' 'psi_comm_buffers_mod' '' 1 ((DERIVED
UNKNOWN-INTENT UNKNOWN-PROC UNKNOWN UNKNOWN 0 0 POINTER_COMP) (UNKNOWN 0
0 0 0 UNKNOWN ()) 0 0 () () 0 ((42 'head' (DERIVED 28 0 0 0 DERIVED ())
() (UNKNOWN-FL UNKNOWN-INTENT UNKNOWN-PROC UNKNOWN UNKNOWN 0 0 POINTER)
UNKNOWN-ACCESS (NULL (UNKNOWN 0 0 0 0 UNKNOWN ()) 0)) (43 'tail' (
DERIVED 28 0 0 0 DERIVED ()) () (UNKNOWN-FL UNKNOWN-INTENT UNKNOWN-PROC
UNKNOWN UNKNOWN 0 0 POINTER) UNKNOWN-ACCESS (NULL (UNKNOWN 0 0 0 0
UNKNOWN ()) 0))) PUBLIC (() () () ()) () 0 0 4973781)
44 '__convert_r4_r8' '(intrinsic)' '' 1 ((PROCEDURE UNKNOWN-INTENT
UNKNOWN-PROC UNKNOWN UNKNOWN 0 0 FUNCTION ELEMENTAL PURE) (REAL 8 0 0 0
REAL ()) 0 0 () () 44 () () () 0 0)
45 'cone' 'psb_const_mod' '' 1 ((PARAMETER UNKNOWN-INTENT UNKNOWN-PROC
UNKNOWN IMPLICIT-SAVE 0 0) (COMPLEX 4 0 0 0 COMPLEX ()) 0 0 () (
CONSTANT (COMPLEX 4 0 0 0 COMPLEX ()) 0 '0.1000000@1' '0.0000000@0') ()
0 () () () 0 0)
46 'czero' 'psb_const_mod' '' 1 ((PARAMETER UNKNOWN-INTENT UNKNOWN-PROC
UNKNOWN IMPLICIT-SAVE 0 0) (COMPLEX 4 0 0 0 COMPLEX ()) 0 0 () (
CONSTANT (COMPLEX 4 0 0 0 COMPLEX ()) 0 '0.0000000@0' '0.0000000@0') ()
0 () () () 0 0)
47 'd_epstol' 'psb_const_mod' '' 1 ((PARAMETER UNKNOWN-INTENT
UNKNOWN-PROC UNKNOWN IMPLICIT-SAVE 0 0) (REAL 8 0 0 0 REAL ()) 0 0 () (
CONSTANT (REAL 8 0 0 0 REAL ()) 0 '0.7ed2450285913c@-13') () 0 () () ()
0 0)
48 'done' 'psb_const_mod' '' 1 ((PARAMETER UNKNOWN-INTENT UNKNOWN-PROC
UNKNOWN IMPLICIT-SAVE 0 0) (REAL 8 0 0 0 REAL ()) 0 0 () (CONSTANT (
REAL 8 0 0 0 REAL ()) 0 '0.10000000000000@1') () 0 () () () 0 0)
49 'dzero' 'psb_const_mod' '' 1 ((PARAMETER UNKNOWN-INTENT UNKNOWN-PROC
UNKNOWN IMPLICIT-SAVE 0 0) (REAL 8 0 0 0 REAL ()) 0 0 () (CONSTANT (
REAL 8 0 0 0 REAL ()) 0 '0.00000000000000@0') () 0 () () () 0 0)
50 'ione' 'psb_const_mod' '' 1 ((PARAMETER UNKNOWN-INTENT UNKNOWN-PROC
UNKNOWN IMPLICIT-SAVE 0 0) (INTEGER 4 0 0 0 INTEGER ()) 0 0 () (
CONSTANT (INTEGER 4 0 0 0 INTEGER ()) 0 '1') () 0 () () () 0 0)
51 'ithree' 'psb_const_mod' '' 1 ((PARAMETER UNKNOWN-INTENT UNKNOWN-PROC
UNKNOWN IMPLICIT-SAVE 0 0) (INTEGER 4 0 0 0 INTEGER ()) 0 0 () (
CONSTANT (INTEGER 4 0 0 0 INTEGER ()) 0 '3') () 0 () () () 0 0)
52 'itwo' 'psb_const_mod' '' 1 ((PARAMETER UNKNOWN-INTENT UNKNOWN-PROC
UNKNOWN IMPLICIT-SAVE 0 0) (INTEGER 4 0 0 0 INTEGER ()) 0 0 () (
CONSTANT (INTEGER 4 0 0 0 INTEGER ()) 0 '2') () 0 () () () 0 0)
53 'izero' 'psb_const_mod' '' 1 ((PARAMETER UNKNOWN-INTENT UNKNOWN-PROC
UNKNOWN IMPLICIT-SAVE 0 0) (INTEGER 4 0 0 0 INTEGER ()) 0 0 () (
CONSTANT (INTEGER 4 0 0 0 INTEGER ()) 0 '0') () 0 () () () 0 0)
54 'kind' '(intrinsic)' '' 1 ((PROCEDURE UNKNOWN-INTENT UNKNOWN-PROC
UNKNOWN UNKNOWN 0 0 FUNCTION) (INTEGER 4 0 0 0 INTEGER ()) 0 0 () () 54
() () () 0 0)
55 'longndig' 'psb_const_mod' '' 1 ((PARAMETER UNKNOWN-INTENT
UNKNOWN-PROC UNKNOWN IMPLICIT-SAVE 0 0) (INTEGER 4 0 0 0 INTEGER ()) 0 0
() (CONSTANT (INTEGER 4 0 0 0 INTEGER ()) 0 '12') () 0 () () () 0 0)
56 'mone' 'psb_const_mod' '' 1 ((PARAMETER UNKNOWN-INTENT UNKNOWN-PROC
UNKNOWN IMPLICIT-SAVE 0 0) (INTEGER 4 0 0 0 INTEGER ()) 0 0 () (
CONSTANT (INTEGER 4 0 0 0 INTEGER ()) 0 '-1') () 0 () () () 0 0)
57 'mpi_camn_op' 'psi_penv_mod' '' 1 ((VARIABLE UNKNOWN-INTENT
UNKNOWN-PROC UNKNOWN EXPLICIT-SAVE 0 0) (INTEGER 4 0 0 0 INTEGER ()) 0 0
() () 0 () () () 0 0)
58 'mpi_camx_op' 'psi_penv_mod' '' 1 ((VARIABLE UNKNOWN-INTENT
UNKNOWN-PROC UNKNOWN EXPLICIT-SAVE 0 0) (INTEGER 4 0 0 0 INTEGER ()) 0 0
() () 0 () () () 0 0)
59 'mpi_damn_op' 'psi_penv_mod' '' 1 ((VARIABLE UNKNOWN-INTENT
UNKNOWN-PROC UNKNOWN EXPLICIT-SAVE 0 0) (INTEGER 4 0 0 0 INTEGER ()) 0 0
() () 0 () () () 0 0)
60 'mpi_damx_op' 'psi_penv_mod' '' 1 ((VARIABLE UNKNOWN-INTENT
UNKNOWN-PROC UNKNOWN EXPLICIT-SAVE 0 0) (INTEGER 4 0 0 0 INTEGER ()) 0 0
() () 0 () () () 0 0)
61 'mpi_dnrm2_op' 'psi_penv_mod' '' 1 ((VARIABLE UNKNOWN-INTENT
UNKNOWN-PROC UNKNOWN EXPLICIT-SAVE 0 0) (INTEGER 4 0 0 0 INTEGER ()) 0 0
() () 0 () () () 0 0)
62 'mpi_i8amn_op' 'psi_penv_mod' '' 1 ((VARIABLE UNKNOWN-INTENT
UNKNOWN-PROC UNKNOWN EXPLICIT-SAVE 0 0) (INTEGER 4 0 0 0 INTEGER ()) 0 0
() () 0 () () () 0 0)
63 'mpi_i8amx_op' 'psi_penv_mod' '' 1 ((VARIABLE UNKNOWN-INTENT
UNKNOWN-PROC UNKNOWN EXPLICIT-SAVE 0 0) (INTEGER 4 0 0 0 INTEGER ()) 0 0
() () 0 () () () 0 0)
64 'mpi_iamn_op' 'psi_penv_mod' '' 1 ((VARIABLE UNKNOWN-INTENT
UNKNOWN-PROC UNKNOWN EXPLICIT-SAVE 0 0) (INTEGER 4 0 0 0 INTEGER ()) 0 0
() () 0 () () () 0 0)
65 'mpi_iamx_op' 'psi_penv_mod' '' 1 ((VARIABLE UNKNOWN-INTENT
UNKNOWN-PROC UNKNOWN EXPLICIT-SAVE 0 0) (INTEGER 4 0 0 0 INTEGER ()) 0 0
() () 0 () () () 0 0)
66 'mpi_samn_op' 'psi_penv_mod' '' 1 ((VARIABLE UNKNOWN-INTENT
UNKNOWN-PROC UNKNOWN EXPLICIT-SAVE 0 0) (INTEGER 4 0 0 0 INTEGER ()) 0 0
() () 0 () () () 0 0)
67 'mpi_samx_op' 'psi_penv_mod' '' 1 ((VARIABLE UNKNOWN-INTENT
UNKNOWN-PROC UNKNOWN EXPLICIT-SAVE 0 0) (INTEGER 4 0 0 0 INTEGER ()) 0 0
() () 0 () () () 0 0)
68 'mpi_snrm2_op' 'psi_penv_mod' '' 1 ((VARIABLE UNKNOWN-INTENT
UNKNOWN-PROC UNKNOWN EXPLICIT-SAVE 0 0) (INTEGER 4 0 0 0 INTEGER ()) 0 0
() () 0 () () () 0 0)
69 'mpi_zamn_op' 'psi_penv_mod' '' 1 ((VARIABLE UNKNOWN-INTENT
UNKNOWN-PROC UNKNOWN EXPLICIT-SAVE 0 0) (INTEGER 4 0 0 0 INTEGER ()) 0 0
() () 0 () () () 0 0)
70 'mpi_zamx_op' 'psi_penv_mod' '' 1 ((VARIABLE UNKNOWN-INTENT
UNKNOWN-PROC UNKNOWN EXPLICIT-SAVE 0 0) (INTEGER 4 0 0 0 INTEGER ()) 0 0
() () 0 () () () 0 0)
71 'ndig' 'psb_const_mod' '' 1 ((PARAMETER UNKNOWN-INTENT UNKNOWN-PROC
UNKNOWN IMPLICIT-SAVE 0 0) (INTEGER 4 0 0 0 INTEGER ()) 0 0 () (
CONSTANT (INTEGER 4 0 0 0 INTEGER ()) 0 '8') () 0 () () () 0 0)
2 'psb_abort' 'psi_penv_mod' '' 1 ((PROCEDURE UNKNOWN-INTENT MODULE-PROC
DECL UNKNOWN 0 0 SUBROUTINE GENERIC ALWAYS_EXPLICIT) (UNKNOWN 0 0 0 0
UNKNOWN ()) 72 0 (73 74) () 0 () () () 0 0)
75 'psb_all_' 'psb_const_mod' '' 1 ((PARAMETER UNKNOWN-INTENT
UNKNOWN-PROC UNKNOWN IMPLICIT-SAVE 0 0) (CHARACTER 1 0 0 0 CHARACTER ((
CONSTANT (INTEGER 4 0 0 0 INTEGER ()) 0 '1'))) 0 0 () (CONSTANT (
CHARACTER 1 0 0 0 CHARACTER (())) 0 1 'A') () 0 () () () 0 0)
3 'psb_barrier' 'psi_penv_mod' '' 1 ((PROCEDURE UNKNOWN-INTENT
MODULE-PROC DECL UNKNOWN 0 0 SUBROUTINE GENERIC) (UNKNOWN 0 0 0 0
UNKNOWN ()) 76 0 (77) () 0 () () () 0 0)
78 'psb_buffer_queue' 'psi_comm_buffers_mod' '' 1 ((PROCEDURE
UNKNOWN-INTENT UNKNOWN-PROC DECL UNKNOWN 0 0 FUNCTION GENERIC) (REAL 4 0
0 0 REAL ()) 0 0 () () 0 () () () 0 0)
8 'psb_cbcastm' 'psi_bcast_mod' '' 1 ((PROCEDURE UNKNOWN-INTENT
MODULE-PROC DECL UNKNOWN 0 0 SUBROUTINE ALWAYS_EXPLICIT) (UNKNOWN 0 0 0
0 UNKNOWN ()) 79 0 (80 81 82) () 0 () () () 0 0)
10 'psb_cbcasts' 'psi_bcast_mod' '' 1 ((PROCEDURE UNKNOWN-INTENT
MODULE-PROC DECL UNKNOWN 0 0 SUBROUTINE ALWAYS_EXPLICIT) (UNKNOWN 0 0 0
0 UNKNOWN ()) 83 0 (84 85 86) () 0 () () () 0 0)
9 'psb_cbcastv' 'psi_bcast_mod' '' 1 ((PROCEDURE UNKNOWN-INTENT
MODULE-PROC DECL UNKNOWN 0 0 SUBROUTINE ALWAYS_EXPLICIT) (UNKNOWN 0 0 0
0 UNKNOWN ()) 87 0 (88 89 90) () 0 () () () 0 0)
91 'psb_const_mod' 'psb_const_mod' '' 1 ((MODULE UNKNOWN-INTENT
UNKNOWN-PROC UNKNOWN UNKNOWN 0 0) (UNKNOWN 0 0 0 0 UNKNOWN ()) 0 0 () ()
0 () () () 0 0)
17 'psb_dbcastm' 'psi_bcast_mod' '' 1 ((PROCEDURE UNKNOWN-INTENT
MODULE-PROC DECL UNKNOWN 0 0 SUBROUTINE ALWAYS_EXPLICIT) (UNKNOWN 0 0 0
0 UNKNOWN ()) 92 0 (93 94 95) () 0 () () () 0 0)
19 'psb_dbcasts' 'psi_bcast_mod' '' 1 ((PROCEDURE UNKNOWN-INTENT
MODULE-PROC DECL UNKNOWN 0 0 SUBROUTINE ALWAYS_EXPLICIT) (UNKNOWN 0 0 0
0 UNKNOWN ()) 96 0 (97 98 99) () 0 () () () 0 0)
18 'psb_dbcastv' 'psi_bcast_mod' '' 1 ((PROCEDURE UNKNOWN-INTENT
MODULE-PROC DECL UNKNOWN 0 0 SUBROUTINE ALWAYS_EXPLICIT) (UNKNOWN 0 0 0
0 UNKNOWN ()) 100 0 (101 102 103) () 0 () () () 0 0)
104 'psb_dpk_' 'psb_const_mod' '' 1 ((PARAMETER UNKNOWN-INTENT
UNKNOWN-PROC UNKNOWN IMPLICIT-SAVE 0 0) (INTEGER 4 0 0 0 INTEGER ()) 0 0
() (CONSTANT (INTEGER 4 0 0 0 INTEGER ()) 0 '8') () 0 () () () 0 0)
105 'psb_err_alloc_dealloc_' 'psb_const_mod' '' 1 ((PARAMETER
UNKNOWN-INTENT UNKNOWN-PROC UNKNOWN IMPLICIT-SAVE 0 0) (INTEGER 4 0 0 0
INTEGER ()) 0 0 () (CONSTANT (INTEGER 4 0 0 0 INTEGER ()) 0 '4000') () 0
() () () 0 0)
106 'psb_err_alloc_request_' 'psb_const_mod' '' 1 ((PARAMETER
UNKNOWN-INTENT UNKNOWN-PROC UNKNOWN IMPLICIT-SAVE 0 0) (INTEGER 4 0 0 0
INTEGER ()) 0 0 () (CONSTANT (INTEGER 4 0 0 0 INTEGER ()) 0 '4025') () 0
() () () 0 0)
107 'psb_err_arg_m_required_' 'psb_const_mod' '' 1 ((PARAMETER
UNKNOWN-INTENT UNKNOWN-PROC UNKNOWN IMPLICIT-SAVE 0 0) (INTEGER 4 0 0 0
INTEGER ()) 0 0 () (CONSTANT (INTEGER 4 0 0 0 INTEGER ()) 0 '582') () 0
() () () 0 0)
108 'psb_err_asb_nrc_error_' 'psb_const_mod' '' 1 ((PARAMETER
UNKNOWN-INTENT UNKNOWN-PROC UNKNOWN IMPLICIT-SAVE 0 0) (INTEGER 4 0 0 0
INTEGER ()) 0 0 () (CONSTANT (INTEGER 4 0 0 0 INTEGER ()) 0 '71') () 0 ()
() () 0 0)
109 'psb_err_context_error_' 'psb_const_mod' '' 1 ((PARAMETER
UNKNOWN-INTENT UNKNOWN-PROC UNKNOWN IMPLICIT-SAVE 0 0) (INTEGER 4 0 0 0
INTEGER ()) 0 0 () (CONSTANT (INTEGER 4 0 0 0 INTEGER ()) 0 '2010') () 0
() () () 0 0)
110 'psb_err_dupl_cd_vl' 'psb_const_mod' '' 1 ((PARAMETER UNKNOWN-INTENT
UNKNOWN-PROC UNKNOWN IMPLICIT-SAVE 0 0) (INTEGER 4 0 0 0 INTEGER ()) 0 0
() (CONSTANT (INTEGER 4 0 0 0 INTEGER ()) 0 '123') () 0 () () () 0 0)
111 'psb_err_duplicate_coo' 'psb_const_mod' '' 1 ((PARAMETER
UNKNOWN-INTENT UNKNOWN-PROC UNKNOWN IMPLICIT-SAVE 0 0) (INTEGER 4 0 0 0
INTEGER ()) 0 0 () (CONSTANT (INTEGER 4 0 0 0 INTEGER ()) 0 '130') () 0
() () () 0 0)
112 'psb_err_entry_out_of_bounds_' 'psb_const_mod' '' 1 ((PARAMETER
UNKNOWN-INTENT UNKNOWN-PROC UNKNOWN IMPLICIT-SAVE 0 0) (INTEGER 4 0 0 0
INTEGER ()) 0 0 () (CONSTANT (INTEGER 4 0 0 0 INTEGER ()) 0 '551') () 0
() () () 0 0)
113 'psb_err_forgot_geall_' 'psb_const_mod' '' 1 ((PARAMETER
UNKNOWN-INTENT UNKNOWN-PROC UNKNOWN IMPLICIT-SAVE 0 0) (INTEGER 4 0 0 0
INTEGER ()) 0 0 () (CONSTANT (INTEGER 4 0 0 0 INTEGER ()) 0 '290') () 0
() () () 0 0)
114 'psb_err_forgot_spall_' 'psb_const_mod' '' 1 ((PARAMETER
UNKNOWN-INTENT UNKNOWN-PROC UNKNOWN IMPLICIT-SAVE 0 0) (INTEGER 4 0 0 0
INTEGER ()) 0 0 () (CONSTANT (INTEGER 4 0 0 0 INTEGER ()) 0 '295') () 0
() () () 0 0)
115 'psb_err_format_unknown_' 'psb_const_mod' '' 1 ((PARAMETER
UNKNOWN-INTENT UNKNOWN-PROC UNKNOWN IMPLICIT-SAVE 0 0) (INTEGER 4 0 0 0
INTEGER ()) 0 0 () (CONSTANT (INTEGER 4 0 0 0 INTEGER ()) 0 '136') () 0
() () () 0 0)
116 'psb_err_from_subroutine_' 'psb_const_mod' '' 1 ((PARAMETER
UNKNOWN-INTENT UNKNOWN-PROC UNKNOWN IMPLICIT-SAVE 0 0) (INTEGER 4 0 0 0
INTEGER ()) 0 0 () (CONSTANT (INTEGER 4 0 0 0 INTEGER ()) 0 '4010') () 0
() () () 0 0)
117 'psb_err_from_subroutine_ai_' 'psb_const_mod' '' 1 ((PARAMETER
UNKNOWN-INTENT UNKNOWN-PROC UNKNOWN IMPLICIT-SAVE 0 0) (INTEGER 4 0 0 0
INTEGER ()) 0 0 () (CONSTANT (INTEGER 4 0 0 0 INTEGER ()) 0 '4013') () 0
() () () 0 0)
118 'psb_err_from_subroutine_i_' 'psb_const_mod' '' 1 ((PARAMETER
UNKNOWN-INTENT UNKNOWN-PROC UNKNOWN IMPLICIT-SAVE 0 0) (INTEGER 4 0 0 0
INTEGER ()) 0 0 () (CONSTANT (INTEGER 4 0 0 0 INTEGER ()) 0 '4012') () 0
() () () 0 0)
119 'psb_err_from_subroutine_non_' 'psb_const_mod' '' 1 ((PARAMETER
UNKNOWN-INTENT UNKNOWN-PROC UNKNOWN IMPLICIT-SAVE 0 0) (INTEGER 4 0 0 0
INTEGER ()) 0 0 () (CONSTANT (INTEGER 4 0 0 0 INTEGER ()) 0 '4011') () 0
() () () 0 0)
120 'psb_err_ia1_badindices_' 'psb_const_mod' '' 1 ((PARAMETER
UNKNOWN-INTENT UNKNOWN-PROC UNKNOWN IMPLICIT-SAVE 0 0) (INTEGER 4 0 0 0
INTEGER ()) 0 0 () (CONSTANT (INTEGER 4 0 0 0 INTEGER ()) 0 '100') () 0
() () () 0 0)
121 'psb_err_ia1_not_increasing_' 'psb_const_mod' '' 1 ((PARAMETER
UNKNOWN-INTENT UNKNOWN-PROC UNKNOWN IMPLICIT-SAVE 0 0) (INTEGER 4 0 0 0
INTEGER ()) 0 0 () (CONSTANT (INTEGER 4 0 0 0 INTEGER ()) 0 '91') () 0 ()
() () 0 0)
122 'psb_err_ia2_not_increasing_' 'psb_const_mod' '' 1 ((PARAMETER
UNKNOWN-INTENT UNKNOWN-PROC UNKNOWN IMPLICIT-SAVE 0 0) (INTEGER 4 0 0 0
INTEGER ()) 0 0 () (CONSTANT (INTEGER 4 0 0 0 INTEGER ()) 0 '90') () 0 ()
() () 0 0)
123 'psb_err_iarg2_neg_' 'psb_const_mod' '' 1 ((PARAMETER UNKNOWN-INTENT
UNKNOWN-PROC UNKNOWN IMPLICIT-SAVE 0 0) (INTEGER 4 0 0 0 INTEGER ()) 0 0
() (CONSTANT (INTEGER 4 0 0 0 INTEGER ()) 0 '80') () 0 () () () 0 0)
124 'psb_err_iarg_invalid_i_' 'psb_const_mod' '' 1 ((PARAMETER
UNKNOWN-INTENT UNKNOWN-PROC UNKNOWN IMPLICIT-SAVE 0 0) (INTEGER 4 0 0 0
INTEGER ()) 0 0 () (CONSTANT (INTEGER 4 0 0 0 INTEGER ()) 0 '40') () 0 ()
() () 0 0)
125 'psb_err_iarg_invalid_value_' 'psb_const_mod' '' 1 ((PARAMETER
UNKNOWN-INTENT UNKNOWN-PROC UNKNOWN IMPLICIT-SAVE 0 0) (INTEGER 4 0 0 0
INTEGER ()) 0 0 () (CONSTANT (INTEGER 4 0 0 0 INTEGER ()) 0 '70') () 0 ()
() () 0 0)
126 'psb_err_iarg_mbeeiarra_i_' 'psb_const_mod' '' 1 ((PARAMETER
UNKNOWN-INTENT UNKNOWN-PROC UNKNOWN IMPLICIT-SAVE 0 0) (INTEGER 4 0 0 0
INTEGER ()) 0 0 () (CONSTANT (INTEGER 4 0 0 0 INTEGER ()) 0 '300') () 0
() () () 0 0)
127 'psb_err_iarg_n_mbgtian_' 'psb_const_mod' '' 1 ((PARAMETER
UNKNOWN-INTENT UNKNOWN-PROC UNKNOWN IMPLICIT-SAVE 0 0) (INTEGER 4 0 0 0
INTEGER ()) 0 0 () (CONSTANT (INTEGER 4 0 0 0 INTEGER ()) 0 '120') () 0
() () () 0 0)
128 'psb_err_iarg_neg_' 'psb_const_mod' '' 1 ((PARAMETER UNKNOWN-INTENT
UNKNOWN-PROC UNKNOWN IMPLICIT-SAVE 0 0) (INTEGER 4 0 0 0 INTEGER ()) 0 0
() (CONSTANT (INTEGER 4 0 0 0 INTEGER ()) 0 '10') () 0 () () () 0 0)
129 'psb_err_iarg_not_gteia_ii_' 'psb_const_mod' '' 1 ((PARAMETER
UNKNOWN-INTENT UNKNOWN-PROC UNKNOWN IMPLICIT-SAVE 0 0) (INTEGER 4 0 0 0
INTEGER ()) 0 0 () (CONSTANT (INTEGER 4 0 0 0 INTEGER ()) 0 '60') () 0 ()
() () 0 0)
130 'psb_err_iarg_not_gtia_ii_' 'psb_const_mod' '' 1 ((PARAMETER
UNKNOWN-INTENT UNKNOWN-PROC UNKNOWN IMPLICIT-SAVE 0 0) (INTEGER 4 0 0 0
INTEGER ()) 0 0 () (CONSTANT (INTEGER 4 0 0 0 INTEGER ()) 0 '50') () 0 ()
() () 0 0)
131 'psb_err_iarg_pos_' 'psb_const_mod' '' 1 ((PARAMETER UNKNOWN-INTENT
UNKNOWN-PROC UNKNOWN IMPLICIT-SAVE 0 0) (INTEGER 4 0 0 0 INTEGER ()) 0 0
() (CONSTANT (INTEGER 4 0 0 0 INTEGER ()) 0 '20') () 0 () () () 0 0)
132 'psb_err_iarray_outside_bounds_' 'psb_const_mod' '' 1 ((PARAMETER
UNKNOWN-INTENT UNKNOWN-PROC UNKNOWN IMPLICIT-SAVE 0 0) (INTEGER 4 0 0 0
INTEGER ()) 0 0 () (CONSTANT (INTEGER 4 0 0 0 INTEGER ()) 0 '140') () 0
() () () 0 0)
133 'psb_err_iarray_outside_process_' 'psb_const_mod' '' 1 ((PARAMETER
UNKNOWN-INTENT UNKNOWN-PROC UNKNOWN IMPLICIT-SAVE 0 0) (INTEGER 4 0 0 0
INTEGER ()) 0 0 () (CONSTANT (INTEGER 4 0 0 0 INTEGER ()) 0 '150') () 0
() () () 0 0)
134 'psb_err_inconsistent_index_lists_' 'psb_const_mod' '' 1 ((
PARAMETER UNKNOWN-INTENT UNKNOWN-PROC UNKNOWN IMPLICIT-SAVE 0 0) (
INTEGER 4 0 0 0 INTEGER ()) 0 0 () (CONSTANT (INTEGER 4 0 0 0 INTEGER ())
0 '552') () 0 () () () 0 0)
135 'psb_err_initerror_neugh_procs_' 'psb_const_mod' '' 1 ((PARAMETER
UNKNOWN-INTENT UNKNOWN-PROC UNKNOWN IMPLICIT-SAVE 0 0) (INTEGER 4 0 0 0
INTEGER ()) 0 0 () (CONSTANT (INTEGER 4 0 0 0 INTEGER ()) 0 '2011') () 0
() () () 0 0)
136 'psb_err_input_asize_invalid_i_' 'psb_const_mod' '' 1 ((PARAMETER
UNKNOWN-INTENT UNKNOWN-PROC UNKNOWN IMPLICIT-SAVE 0 0) (INTEGER 4 0 0 0
INTEGER ()) 0 0 () (CONSTANT (INTEGER 4 0 0 0 INTEGER ()) 0 '35') () 0 ()
() () 0 0)
137 'psb_err_input_matrix_unassembled_' 'psb_const_mod' '' 1 ((
PARAMETER UNKNOWN-INTENT UNKNOWN-PROC UNKNOWN IMPLICIT-SAVE 0 0) (
INTEGER 4 0 0 0 INTEGER ()) 0 0 () (CONSTANT (INTEGER 4 0 0 0 INTEGER ())
0 '3110') () 0 () () () 0 0)
138 'psb_err_input_no_regen_' 'psb_const_mod' '' 1 ((PARAMETER
UNKNOWN-INTENT UNKNOWN-PROC UNKNOWN IMPLICIT-SAVE 0 0) (INTEGER 4 0 0 0
INTEGER ()) 0 0 () (CONSTANT (INTEGER 4 0 0 0 INTEGER ()) 0 '2232') () 0
() () () 0 0)
139 'psb_err_input_value_invalid_i_' 'psb_const_mod' '' 1 ((PARAMETER
UNKNOWN-INTENT UNKNOWN-PROC UNKNOWN IMPLICIT-SAVE 0 0) (INTEGER 4 0 0 0
INTEGER ()) 0 0 () (CONSTANT (INTEGER 4 0 0 0 INTEGER ()) 0 '30') () 0 ()
() () 0 0)
140 'psb_err_internal_error_' 'psb_const_mod' '' 1 ((PARAMETER
UNKNOWN-INTENT UNKNOWN-PROC UNKNOWN IMPLICIT-SAVE 0 0) (INTEGER 4 0 0 0
INTEGER ()) 0 0 () (CONSTANT (INTEGER 4 0 0 0 INTEGER ()) 0 '4001') () 0
() () () 0 0)
141 'psb_err_invalid_a_and_cd_state_' 'psb_const_mod' '' 1 ((PARAMETER
UNKNOWN-INTENT UNKNOWN-PROC UNKNOWN IMPLICIT-SAVE 0 0) (INTEGER 4 0 0 0
INTEGER ()) 0 0 () (CONSTANT (INTEGER 4 0 0 0 INTEGER ()) 0 '1123') () 0
() () () 0 0)
142 'psb_err_invalid_args_combination_' 'psb_const_mod' '' 1 ((
PARAMETER UNKNOWN-INTENT UNKNOWN-PROC UNKNOWN IMPLICIT-SAVE 0 0) (
INTEGER 4 0 0 0 INTEGER ()) 0 0 () (CONSTANT (INTEGER 4 0 0 0 INTEGER ())
0 '110') () 0 () () () 0 0)
143 'psb_err_invalid_cd_state_' 'psb_const_mod' '' 1 ((PARAMETER
UNKNOWN-INTENT UNKNOWN-PROC UNKNOWN IMPLICIT-SAVE 0 0) (INTEGER 4 0 0 0
INTEGER ()) 0 0 () (CONSTANT (INTEGER 4 0 0 0 INTEGER ()) 0 '1122') () 0
() () () 0 0)
144 'psb_err_invalid_input_' 'psb_const_mod' '' 1 ((PARAMETER
UNKNOWN-INTENT UNKNOWN-PROC UNKNOWN IMPLICIT-SAVE 0 0) (INTEGER 4 0 0 0
INTEGER ()) 0 0 () (CONSTANT (INTEGER 4 0 0 0 INTEGER ()) 0 '5') () 0 ()
() () 0 0)
145 'psb_err_invalid_input_format_' 'psb_const_mod' '' 1 ((PARAMETER
UNKNOWN-INTENT UNKNOWN-PROC UNKNOWN IMPLICIT-SAVE 0 0) (INTEGER 4 0 0 0
INTEGER ()) 0 0 () (CONSTANT (INTEGER 4 0 0 0 INTEGER ()) 0 '134') () 0
() () () 0 0)
146 'psb_err_invalid_istop_' 'psb_const_mod' '' 1 ((PARAMETER
UNKNOWN-INTENT UNKNOWN-PROC UNKNOWN IMPLICIT-SAVE 0 0) (INTEGER 4 0 0 0
INTEGER ()) 0 0 () (CONSTANT (INTEGER 4 0 0 0 INTEGER ()) 0 '5001') () 0
() () () 0 0)
147 'psb_err_invalid_matrix_input_state_' 'psb_const_mod' '' 1 ((
PARAMETER UNKNOWN-INTENT UNKNOWN-PROC UNKNOWN IMPLICIT-SAVE 0 0) (
INTEGER 4 0 0 0 INTEGER ()) 0 0 () (CONSTANT (INTEGER 4 0 0 0 INTEGER ())
0 '2231') () 0 () () () 0 0)
148 'psb_err_invalid_ovr_num_' 'psb_const_mod' '' 1 ((PARAMETER
UNKNOWN-INTENT UNKNOWN-PROC UNKNOWN IMPLICIT-SAVE 0 0) (INTEGER 4 0 0 0
INTEGER ()) 0 0 () (CONSTANT (INTEGER 4 0 0 0 INTEGER ()) 0 '3') () 0 ()
() () 0 0)
149 'psb_err_invalid_pid_arg_' 'psb_const_mod' '' 1 ((PARAMETER
UNKNOWN-INTENT UNKNOWN-PROC UNKNOWN IMPLICIT-SAVE 0 0) (INTEGER 4 0 0 0
INTEGER ()) 0 0 () (CONSTANT (INTEGER 4 0 0 0 INTEGER ()) 0 '115') () 0
() () () 0 0)
150 'psb_err_ix_n1_iy_n1_unsupported_' 'psb_const_mod' '' 1 ((PARAMETER
UNKNOWN-INTENT UNKNOWN-PROC UNKNOWN IMPLICIT-SAVE 0 0) (INTEGER 4 0 0 0
INTEGER ()) 0 0 () (CONSTANT (INTEGER 4 0 0 0 INTEGER ()) 0 '3040') () 0
() () () 0 0)
151 'psb_err_ja_nix_ia_niy_unsupported_' 'psb_const_mod' '' 1 ((
PARAMETER UNKNOWN-INTENT UNKNOWN-PROC UNKNOWN IMPLICIT-SAVE 0 0) (
INTEGER 4 0 0 0 INTEGER ()) 0 0 () (CONSTANT (INTEGER 4 0 0 0 INTEGER ())
0 '3030') () 0 () () () 0 0)
152 'psb_err_lld_case_not_implemented_' 'psb_const_mod' '' 1 ((
PARAMETER UNKNOWN-INTENT UNKNOWN-PROC UNKNOWN IMPLICIT-SAVE 0 0) (
INTEGER 4 0 0 0 INTEGER ()) 0 0 () (CONSTANT (INTEGER 4 0 0 0 INTEGER ())
0 '3010') () 0 () () () 0 0)
153 'psb_err_mpi_error_' 'psb_const_mod' '' 1 ((PARAMETER UNKNOWN-INTENT
UNKNOWN-PROC UNKNOWN IMPLICIT-SAVE 0 0) (INTEGER 4 0 0 0 INTEGER ()) 0 0
() (CONSTANT (INTEGER 4 0 0 0 INTEGER ()) 0 '400') () 0 () () () 0 0)
154 'psb_err_no_optional_arg_' 'psb_const_mod' '' 1 ((PARAMETER
UNKNOWN-INTENT UNKNOWN-PROC UNKNOWN IMPLICIT-SAVE 0 0) (INTEGER 4 0 0 0
INTEGER ()) 0 0 () (CONSTANT (INTEGER 4 0 0 0 INTEGER ()) 0 '581') () 0
() () () 0 0)
155 'psb_err_only_unit_diag_' 'psb_const_mod' '' 1 ((PARAMETER
UNKNOWN-INTENT UNKNOWN-PROC UNKNOWN IMPLICIT-SAVE 0 0) (INTEGER 4 0 0 0
INTEGER ()) 0 0 () (CONSTANT (INTEGER 4 0 0 0 INTEGER ()) 0 '3022') () 0
() () () 0 0)
156 'psb_err_parm_differs_among_procs_' 'psb_const_mod' '' 1 ((
PARAMETER UNKNOWN-INTENT UNKNOWN-PROC UNKNOWN IMPLICIT-SAVE 0 0) (
INTEGER 4 0 0 0 INTEGER ()) 0 0 () (CONSTANT (INTEGER 4 0 0 0 INTEGER ())
0 '550') () 0 () () () 0 0)
157 'psb_err_partfunc_toofewprocs_' 'psb_const_mod' '' 1 ((PARAMETER
UNKNOWN-INTENT UNKNOWN-PROC UNKNOWN IMPLICIT-SAVE 0 0) (INTEGER 4 0 0 0
INTEGER ()) 0 0 () (CONSTANT (INTEGER 4 0 0 0 INTEGER ()) 0 '575') () 0
() () () 0 0)
158 'psb_err_partfunc_toomuchprocs_' 'psb_const_mod' '' 1 ((PARAMETER
UNKNOWN-INTENT UNKNOWN-PROC UNKNOWN IMPLICIT-SAVE 0 0) (INTEGER 4 0 0 0
INTEGER ()) 0 0 () (CONSTANT (INTEGER 4 0 0 0 INTEGER ()) 0 '570') () 0
() () () 0 0)
159 'psb_err_partfunc_wrong_pid_' 'psb_const_mod' '' 1 ((PARAMETER
UNKNOWN-INTENT UNKNOWN-PROC UNKNOWN IMPLICIT-SAVE 0 0) (INTEGER 4 0 0 0
INTEGER ()) 0 0 () (CONSTANT (INTEGER 4 0 0 0 INTEGER ()) 0 '580') () 0
() () () 0 0)
160 'psb_err_pivot_too_small_' 'psb_const_mod' '' 1 ((PARAMETER
UNKNOWN-INTENT UNKNOWN-PROC UNKNOWN IMPLICIT-SAVE 0 0) (INTEGER 4 0 0 0
INTEGER ()) 0 0 () (CONSTANT (INTEGER 4 0 0 0 INTEGER ()) 0 '2') () 0 ()
() () 0 0)
161 'psb_err_spmat_invalid_state_' 'psb_const_mod' '' 1 ((PARAMETER
UNKNOWN-INTENT UNKNOWN-PROC UNKNOWN IMPLICIT-SAVE 0 0) (INTEGER 4 0 0 0
INTEGER ()) 0 0 () (CONSTANT (INTEGER 4 0 0 0 INTEGER ()) 0 '600') () 0
() () () 0 0)
162 'psb_err_transpose_c_unsupported_' 'psb_const_mod' '' 1 ((PARAMETER
UNKNOWN-INTENT UNKNOWN-PROC UNKNOWN IMPLICIT-SAVE 0 0) (INTEGER 4 0 0 0
INTEGER ()) 0 0 () (CONSTANT (INTEGER 4 0 0 0 INTEGER ()) 0 '3020') () 0
() () () 0 0)
163 'psb_err_transpose_not_n_unsupported_' 'psb_const_mod' '' 1 ((
PARAMETER UNKNOWN-INTENT UNKNOWN-PROC UNKNOWN IMPLICIT-SAVE 0 0) (
INTEGER 4 0 0 0 INTEGER ()) 0 0 () (CONSTANT (INTEGER 4 0 0 0 INTEGER ())
0 '3021') () 0 () () () 0 0)
164 'psb_err_transpose_unsupported_' 'psb_const_mod' '' 1 ((PARAMETER
UNKNOWN-INTENT UNKNOWN-PROC UNKNOWN IMPLICIT-SAVE 0 0) (INTEGER 4 0 0 0
INTEGER ()) 0 0 () (CONSTANT (INTEGER 4 0 0 0 INTEGER ()) 0 '3015') () 0
() () () 0 0)
165 'psb_err_unsupported_format_' 'psb_const_mod' '' 1 ((PARAMETER
UNKNOWN-INTENT UNKNOWN-PROC UNKNOWN IMPLICIT-SAVE 0 0) (INTEGER 4 0 0 0
INTEGER ()) 0 0 () (CONSTANT (INTEGER 4 0 0 0 INTEGER ()) 0 '135') () 0
() () () 0 0)
166 'psb_err_wrong_ins_' 'psb_const_mod' '' 1 ((PARAMETER UNKNOWN-INTENT
UNKNOWN-PROC UNKNOWN IMPLICIT-SAVE 0 0) (INTEGER 4 0 0 0 INTEGER ()) 0 0
() (CONSTANT (INTEGER 4 0 0 0 INTEGER ()) 0 '298') () 0 () () () 0 0)
24 'psb_exit' 'psi_penv_mod' '' 1 ((PROCEDURE UNKNOWN-INTENT MODULE-PROC
DECL UNKNOWN 0 0 SUBROUTINE GENERIC ALWAYS_EXPLICIT) (UNKNOWN 0 0 0 0
UNKNOWN ()) 167 0 (168 169) () 0 () () () 0 0)
170 'psb_fidasize_' 'psb_const_mod' '' 1 ((PARAMETER UNKNOWN-INTENT
UNKNOWN-PROC UNKNOWN IMPLICIT-SAVE 0 0) (INTEGER 4 0 0 0 INTEGER ()) 0 0
() (CONSTANT (INTEGER 4 0 0 0 INTEGER ()) 0 '16') () 0 () () () 0 0)
171 'psb_get_mpicomm' 'psi_penv_mod' '' 1 ((PROCEDURE UNKNOWN-INTENT
MODULE-PROC DECL UNKNOWN 0 0 SUBROUTINE) (UNKNOWN 0 0 0 0 UNKNOWN ())
172 0 (173 174) () 0 () () () 0 0)
175 'psb_get_rank' 'psi_penv_mod' '' 1 ((PROCEDURE UNKNOWN-INTENT
MODULE-PROC DECL UNKNOWN 0 0 SUBROUTINE) (UNKNOWN 0 0 0 0 UNKNOWN ())
176 0 (177 178 179) () 0 () () () 0 0)
7 'psb_hbcasts' 'psi_bcast_mod' '' 1 ((PROCEDURE UNKNOWN-INTENT
MODULE-PROC DECL UNKNOWN 0 0 SUBROUTINE ALWAYS_EXPLICIT) (UNKNOWN 0 0 0
0 UNKNOWN ()) 180 0 (181 182 183 184) () 0 () () () 0 0)
6 'psb_hbcastv' 'psi_bcast_mod' '' 1 ((PROCEDURE UNKNOWN-INTENT
MODULE-PROC DECL UNKNOWN 0 0 SUBROUTINE ALWAYS_EXPLICIT) (UNKNOWN 0 0 0
0 UNKNOWN ()) 185 0 (186 187 188) () 0 () () () 0 0)
20 'psb_ibcastm' 'psi_bcast_mod' '' 1 ((PROCEDURE UNKNOWN-INTENT
MODULE-PROC DECL UNKNOWN 0 0 SUBROUTINE ALWAYS_EXPLICIT) (UNKNOWN 0 0 0
0 UNKNOWN ()) 189 0 (190 191 192) () 0 () () () 0 0)
22 'psb_ibcasts' 'psi_bcast_mod' '' 1 ((PROCEDURE UNKNOWN-INTENT
MODULE-PROC DECL UNKNOWN 0 0 SUBROUTINE ALWAYS_EXPLICIT) (UNKNOWN 0 0 0
0 UNKNOWN ()) 193 0 (194 195 196) () 0 () () () 0 0)
21 'psb_ibcastv' 'psi_bcast_mod' '' 1 ((PROCEDURE UNKNOWN-INTENT
MODULE-PROC DECL UNKNOWN 0 0 SUBROUTINE ALWAYS_EXPLICIT) (UNKNOWN 0 0 0
0 UNKNOWN ()) 197 0 (198 199 200) () 0 () () () 0 0)
25 'psb_info' 'psi_penv_mod' '' 1 ((PROCEDURE UNKNOWN-INTENT MODULE-PROC
DECL UNKNOWN 0 0 SUBROUTINE GENERIC) (UNKNOWN 0 0 0 0 UNKNOWN ()) 201 0
(202 203 204) () 0 () () () 0 0)
26 'psb_init' 'psi_penv_mod' '' 1 ((PROCEDURE UNKNOWN-INTENT MODULE-PROC
DECL UNKNOWN 0 0 SUBROUTINE GENERIC ALWAYS_EXPLICIT) (UNKNOWN 0 0 0 0
UNKNOWN ()) 205 0 (206 207 208 209) () 0 () () () 0 0)
210 'psb_int_k_' 'psb_const_mod' '' 1 ((PARAMETER UNKNOWN-INTENT
UNKNOWN-PROC UNKNOWN IMPLICIT-SAVE 0 0) (INTEGER 4 0 0 0 INTEGER ()) 0 0
() (CONSTANT (INTEGER 4 0 0 0 INTEGER ()) 0 '4') () 0 () () () 0 0)
5 'psb_lbcasts' 'psi_bcast_mod' '' 1 ((PROCEDURE UNKNOWN-INTENT
MODULE-PROC DECL UNKNOWN 0 0 SUBROUTINE ALWAYS_EXPLICIT) (UNKNOWN 0 0 0
0 UNKNOWN ()) 211 0 (212 213 214) () 0 () () () 0 0)
4 'psb_lbcastv' 'psi_bcast_mod' '' 1 ((PROCEDURE UNKNOWN-INTENT
MODULE-PROC DECL UNKNOWN 0 0 SUBROUTINE ALWAYS_EXPLICIT) (UNKNOWN 0 0 0
0 UNKNOWN ()) 215 0 (216 217 218) () 0 () () () 0 0)
219 'psb_long_int_k_' 'psb_const_mod' '' 1 ((PARAMETER UNKNOWN-INTENT
UNKNOWN-PROC UNKNOWN IMPLICIT-SAVE 0 0) (INTEGER 4 0 0 0 INTEGER ()) 0 0
() (CONSTANT (INTEGER 4 0 0 0 INTEGER ()) 0 '8') () 0 () () () 0 0)
220 'psb_mesg_queue' 'psi_penv_mod' '' 1 ((VARIABLE UNKNOWN-INTENT
UNKNOWN-PROC UNKNOWN EXPLICIT-SAVE 0 0) (DERIVED 23 0 0 0 DERIVED ()) 0
0 () () 0 () () () 0 0)
221 'psb_mpi_integer' 'psb_const_mod' '' 1 ((VARIABLE UNKNOWN-INTENT
UNKNOWN-PROC UNKNOWN EXPLICIT-SAVE 0 0) (INTEGER 4 0 0 0 INTEGER ()) 0 0
() () 0 () () () 0 0)
222 'psb_patchlevel' 'psb_const_mod' '' 1 ((PARAMETER UNKNOWN-INTENT
UNKNOWN-PROC UNKNOWN IMPLICIT-SAVE 0 0) (INTEGER 4 0 0 0 INTEGER ()) 0 0
() (CONSTANT (INTEGER 4 0 0 0 INTEGER ()) 0 '0') () 0 () () () 0 0)
223 'psb_percent_' 'psb_const_mod' '' 1 ((PARAMETER UNKNOWN-INTENT
UNKNOWN-PROC UNKNOWN IMPLICIT-SAVE 0 0) (REAL 8 0 0 0 REAL ()) 0 0 () (
CONSTANT (REAL 8 0 0 0 REAL ()) 0 '0.b3333300000000@0') () 0 () () () 0
0)
224 'psb_restore_coher' 'psi_penv_mod' '' 1 ((PROCEDURE UNKNOWN-INTENT
MODULE-PROC DECL UNKNOWN 0 0 SUBROUTINE) (UNKNOWN 0 0 0 0 UNKNOWN ())
225 0 (226 227) () 0 () () () 0 0)
228 'psb_root_' 'psb_const_mod' '' 1 ((PARAMETER UNKNOWN-INTENT
UNKNOWN-PROC UNKNOWN IMPLICIT-SAVE 0 0) (INTEGER 4 0 0 0 INTEGER ()) 0 0
() (CONSTANT (INTEGER 4 0 0 0 INTEGER ()) 0 '0') () 0 () () () 0 0)
11 'psb_sbcastm' 'psi_bcast_mod' '' 1 ((PROCEDURE UNKNOWN-INTENT
MODULE-PROC DECL UNKNOWN 0 0 SUBROUTINE ALWAYS_EXPLICIT) (UNKNOWN 0 0 0
0 UNKNOWN ()) 229 0 (230 231 232) () 0 () () () 0 0)
13 'psb_sbcasts' 'psi_bcast_mod' '' 1 ((PROCEDURE UNKNOWN-INTENT
MODULE-PROC DECL UNKNOWN 0 0 SUBROUTINE ALWAYS_EXPLICIT) (UNKNOWN 0 0 0
0 UNKNOWN ()) 233 0 (234 235 236) () 0 () () () 0 0)
12 'psb_sbcastv' 'psi_bcast_mod' '' 1 ((PROCEDURE UNKNOWN-INTENT
MODULE-PROC DECL UNKNOWN 0 0 SUBROUTINE ALWAYS_EXPLICIT) (UNKNOWN 0 0 0
0 UNKNOWN ()) 237 0 (238 239 240) () 0 () () () 0 0)
241 'psb_set_coher' 'psi_penv_mod' '' 1 ((PROCEDURE UNKNOWN-INTENT
MODULE-PROC DECL UNKNOWN 0 0 SUBROUTINE) (UNKNOWN 0 0 0 0 UNKNOWN ())
242 0 (243 244) () 0 () () () 0 0)
245 'psb_sizeof_dp' 'psb_const_mod' '' 1 ((VARIABLE UNKNOWN-INTENT
UNKNOWN-PROC UNKNOWN EXPLICIT-SAVE 0 0) (INTEGER 4 0 0 0 INTEGER ()) 0 0
() () 0 () () () 0 0)
246 'psb_sizeof_int' 'psb_const_mod' '' 1 ((VARIABLE UNKNOWN-INTENT
UNKNOWN-PROC UNKNOWN EXPLICIT-SAVE 0 0) (INTEGER 4 0 0 0 INTEGER ()) 0 0
() () 0 () () () 0 0)
247 'psb_sizeof_long_int' 'psb_const_mod' '' 1 ((VARIABLE UNKNOWN-INTENT
UNKNOWN-PROC UNKNOWN EXPLICIT-SAVE 0 0) (INTEGER 4 0 0 0 INTEGER ()) 0 0
() () 0 () () () 0 0)
248 'psb_sizeof_sp' 'psb_const_mod' '' 1 ((VARIABLE UNKNOWN-INTENT
UNKNOWN-PROC UNKNOWN EXPLICIT-SAVE 0 0) (INTEGER 4 0 0 0 INTEGER ()) 0 0
() () 0 () () () 0 0)
249 'psb_spk_' 'psb_const_mod' '' 1 ((PARAMETER UNKNOWN-INTENT
UNKNOWN-PROC UNKNOWN IMPLICIT-SAVE 0 0) (INTEGER 4 0 0 0 INTEGER ()) 0 0
() (CONSTANT (INTEGER 4 0 0 0 INTEGER ()) 0 '4') () 0 () () () 0 0)
250 'psb_success_' 'psb_const_mod' '' 1 ((PARAMETER UNKNOWN-INTENT
UNKNOWN-PROC UNKNOWN IMPLICIT-SAVE 0 0) (INTEGER 4 0 0 0 INTEGER ()) 0 0
() (CONSTANT (INTEGER 4 0 0 0 INTEGER ()) 0 '0') () 0 () () () 0 0)
251 'psb_topdef_' 'psb_const_mod' '' 1 ((PARAMETER UNKNOWN-INTENT
UNKNOWN-PROC UNKNOWN IMPLICIT-SAVE 0 0) (CHARACTER 1 0 0 0 CHARACTER ((
CONSTANT (INTEGER 4 0 0 0 INTEGER ()) 0 '1'))) 0 0 () (CONSTANT (
CHARACTER 1 0 0 0 CHARACTER (())) 0 1 ' ') () 0 () () () 0 0)
252 'psb_version_major' 'psb_const_mod' '' 1 ((PARAMETER UNKNOWN-INTENT
UNKNOWN-PROC UNKNOWN IMPLICIT-SAVE 0 0) (INTEGER 4 0 0 0 INTEGER ()) 0 0
() (CONSTANT (INTEGER 4 0 0 0 INTEGER ()) 0 '2') () 0 () () () 0 0)
253 'psb_version_minor' 'psb_const_mod' '' 1 ((PARAMETER UNKNOWN-INTENT
UNKNOWN-PROC UNKNOWN IMPLICIT-SAVE 0 0) (INTEGER 4 0 0 0 INTEGER ()) 0 0
() (CONSTANT (INTEGER 4 0 0 0 INTEGER ()) 0 '4') () 0 () () () 0 0)
254 'psb_version_string' 'psb_const_mod' '' 1 ((PARAMETER UNKNOWN-INTENT
UNKNOWN-PROC UNKNOWN IMPLICIT-SAVE 0 0) (CHARACTER 1 0 0 0 CHARACTER ((
CONSTANT (INTEGER 4 0 0 0 INTEGER ()) 0 '5'))) 0 0 () (CONSTANT (
CHARACTER 1 0 0 0 CHARACTER (())) 0 5 '2.4.0') () 0 () () () 0 0)
27 'psb_wtime' 'psi_penv_mod' '' 1 ((PROCEDURE UNKNOWN-INTENT
MODULE-PROC DECL UNKNOWN 0 0 FUNCTION GENERIC) (REAL 8 0 0 0 REAL ()) 0
0 () () 27 () () () 0 0)
14 'psb_zbcastm' 'psi_bcast_mod' '' 1 ((PROCEDURE UNKNOWN-INTENT
MODULE-PROC DECL UNKNOWN 0 0 SUBROUTINE ALWAYS_EXPLICIT) (UNKNOWN 0 0 0
0 UNKNOWN ()) 255 0 (256 257 258) () 0 () () () 0 0)
16 'psb_zbcasts' 'psi_bcast_mod' '' 1 ((PROCEDURE UNKNOWN-INTENT
MODULE-PROC DECL UNKNOWN 0 0 SUBROUTINE ALWAYS_EXPLICIT) (UNKNOWN 0 0 0
0 UNKNOWN ()) 259 0 (260 261 262) () 0 () () () 0 0)
15 'psb_zbcastv' 'psi_bcast_mod' '' 1 ((PROCEDURE UNKNOWN-INTENT
MODULE-PROC DECL UNKNOWN 0 0 SUBROUTINE ALWAYS_EXPLICIT) (UNKNOWN 0 0 0
0 UNKNOWN ()) 263 0 (264 265 266) () 0 () () () 0 0)
267 'psi_bcast_mod' 'psi_bcast_mod' '' 1 ((MODULE UNKNOWN-INTENT
UNKNOWN-PROC UNKNOWN UNKNOWN 0 0) (UNKNOWN 0 0 0 0 UNKNOWN ()) 0 0 () ()
0 () () () 0 0)
268 'psi_comm_buffers_mod' 'psi_comm_buffers_mod' '' 1 ((MODULE
UNKNOWN-INTENT UNKNOWN-PROC UNKNOWN UNKNOWN 0 0) (UNKNOWN 0 0 0 0
UNKNOWN ()) 0 0 () () 0 () () () 0 0)
269 'psi_penv_mod' 'psi_penv_mod' '' 1 ((MODULE UNKNOWN-INTENT
UNKNOWN-PROC UNKNOWN UNKNOWN 0 0) (UNKNOWN 0 0 0 0 UNKNOWN ()) 0 0 () ()
0 () () () 0 0)
270 's_epstol' 'psb_const_mod' '' 1 ((PARAMETER UNKNOWN-INTENT
UNKNOWN-PROC UNKNOWN IMPLICIT-SAVE 0 0) (REAL 4 0 0 0 REAL ()) 0 0 () (
CONSTANT (REAL 4 0 0 0 REAL ()) 0 '0.d6bf950@-6') () 0 () () () 0 0)
271 'selected_int_kind' '(intrinsic)' '' 1 ((PROCEDURE UNKNOWN-INTENT
UNKNOWN-PROC UNKNOWN UNKNOWN 0 0 FUNCTION) (REAL 4 0 0 0 REAL ()) 0 0 ()
() 271 () () () 0 0)
272 'sone' 'psb_const_mod' '' 1 ((PARAMETER UNKNOWN-INTENT UNKNOWN-PROC
UNKNOWN IMPLICIT-SAVE 0 0) (REAL 4 0 0 0 REAL ()) 0 0 () (CONSTANT (
REAL 4 0 0 0 REAL ()) 0 '0.1000000@1') () 0 () () () 0 0)
273 'szero' 'psb_const_mod' '' 1 ((PARAMETER UNKNOWN-INTENT UNKNOWN-PROC
UNKNOWN IMPLICIT-SAVE 0 0) (REAL 4 0 0 0 REAL ()) 0 0 () (CONSTANT (
REAL 4 0 0 0 REAL ()) 0 '0.0000000@0') () 0 () () () 0 0)
274 'zone' 'psb_const_mod' '' 1 ((PARAMETER UNKNOWN-INTENT UNKNOWN-PROC
UNKNOWN IMPLICIT-SAVE 0 0) (COMPLEX 8 0 0 0 COMPLEX ()) 0 0 () (
CONSTANT (COMPLEX 8 0 0 0 COMPLEX ()) 0 '0.10000000000000@1'
'0.00000000000000@0') () 0 () () () 0 0)
275 'zzero' 'psb_const_mod' '' 1 ((PARAMETER UNKNOWN-INTENT UNKNOWN-PROC
UNKNOWN IMPLICIT-SAVE 0 0) (COMPLEX 8 0 0 0 COMPLEX ()) 0 0 () (
CONSTANT (COMPLEX 8 0 0 0 COMPLEX ()) 0 '0.00000000000000@0'
'0.00000000000000@0') () 0 () () () 0 0)
73 'ictxt' '' '' 72 ((VARIABLE IN UNKNOWN-PROC UNKNOWN UNKNOWN 0 0 DUMMY)
(INTEGER 4 0 0 0 INTEGER ()) 0 0 () () 0 () () () 0 0)
74 'errc' '' '' 72 ((VARIABLE IN UNKNOWN-PROC UNKNOWN UNKNOWN 0 0
OPTIONAL DUMMY) (INTEGER 4 0 0 0 INTEGER ()) 0 0 () () 0 () () () 0 0)
77 'ictxt' '' '' 76 ((VARIABLE IN UNKNOWN-PROC UNKNOWN UNKNOWN 0 0 DUMMY)
(INTEGER 4 0 0 0 INTEGER ()) 0 0 () () 0 () () () 0 0)
80 'ictxt' '' '' 79 ((VARIABLE IN UNKNOWN-PROC UNKNOWN UNKNOWN 0 0 DUMMY)
(INTEGER 4 0 0 0 INTEGER ()) 0 0 () () 0 () () () 0 0)
81 'dat' '' '' 79 ((VARIABLE INOUT UNKNOWN-PROC UNKNOWN UNKNOWN 0 0
DIMENSION DUMMY) (COMPLEX 4 0 0 0 COMPLEX ()) 0 0 () (2 0 ASSUMED_SHAPE
(CONSTANT (INTEGER 4 0 0 0 INTEGER ()) 0 '1') () (CONSTANT (INTEGER 4 0
0 0 INTEGER ()) 0 '1') ()) 0 () () () 0 0)
82 'root' '' '' 79 ((VARIABLE IN UNKNOWN-PROC UNKNOWN UNKNOWN 0 0
OPTIONAL DUMMY) (INTEGER 4 0 0 0 INTEGER ()) 0 0 () () 0 () () () 0 0)
84 'ictxt' '' '' 83 ((VARIABLE IN UNKNOWN-PROC UNKNOWN UNKNOWN 0 0 DUMMY)
(INTEGER 4 0 0 0 INTEGER ()) 0 0 () () 0 () () () 0 0)
85 'dat' '' '' 83 ((VARIABLE INOUT UNKNOWN-PROC UNKNOWN UNKNOWN 0 0
DUMMY) (COMPLEX 4 0 0 0 COMPLEX ()) 0 0 () () 0 () () () 0 0)
86 'root' '' '' 83 ((VARIABLE IN UNKNOWN-PROC UNKNOWN UNKNOWN 0 0
OPTIONAL DUMMY) (INTEGER 4 0 0 0 INTEGER ()) 0 0 () () 0 () () () 0 0)
88 'ictxt' '' '' 87 ((VARIABLE IN UNKNOWN-PROC UNKNOWN UNKNOWN 0 0 DUMMY)
(INTEGER 4 0 0 0 INTEGER ()) 0 0 () () 0 () () () 0 0)
89 'dat' '' '' 87 ((VARIABLE INOUT UNKNOWN-PROC UNKNOWN UNKNOWN 0 0
DIMENSION DUMMY) (COMPLEX 4 0 0 0 COMPLEX ()) 0 0 () (1 0 ASSUMED_SHAPE
(CONSTANT (INTEGER 4 0 0 0 INTEGER ()) 0 '1') ()) 0 () () () 0 0)
90 'root' '' '' 87 ((VARIABLE IN UNKNOWN-PROC UNKNOWN UNKNOWN 0 0
OPTIONAL DUMMY) (INTEGER 4 0 0 0 INTEGER ()) 0 0 () () 0 () () () 0 0)
93 'ictxt' '' '' 92 ((VARIABLE IN UNKNOWN-PROC UNKNOWN UNKNOWN 0 0 DUMMY)
(INTEGER 4 0 0 0 INTEGER ()) 0 0 () () 0 () () () 0 0)
94 'dat' '' '' 92 ((VARIABLE INOUT UNKNOWN-PROC UNKNOWN UNKNOWN 0 0
DIMENSION DUMMY) (REAL 8 0 0 0 REAL ()) 0 0 () (2 0 ASSUMED_SHAPE (
CONSTANT (INTEGER 4 0 0 0 INTEGER ()) 0 '1') () (CONSTANT (INTEGER 4 0 0
0 INTEGER ()) 0 '1') ()) 0 () () () 0 0)
95 'root' '' '' 92 ((VARIABLE IN UNKNOWN-PROC UNKNOWN UNKNOWN 0 0
OPTIONAL DUMMY) (INTEGER 4 0 0 0 INTEGER ()) 0 0 () () 0 () () () 0 0)
97 'ictxt' '' '' 96 ((VARIABLE IN UNKNOWN-PROC UNKNOWN UNKNOWN 0 0 DUMMY)
(INTEGER 4 0 0 0 INTEGER ()) 0 0 () () 0 () () () 0 0)
98 'dat' '' '' 96 ((VARIABLE INOUT UNKNOWN-PROC UNKNOWN UNKNOWN 0 0
DUMMY) (REAL 8 0 0 0 REAL ()) 0 0 () () 0 () () () 0 0)
99 'root' '' '' 96 ((VARIABLE IN UNKNOWN-PROC UNKNOWN UNKNOWN 0 0
OPTIONAL DUMMY) (INTEGER 4 0 0 0 INTEGER ()) 0 0 () () 0 () () () 0 0)
101 'ictxt' '' '' 100 ((VARIABLE IN UNKNOWN-PROC UNKNOWN UNKNOWN 0 0
DUMMY) (INTEGER 4 0 0 0 INTEGER ()) 0 0 () () 0 () () () 0 0)
102 'dat' '' '' 100 ((VARIABLE INOUT UNKNOWN-PROC UNKNOWN UNKNOWN 0 0
DIMENSION DUMMY) (REAL 8 0 0 0 REAL ()) 0 0 () (1 0 ASSUMED_SHAPE (
CONSTANT (INTEGER 4 0 0 0 INTEGER ()) 0 '1') ()) 0 () () () 0 0)
103 'root' '' '' 100 ((VARIABLE IN UNKNOWN-PROC UNKNOWN UNKNOWN 0 0
OPTIONAL DUMMY) (INTEGER 4 0 0 0 INTEGER ()) 0 0 () () 0 () () () 0 0)
168 'ictxt' '' '' 167 ((VARIABLE INOUT UNKNOWN-PROC UNKNOWN UNKNOWN 0 0
DUMMY) (INTEGER 4 0 0 0 INTEGER ()) 0 0 () () 0 () () () 0 0)
169 'close' '' '' 167 ((VARIABLE IN UNKNOWN-PROC UNKNOWN UNKNOWN 0 0
OPTIONAL DUMMY) (LOGICAL 4 0 0 0 LOGICAL ()) 0 0 () () 0 () () () 0 0)
173 'ictxt' '' '' 172 ((VARIABLE UNKNOWN-INTENT UNKNOWN-PROC UNKNOWN
UNKNOWN 0 0 DUMMY) (INTEGER 4 0 0 0 INTEGER ()) 0 0 () () 0 () () () 0 0)
174 'comm' '' '' 172 ((VARIABLE UNKNOWN-INTENT UNKNOWN-PROC UNKNOWN
UNKNOWN 0 0 DUMMY) (INTEGER 4 0 0 0 INTEGER ()) 0 0 () () 0 () () () 0 0)
177 'rank' '' '' 176 ((VARIABLE UNKNOWN-INTENT UNKNOWN-PROC UNKNOWN
UNKNOWN 0 0 DUMMY) (INTEGER 4 0 0 0 INTEGER ()) 0 0 () () 0 () () () 0 0)
178 'ictxt' '' '' 176 ((VARIABLE UNKNOWN-INTENT UNKNOWN-PROC UNKNOWN
UNKNOWN 0 0 DUMMY) (INTEGER 4 0 0 0 INTEGER ()) 0 0 () () 0 () () () 0 0)
179 'id' '' '' 176 ((VARIABLE UNKNOWN-INTENT UNKNOWN-PROC UNKNOWN
UNKNOWN 0 0 DUMMY) (INTEGER 4 0 0 0 INTEGER ()) 0 0 () () 0 () () () 0 0)
181 'ictxt' '' '' 180 ((VARIABLE IN UNKNOWN-PROC UNKNOWN UNKNOWN 0 0
DUMMY) (INTEGER 4 0 0 0 INTEGER ()) 0 0 () () 0 () () () 0 0)
182 'dat' '' '' 180 ((VARIABLE INOUT UNKNOWN-PROC UNKNOWN UNKNOWN 0 0
DUMMY) (CHARACTER 1 0 0 0 CHARACTER (())) 0 0 () () 0 () () () 0 0)
183 'root' '' '' 180 ((VARIABLE IN UNKNOWN-PROC UNKNOWN UNKNOWN 0 0
OPTIONAL DUMMY) (INTEGER 4 0 0 0 INTEGER ()) 0 0 () () 0 () () () 0 0)
184 'length' '' '' 180 ((VARIABLE IN UNKNOWN-PROC UNKNOWN UNKNOWN 0 0
OPTIONAL DUMMY) (INTEGER 4 0 0 0 INTEGER ()) 0 0 () () 0 () () () 0 0)
186 'ictxt' '' '' 185 ((VARIABLE IN UNKNOWN-PROC UNKNOWN UNKNOWN 0 0
DUMMY) (INTEGER 4 0 0 0 INTEGER ()) 0 0 () () 0 () () () 0 0)
187 'dat' '' '' 185 ((VARIABLE INOUT UNKNOWN-PROC UNKNOWN UNKNOWN 0 0
DIMENSION DUMMY) (CHARACTER 1 0 0 0 CHARACTER (())) 0 0 () (1 0
ASSUMED_SHAPE (CONSTANT (INTEGER 4 0 0 0 INTEGER ()) 0 '1') ()) 0 () ()
() 0 0)
188 'root' '' '' 185 ((VARIABLE IN UNKNOWN-PROC UNKNOWN UNKNOWN 0 0
OPTIONAL DUMMY) (INTEGER 4 0 0 0 INTEGER ()) 0 0 () () 0 () () () 0 0)
190 'ictxt' '' '' 189 ((VARIABLE IN UNKNOWN-PROC UNKNOWN UNKNOWN 0 0
DUMMY) (INTEGER 4 0 0 0 INTEGER ()) 0 0 () () 0 () () () 0 0)
191 'dat' '' '' 189 ((VARIABLE INOUT UNKNOWN-PROC UNKNOWN UNKNOWN 0 0
DIMENSION DUMMY) (INTEGER 4 0 0 0 INTEGER ()) 0 0 () (2 0 ASSUMED_SHAPE
(CONSTANT (INTEGER 4 0 0 0 INTEGER ()) 0 '1') () (CONSTANT (INTEGER 4 0
0 0 INTEGER ()) 0 '1') ()) 0 () () () 0 0)
192 'root' '' '' 189 ((VARIABLE IN UNKNOWN-PROC UNKNOWN UNKNOWN 0 0
OPTIONAL DUMMY) (INTEGER 4 0 0 0 INTEGER ()) 0 0 () () 0 () () () 0 0)
194 'ictxt' '' '' 193 ((VARIABLE IN UNKNOWN-PROC UNKNOWN UNKNOWN 0 0
DUMMY) (INTEGER 4 0 0 0 INTEGER ()) 0 0 () () 0 () () () 0 0)
195 'dat' '' '' 193 ((VARIABLE INOUT UNKNOWN-PROC UNKNOWN UNKNOWN 0 0
DUMMY) (INTEGER 4 0 0 0 INTEGER ()) 0 0 () () 0 () () () 0 0)
196 'root' '' '' 193 ((VARIABLE IN UNKNOWN-PROC UNKNOWN UNKNOWN 0 0
OPTIONAL DUMMY) (INTEGER 4 0 0 0 INTEGER ()) 0 0 () () 0 () () () 0 0)
198 'ictxt' '' '' 197 ((VARIABLE IN UNKNOWN-PROC UNKNOWN UNKNOWN 0 0
DUMMY) (INTEGER 4 0 0 0 INTEGER ()) 0 0 () () 0 () () () 0 0)
199 'dat' '' '' 197 ((VARIABLE INOUT UNKNOWN-PROC UNKNOWN UNKNOWN 0 0
DIMENSION DUMMY) (INTEGER 4 0 0 0 INTEGER ()) 0 0 () (1 0 ASSUMED_SHAPE
(CONSTANT (INTEGER 4 0 0 0 INTEGER ()) 0 '1') ()) 0 () () () 0 0)
200 'root' '' '' 197 ((VARIABLE IN UNKNOWN-PROC UNKNOWN UNKNOWN 0 0
OPTIONAL DUMMY) (INTEGER 4 0 0 0 INTEGER ()) 0 0 () () 0 () () () 0 0)
202 'ictxt' '' '' 201 ((VARIABLE IN UNKNOWN-PROC UNKNOWN UNKNOWN 0 0
DUMMY) (INTEGER 4 0 0 0 INTEGER ()) 0 0 () () 0 () () () 0 0)
203 'iam' '' '' 201 ((VARIABLE OUT UNKNOWN-PROC UNKNOWN UNKNOWN 0 0
DUMMY) (INTEGER 4 0 0 0 INTEGER ()) 0 0 () () 0 () () () 0 0)
204 'np' '' '' 201 ((VARIABLE OUT UNKNOWN-PROC UNKNOWN UNKNOWN 0 0 DUMMY)
(INTEGER 4 0 0 0 INTEGER ()) 0 0 () () 0 () () () 0 0)
206 'ictxt' '' '' 205 ((VARIABLE OUT UNKNOWN-PROC UNKNOWN UNKNOWN 0 0
DUMMY) (INTEGER 4 0 0 0 INTEGER ()) 0 0 () () 0 () () () 0 0)
207 'np' '' '' 205 ((VARIABLE IN UNKNOWN-PROC UNKNOWN UNKNOWN 0 0
OPTIONAL DUMMY) (INTEGER 4 0 0 0 INTEGER ()) 0 0 () () 0 () () () 0 0)
208 'basectxt' '' '' 205 ((VARIABLE IN UNKNOWN-PROC UNKNOWN UNKNOWN 0 0
OPTIONAL DUMMY) (INTEGER 4 0 0 0 INTEGER ()) 0 0 () () 0 () () () 0 0)
209 'ids' '' '' 205 ((VARIABLE IN UNKNOWN-PROC UNKNOWN UNKNOWN 0 0
DIMENSION OPTIONAL DUMMY) (INTEGER 4 0 0 0 INTEGER ()) 0 0 () (1 0
ASSUMED_SHAPE (CONSTANT (INTEGER 4 0 0 0 INTEGER ()) 0 '1') ()) 0 () ()
() 0 0)
212 'ictxt' '' '' 211 ((VARIABLE IN UNKNOWN-PROC UNKNOWN UNKNOWN 0 0
DUMMY) (INTEGER 4 0 0 0 INTEGER ()) 0 0 () () 0 () () () 0 0)
213 'dat' '' '' 211 ((VARIABLE INOUT UNKNOWN-PROC UNKNOWN UNKNOWN 0 0
DUMMY) (LOGICAL 4 0 0 0 LOGICAL ()) 0 0 () () 0 () () () 0 0)
214 'root' '' '' 211 ((VARIABLE IN UNKNOWN-PROC UNKNOWN UNKNOWN 0 0
OPTIONAL DUMMY) (INTEGER 4 0 0 0 INTEGER ()) 0 0 () () 0 () () () 0 0)
216 'ictxt' '' '' 215 ((VARIABLE IN UNKNOWN-PROC UNKNOWN UNKNOWN 0 0
DUMMY) (INTEGER 4 0 0 0 INTEGER ()) 0 0 () () 0 () () () 0 0)
217 'dat' '' '' 215 ((VARIABLE INOUT UNKNOWN-PROC UNKNOWN UNKNOWN 0 0
DIMENSION DUMMY) (LOGICAL 4 0 0 0 LOGICAL ()) 0 0 () (1 0 ASSUMED_SHAPE
(CONSTANT (INTEGER 4 0 0 0 INTEGER ()) 0 '1') ()) 0 () () () 0 0)
218 'root' '' '' 215 ((VARIABLE IN UNKNOWN-PROC UNKNOWN UNKNOWN 0 0
OPTIONAL DUMMY) (INTEGER 4 0 0 0 INTEGER ()) 0 0 () () 0 () () () 0 0)
226 'ictxt' '' '' 225 ((VARIABLE UNKNOWN-INTENT UNKNOWN-PROC UNKNOWN
UNKNOWN 0 0 DUMMY) (INTEGER 4 0 0 0 INTEGER ()) 0 0 () () 0 () () () 0 0)
227 'isvch' '' '' 225 ((VARIABLE UNKNOWN-INTENT UNKNOWN-PROC UNKNOWN
UNKNOWN 0 0 DUMMY) (INTEGER 4 0 0 0 INTEGER ()) 0 0 () () 0 () () () 0 0)
230 'ictxt' '' '' 229 ((VARIABLE IN UNKNOWN-PROC UNKNOWN UNKNOWN 0 0
DUMMY) (INTEGER 4 0 0 0 INTEGER ()) 0 0 () () 0 () () () 0 0)
231 'dat' '' '' 229 ((VARIABLE INOUT UNKNOWN-PROC UNKNOWN UNKNOWN 0 0
DIMENSION DUMMY) (REAL 4 0 0 0 REAL ()) 0 0 () (2 0 ASSUMED_SHAPE (
CONSTANT (INTEGER 4 0 0 0 INTEGER ()) 0 '1') () (CONSTANT (INTEGER 4 0 0
0 INTEGER ()) 0 '1') ()) 0 () () () 0 0)
232 'root' '' '' 229 ((VARIABLE IN UNKNOWN-PROC UNKNOWN UNKNOWN 0 0
OPTIONAL DUMMY) (INTEGER 4 0 0 0 INTEGER ()) 0 0 () () 0 () () () 0 0)
234 'ictxt' '' '' 233 ((VARIABLE IN UNKNOWN-PROC UNKNOWN UNKNOWN 0 0
DUMMY) (INTEGER 4 0 0 0 INTEGER ()) 0 0 () () 0 () () () 0 0)
235 'dat' '' '' 233 ((VARIABLE INOUT UNKNOWN-PROC UNKNOWN UNKNOWN 0 0
DUMMY) (REAL 4 0 0 0 REAL ()) 0 0 () () 0 () () () 0 0)
236 'root' '' '' 233 ((VARIABLE IN UNKNOWN-PROC UNKNOWN UNKNOWN 0 0
OPTIONAL DUMMY) (INTEGER 4 0 0 0 INTEGER ()) 0 0 () () 0 () () () 0 0)
238 'ictxt' '' '' 237 ((VARIABLE IN UNKNOWN-PROC UNKNOWN UNKNOWN 0 0
DUMMY) (INTEGER 4 0 0 0 INTEGER ()) 0 0 () () 0 () () () 0 0)
239 'dat' '' '' 237 ((VARIABLE INOUT UNKNOWN-PROC UNKNOWN UNKNOWN 0 0
DIMENSION DUMMY) (REAL 4 0 0 0 REAL ()) 0 0 () (1 0 ASSUMED_SHAPE (
CONSTANT (INTEGER 4 0 0 0 INTEGER ()) 0 '1') ()) 0 () () () 0 0)
240 'root' '' '' 237 ((VARIABLE IN UNKNOWN-PROC UNKNOWN UNKNOWN 0 0
OPTIONAL DUMMY) (INTEGER 4 0 0 0 INTEGER ()) 0 0 () () 0 () () () 0 0)
243 'ictxt' '' '' 242 ((VARIABLE UNKNOWN-INTENT UNKNOWN-PROC UNKNOWN
UNKNOWN 0 0 DUMMY) (INTEGER 4 0 0 0 INTEGER ()) 0 0 () () 0 () () () 0 0)
244 'isvch' '' '' 242 ((VARIABLE UNKNOWN-INTENT UNKNOWN-PROC UNKNOWN
UNKNOWN 0 0 DUMMY) (INTEGER 4 0 0 0 INTEGER ()) 0 0 () () 0 () () () 0 0)
256 'ictxt' '' '' 255 ((VARIABLE IN UNKNOWN-PROC UNKNOWN UNKNOWN 0 0
DUMMY) (INTEGER 4 0 0 0 INTEGER ()) 0 0 () () 0 () () () 0 0)
257 'dat' '' '' 255 ((VARIABLE INOUT UNKNOWN-PROC UNKNOWN UNKNOWN 0 0
DIMENSION DUMMY) (COMPLEX 8 0 0 0 COMPLEX ()) 0 0 () (2 0 ASSUMED_SHAPE
(CONSTANT (INTEGER 4 0 0 0 INTEGER ()) 0 '1') () (CONSTANT (INTEGER 4 0
0 0 INTEGER ()) 0 '1') ()) 0 () () () 0 0)
258 'root' '' '' 255 ((VARIABLE IN UNKNOWN-PROC UNKNOWN UNKNOWN 0 0
OPTIONAL DUMMY) (INTEGER 4 0 0 0 INTEGER ()) 0 0 () () 0 () () () 0 0)
260 'ictxt' '' '' 259 ((VARIABLE IN UNKNOWN-PROC UNKNOWN UNKNOWN 0 0
DUMMY) (INTEGER 4 0 0 0 INTEGER ()) 0 0 () () 0 () () () 0 0)
261 'dat' '' '' 259 ((VARIABLE INOUT UNKNOWN-PROC UNKNOWN UNKNOWN 0 0
DUMMY) (COMPLEX 8 0 0 0 COMPLEX ()) 0 0 () () 0 () () () 0 0)
262 'root' '' '' 259 ((VARIABLE IN UNKNOWN-PROC UNKNOWN UNKNOWN 0 0
OPTIONAL DUMMY) (INTEGER 4 0 0 0 INTEGER ()) 0 0 () () 0 () () () 0 0)
264 'ictxt' '' '' 263 ((VARIABLE IN UNKNOWN-PROC UNKNOWN UNKNOWN 0 0
DUMMY) (INTEGER 4 0 0 0 INTEGER ()) 0 0 () () 0 () () () 0 0)
265 'dat' '' '' 263 ((VARIABLE INOUT UNKNOWN-PROC UNKNOWN UNKNOWN 0 0
DIMENSION DUMMY) (COMPLEX 8 0 0 0 COMPLEX ()) 0 0 () (1 0 ASSUMED_SHAPE
(CONSTANT (INTEGER 4 0 0 0 INTEGER ()) 0 '1') ()) 0 () () () 0 0)
266 'root' '' '' 263 ((VARIABLE IN UNKNOWN-PROC UNKNOWN UNKNOWN 0 0
OPTIONAL DUMMY) (INTEGER 4 0 0 0 INTEGER ()) 0 0 () () 0 () () () 0 0)
)

('Psb_buffer_queue' 0 23 '__convert_r4_r8' 0 44 'cone' 0 45 'czero' 0 46
'd_epstol' 0 47 'done' 0 48 'dzero' 0 49 'ione' 0 50 'ithree' 0 51 'itwo'
0 52 'izero' 0 53 'kind' 0 54 'longndig' 0 55 'mone' 0 56 'mpi_camn_op'
0 57 'mpi_camx_op' 0 58 'mpi_damn_op' 0 59 'mpi_damx_op' 0 60
'mpi_dnrm2_op' 0 61 'mpi_i8amn_op' 0 62 'mpi_i8amx_op' 0 63 'mpi_iamn_op'
0 64 'mpi_iamx_op' 0 65 'mpi_samn_op' 0 66 'mpi_samx_op' 0 67
'mpi_snrm2_op' 0 68 'mpi_zamn_op' 0 69 'mpi_zamx_op' 0 70 'ndig' 0 71
'psb_abort' 0 2 'psb_all_' 0 75 'psb_barrier' 0 3 'psb_buffer_queue' 0
78 'psb_cbcastm' 0 8 'psb_cbcasts' 0 10 'psb_cbcastv' 0 9 'psb_const_mod'
0 91 'psb_dbcastm' 0 17 'psb_dbcasts' 0 19 'psb_dbcastv' 0 18 'psb_dpk_'
0 104 'psb_err_alloc_dealloc_' 0 105 'psb_err_alloc_request_' 0 106
'psb_err_arg_m_required_' 0 107 'psb_err_asb_nrc_error_' 0 108
'psb_err_context_error_' 0 109 'psb_err_dupl_cd_vl' 0 110
'psb_err_duplicate_coo' 0 111 'psb_err_entry_out_of_bounds_' 0 112
'psb_err_forgot_geall_' 0 113 'psb_err_forgot_spall_' 0 114
'psb_err_format_unknown_' 0 115 'psb_err_from_subroutine_' 0 116
'psb_err_from_subroutine_ai_' 0 117 'psb_err_from_subroutine_i_' 0 118
'psb_err_from_subroutine_non_' 0 119 'psb_err_ia1_badindices_' 0 120
'psb_err_ia1_not_increasing_' 0 121 'psb_err_ia2_not_increasing_' 0 122
'psb_err_iarg2_neg_' 0 123 'psb_err_iarg_invalid_i_' 0 124
'psb_err_iarg_invalid_value_' 0 125 'psb_err_iarg_mbeeiarra_i_' 0 126
'psb_err_iarg_n_mbgtian_' 0 127 'psb_err_iarg_neg_' 0 128
'psb_err_iarg_not_gteia_ii_' 0 129 'psb_err_iarg_not_gtia_ii_' 0 130
'psb_err_iarg_pos_' 0 131 'psb_err_iarray_outside_bounds_' 0 132
'psb_err_iarray_outside_process_' 0 133
'psb_err_inconsistent_index_lists_' 0 134 'psb_err_initerror_neugh_procs_'
0 135 'psb_err_input_asize_invalid_i_' 0 136
'psb_err_input_matrix_unassembled_' 0 137 'psb_err_input_no_regen_' 0
138 'psb_err_input_value_invalid_i_' 0 139 'psb_err_internal_error_' 0
140 'psb_err_invalid_a_and_cd_state_' 0 141
'psb_err_invalid_args_combination_' 0 142 'psb_err_invalid_cd_state_' 0
143 'psb_err_invalid_input_' 0 144 'psb_err_invalid_input_format_' 0 145
'psb_err_invalid_istop_' 0 146 'psb_err_invalid_matrix_input_state_' 0
147 'psb_err_invalid_ovr_num_' 0 148 'psb_err_invalid_pid_arg_' 0 149
'psb_err_ix_n1_iy_n1_unsupported_' 0 150
'psb_err_ja_nix_ia_niy_unsupported_' 0 151
'psb_err_lld_case_not_implemented_' 0 152 'psb_err_mpi_error_' 0 153
'psb_err_no_optional_arg_' 0 154 'psb_err_only_unit_diag_' 0 155
'psb_err_parm_differs_among_procs_' 0 156 'psb_err_partfunc_toofewprocs_'
0 157 'psb_err_partfunc_toomuchprocs_' 0 158 'psb_err_partfunc_wrong_pid_'
0 159 'psb_err_pivot_too_small_' 0 160 'psb_err_spmat_invalid_state_' 0
161 'psb_err_transpose_c_unsupported_' 0 162
'psb_err_transpose_not_n_unsupported_' 0 163
'psb_err_transpose_unsupported_' 0 164 'psb_err_unsupported_format_' 0
165 'psb_err_wrong_ins_' 0 166 'psb_exit' 0 24 'psb_fidasize_' 0 170
'psb_get_mpicomm' 0 171 'psb_get_rank' 0 175 'psb_hbcasts' 0 7
'psb_hbcastv' 0 6 'psb_ibcastm' 0 20 'psb_ibcasts' 0 22 'psb_ibcastv' 0
21 'psb_info' 0 25 'psb_init' 0 26 'psb_int_k_' 0 210 'psb_lbcasts' 0 5
'psb_lbcastv' 0 4 'psb_long_int_k_' 0 219 'psb_mesg_queue' 0 220
'psb_mpi_integer' 0 221 'psb_patchlevel' 0 222 'psb_percent_' 0 223
'psb_restore_coher' 0 224 'psb_root_' 0 228 'psb_sbcastm' 0 11
'psb_sbcasts' 0 13 'psb_sbcastv' 0 12 'psb_set_coher' 0 241
'psb_sizeof_dp' 0 245 'psb_sizeof_int' 0 246 'psb_sizeof_long_int' 0 247
'psb_sizeof_sp' 0 248 'psb_spk_' 0 249 'psb_success_' 0 250 'psb_topdef_'
0 251 'psb_version_major' 0 252 'psb_version_minor' 0 253
'psb_version_string' 0 254 'psb_wtime' 0 27 'psb_zbcastm' 0 14
'psb_zbcasts' 0 16 'psb_zbcastv' 0 15 'psi_bcast_mod' 0 267
'psi_comm_buffers_mod' 0 268 'psi_penv_mod' 0 269 's_epstol' 0 270
'selected_int_kind' 0 271 'sone' 0 272 'szero' 0 273 'zone' 0 274 'zzero'
0 275)
