GFORTRAN module version '9' created from psb_string_mod.f90
MD5:2e68ad5acb8d5070572b07de14863d42 -- If you edit this, you'll get what you deserve.

(() () () () () () () () () () () () () () () () () () () () () () () ()
() () ())

()

(('psb_get_fmt' 'psb_string_mod' 2) ('psb_get_fmt_extra' 'psb_string_mod'
3) ('psb_toupper' 'psb_string_mod' 4) ('psb_tolower' 'psb_string_mod' 5)
('psb_touppers' 'psb_string_mod' 6))

()

()

()

(2 'psb_get_fmtc' 'psb_string_mod' '' 1 ((PROCEDURE UNKNOWN-INTENT
MODULE-PROC DECL UNKNOWN 0 0 FUNCTION) (CHARACTER 1 0 0 0 CHARACTER ((
CONSTANT (INTEGER 4 0 0 0 INTEGER ()) 0 '3'))) 7 0 (8) () 2 () () () 0 0)
3 'psb_get_fmt_extra_c' 'psb_string_mod' '' 1 ((PROCEDURE UNKNOWN-INTENT
MODULE-PROC DECL UNKNOWN 0 0 FUNCTION) (CHARACTER 1 0 0 0 CHARACTER ((
FUNCTION (INTEGER 4 0 0 0 INTEGER ()) 0 9 (('' (VARIABLE (CHARACTER 1 0
0 0 CHARACTER (())) 0 10 ())) ('' ())) '__len_1_i4' 0 'len'))) 11 0 (10)
() 3 () () () 0 0)
5 'psb_tolowerc' 'psb_string_mod' '' 1 ((PROCEDURE UNKNOWN-INTENT
MODULE-PROC DECL UNKNOWN 0 0 FUNCTION) (CHARACTER 1 0 0 0 CHARACTER ((
FUNCTION (INTEGER 4 0 0 0 INTEGER ()) 0 12 (('' (VARIABLE (CHARACTER 1 0
0 0 CHARACTER (())) 0 13 ())) ('' ())) '__len_1_i4' 0 'len'))) 14 0 (13)
() 5 () () () 0 0)
4 'psb_toupperc' 'psb_string_mod' '' 1 ((PROCEDURE UNKNOWN-INTENT
MODULE-PROC DECL UNKNOWN 0 0 FUNCTION) (CHARACTER 1 0 0 0 CHARACTER ((
FUNCTION (INTEGER 4 0 0 0 INTEGER ()) 0 15 (('' (VARIABLE (CHARACTER 1 0
0 0 CHARACTER (())) 0 16 ())) ('' ())) '__len_1_i4' 0 'len'))) 17 0 (16)
() 4 () () () 0 0)
6 'psb_sub_toupperc' 'psb_string_mod' '' 1 ((PROCEDURE UNKNOWN-INTENT
MODULE-PROC DECL UNKNOWN 0 0 SUBROUTINE) (UNKNOWN 0 0 0 0 UNKNOWN ()) 18
0 (19 20) () 0 () () () 0 0)
8 'string' '' '' 7 ((VARIABLE IN UNKNOWN-PROC UNKNOWN UNKNOWN 0 0 DUMMY)
(CHARACTER 1 0 0 0 CHARACTER (())) 0 0 () () 0 () () () 0 0)
10 'string' '' '' 11 ((VARIABLE IN UNKNOWN-PROC UNKNOWN UNKNOWN 0 0
DUMMY) (CHARACTER 1 0 0 0 CHARACTER (())) 0 0 () () 0 () () () 0 0)
9 'len' '(intrinsic)' '' 11 ((PROCEDURE UNKNOWN-INTENT UNKNOWN-PROC
UNKNOWN UNKNOWN 0 0 FUNCTION) (INTEGER 4 0 0 0 INTEGER ()) 0 0 () () 9 ()
() () 0 0)
12 'len' '(intrinsic)' '' 14 ((PROCEDURE UNKNOWN-INTENT UNKNOWN-PROC
UNKNOWN UNKNOWN 0 0 FUNCTION) (INTEGER 4 0 0 0 INTEGER ()) 0 0 () () 12
() () () 0 0)
13 'string' '' '' 14 ((VARIABLE IN UNKNOWN-PROC UNKNOWN UNKNOWN 0 0
DUMMY) (CHARACTER 1 0 0 0 CHARACTER (())) 0 0 () () 0 () () () 0 0)
15 'len' '(intrinsic)' '' 17 ((PROCEDURE UNKNOWN-INTENT UNKNOWN-PROC
UNKNOWN UNKNOWN 0 0 FUNCTION) (INTEGER 4 0 0 0 INTEGER ()) 0 0 () () 15
() () () 0 0)
16 'string' '' '' 17 ((VARIABLE IN UNKNOWN-PROC UNKNOWN UNKNOWN 0 0
DUMMY) (CHARACTER 1 0 0 0 CHARACTER (())) 0 0 () () 0 () () () 0 0)
19 'string' '' '' 18 ((VARIABLE IN UNKNOWN-PROC UNKNOWN UNKNOWN 0 0
DUMMY) (CHARACTER 1 0 0 0 CHARACTER (())) 0 0 () () 0 () () () 0 0)
20 'strout' '' '' 18 ((VARIABLE OUT UNKNOWN-PROC UNKNOWN UNKNOWN 0 0
DUMMY) (CHARACTER 1 0 0 0 CHARACTER (())) 0 0 () () 0 () () () 0 0)
)

()
