GFORTRAN module version '10' created from psb_check_mod.f90
MD5:90e8d516df131cf04d66af24d570a409 -- If you edit this, you'll get what you deserve.

(() () () () () () () () () () () () () () () () () () () () () () ()
() () () ())

()

()

()

()

()

(2 'psb_check_mod' 'psb_check_mod' '' 1 ((MODULE UNKNOWN-INTENT
UNKNOWN-PROC UNKNOWN UNKNOWN 0 0) (UNKNOWN 0 0 0 0 UNKNOWN ()) 0 0 () ()
0 () () () 0 0)
3 'psb_chkglobvect' 'psb_check_mod' '' 1 ((PROCEDURE UNKNOWN-INTENT
MODULE-PROC DECL UNKNOWN 0 0 SUBROUTINE) (UNKNOWN 0 0 0 0 UNKNOWN ()) 4
0 (5 6 7 8 9 10 11) () 0 () () () 0 0)
12 'psb_chkmat' 'psb_check_mod' '' 1 ((PROCEDURE UNKNOWN-INTENT
MODULE-PROC DECL UNKNOWN 0 0 SUBROUTINE ALWAYS_EXPLICIT) (UNKNOWN 0 0 0
0 UNKNOWN ()) 13 0 (14 15 16 17 18 19 20 21) () 0 () () () 0 0)
22 'psb_chkvect' 'psb_check_mod' '' 1 ((PROCEDURE UNKNOWN-INTENT
MODULE-PROC DECL UNKNOWN 0 0 SUBROUTINE ALWAYS_EXPLICIT) (UNKNOWN 0 0 0
0 UNKNOWN ()) 23 0 (24 25 26 27 28 29 30 31 32) () 0 () () () 0 0)
5 'm' '' '' 4 ((VARIABLE IN UNKNOWN-PROC UNKNOWN UNKNOWN 0 0 DUMMY) (
INTEGER 4 0 0 0 INTEGER ()) 0 0 () () 0 () () () 0 0)
6 'n' '' '' 4 ((VARIABLE IN UNKNOWN-PROC UNKNOWN UNKNOWN 0 0 DUMMY) (
INTEGER 4 0 0 0 INTEGER ()) 0 0 () () 0 () () () 0 0)
7 'lldx' '' '' 4 ((VARIABLE IN UNKNOWN-PROC UNKNOWN UNKNOWN 0 0 DUMMY) (
INTEGER 4 0 0 0 INTEGER ()) 0 0 () () 0 () () () 0 0)
8 'ix' '' '' 4 ((VARIABLE IN UNKNOWN-PROC UNKNOWN UNKNOWN 0 0 DUMMY) (
INTEGER 4 0 0 0 INTEGER ()) 0 0 () () 0 () () () 0 0)
9 'jx' '' '' 4 ((VARIABLE IN UNKNOWN-PROC UNKNOWN UNKNOWN 0 0 DUMMY) (
INTEGER 4 0 0 0 INTEGER ()) 0 0 () () 0 () () () 0 0)
10 'desc_dec' '' '' 4 ((VARIABLE IN UNKNOWN-PROC UNKNOWN UNKNOWN 0 0
DUMMY) (DERIVED 33 0 0 0 DERIVED ()) 0 0 () () 0 () () () 0 0)
11 'info' '' '' 4 ((VARIABLE OUT UNKNOWN-PROC UNKNOWN UNKNOWN 0 0 DUMMY)
(INTEGER 4 0 0 0 INTEGER ()) 0 0 () () 0 () () () 0 0)
14 'm' '' '' 13 ((VARIABLE IN UNKNOWN-PROC UNKNOWN UNKNOWN 0 0 DUMMY) (
INTEGER 4 0 0 0 INTEGER ()) 0 0 () () 0 () () () 0 0)
15 'n' '' '' 13 ((VARIABLE IN UNKNOWN-PROC UNKNOWN UNKNOWN 0 0 DUMMY) (
INTEGER 4 0 0 0 INTEGER ()) 0 0 () () 0 () () () 0 0)
16 'ia' '' '' 13 ((VARIABLE IN UNKNOWN-PROC UNKNOWN UNKNOWN 0 0 DUMMY) (
INTEGER 4 0 0 0 INTEGER ()) 0 0 () () 0 () () () 0 0)
17 'ja' '' '' 13 ((VARIABLE IN UNKNOWN-PROC UNKNOWN UNKNOWN 0 0 DUMMY) (
INTEGER 4 0 0 0 INTEGER ()) 0 0 () () 0 () () () 0 0)
18 'desc_dec' '' '' 13 ((VARIABLE IN UNKNOWN-PROC UNKNOWN UNKNOWN 0 0
DUMMY) (DERIVED 34 0 0 0 DERIVED ()) 0 0 () () 0 () () () 0 0)
19 'info' '' '' 13 ((VARIABLE OUT UNKNOWN-PROC UNKNOWN UNKNOWN 0 0 DUMMY)
(INTEGER 4 0 0 0 INTEGER ()) 0 0 () () 0 () () () 0 0)
20 'iia' '' '' 13 ((VARIABLE UNKNOWN-INTENT UNKNOWN-PROC UNKNOWN UNKNOWN
0 0 OPTIONAL DUMMY) (INTEGER 4 0 0 0 INTEGER ()) 0 0 () () 0 () () () 0
0)
21 'jja' '' '' 13 ((VARIABLE UNKNOWN-INTENT UNKNOWN-PROC UNKNOWN UNKNOWN
0 0 OPTIONAL DUMMY) (INTEGER 4 0 0 0 INTEGER ()) 0 0 () () 0 () () () 0
0)
24 'm' '' '' 23 ((VARIABLE IN UNKNOWN-PROC UNKNOWN UNKNOWN 0 0 DUMMY) (
INTEGER 4 0 0 0 INTEGER ()) 0 0 () () 0 () () () 0 0)
25 'n' '' '' 23 ((VARIABLE IN UNKNOWN-PROC UNKNOWN UNKNOWN 0 0 DUMMY) (
INTEGER 4 0 0 0 INTEGER ()) 0 0 () () 0 () () () 0 0)
26 'lldx' '' '' 23 ((VARIABLE IN UNKNOWN-PROC UNKNOWN UNKNOWN 0 0 DUMMY)
(INTEGER 4 0 0 0 INTEGER ()) 0 0 () () 0 () () () 0 0)
27 'ix' '' '' 23 ((VARIABLE IN UNKNOWN-PROC UNKNOWN UNKNOWN 0 0 DUMMY) (
INTEGER 4 0 0 0 INTEGER ()) 0 0 () () 0 () () () 0 0)
28 'jx' '' '' 23 ((VARIABLE IN UNKNOWN-PROC UNKNOWN UNKNOWN 0 0 DUMMY) (
INTEGER 4 0 0 0 INTEGER ()) 0 0 () () 0 () () () 0 0)
29 'desc_dec' '' '' 23 ((VARIABLE IN UNKNOWN-PROC UNKNOWN UNKNOWN 0 0
DUMMY) (DERIVED 35 0 0 0 DERIVED ()) 0 0 () () 0 () () () 0 0)
30 'info' '' '' 23 ((VARIABLE OUT UNKNOWN-PROC UNKNOWN UNKNOWN 0 0 DUMMY)
(INTEGER 4 0 0 0 INTEGER ()) 0 0 () () 0 () () () 0 0)
31 'iix' '' '' 23 ((VARIABLE UNKNOWN-INTENT UNKNOWN-PROC UNKNOWN UNKNOWN
0 0 OPTIONAL DUMMY) (INTEGER 4 0 0 0 INTEGER ()) 0 0 () () 0 () () () 0
0)
32 'jjx' '' '' 23 ((VARIABLE UNKNOWN-INTENT UNKNOWN-PROC UNKNOWN UNKNOWN
0 0 OPTIONAL DUMMY) (INTEGER 4 0 0 0 INTEGER ()) 0 0 () () 0 () () () 0
0)
33 'Psb_desc_type' 'psb_descriptor_type' '' 4 ((DERIVED UNKNOWN-INTENT
UNKNOWN-PROC UNKNOWN UNKNOWN 0 0 ALLOC_COMP POINTER_COMP) (UNKNOWN 0 0 0
0 UNKNOWN ()) 0 0 () () 0 ((36 'matrix_data' (INTEGER 4 0 0 0 INTEGER ())
(1 0 DEFERRED () ()) (UNKNOWN-FL UNKNOWN-INTENT UNKNOWN-PROC UNKNOWN
UNKNOWN 0 0 ALLOCATABLE DIMENSION) UNKNOWN-ACCESS ()) (37 'halo_index' (
INTEGER 4 0 0 0 INTEGER ()) (1 0 DEFERRED () ()) (UNKNOWN-FL
UNKNOWN-INTENT UNKNOWN-PROC UNKNOWN UNKNOWN 0 0 ALLOCATABLE DIMENSION)
UNKNOWN-ACCESS ()) (38 'ext_index' (INTEGER 4 0 0 0 INTEGER ()) (1 0
DEFERRED () ()) (UNKNOWN-FL UNKNOWN-INTENT UNKNOWN-PROC UNKNOWN UNKNOWN
0 0 ALLOCATABLE DIMENSION) UNKNOWN-ACCESS ()) (39 'ovrlap_index' (
INTEGER 4 0 0 0 INTEGER ()) (1 0 DEFERRED () ()) (UNKNOWN-FL
UNKNOWN-INTENT UNKNOWN-PROC UNKNOWN UNKNOWN 0 0 ALLOCATABLE DIMENSION)
UNKNOWN-ACCESS ()) (40 'ovrlap_elem' (INTEGER 4 0 0 0 INTEGER ()) (2 0
DEFERRED () () () ()) (UNKNOWN-FL UNKNOWN-INTENT UNKNOWN-PROC UNKNOWN
UNKNOWN 0 0 ALLOCATABLE DIMENSION) UNKNOWN-ACCESS ()) (41 'ovr_mst_idx'
(INTEGER 4 0 0 0 INTEGER ()) (1 0 DEFERRED () ()) (UNKNOWN-FL
UNKNOWN-INTENT UNKNOWN-PROC UNKNOWN UNKNOWN 0 0 ALLOCATABLE DIMENSION)
UNKNOWN-ACCESS ()) (42 'bnd_elem' (INTEGER 4 0 0 0 INTEGER ()) (1 0
DEFERRED () ()) (UNKNOWN-FL UNKNOWN-INTENT UNKNOWN-PROC UNKNOWN UNKNOWN
0 0 ALLOCATABLE DIMENSION) UNKNOWN-ACCESS ()) (43 'idxmap' (DERIVED 44 0
0 0 DERIVED ()) () (UNKNOWN-FL UNKNOWN-INTENT UNKNOWN-PROC UNKNOWN
UNKNOWN 0 0) UNKNOWN-ACCESS (STRUCTURE (DERIVED 44 0 0 0 DERIVED ()) 0 (
(() ()) ((NULL (INTEGER 4 0 0 0 INTEGER ()) 0) ()) ((NULL (INTEGER 4 0 0
0 INTEGER ()) 0) ()) (() ()) (() ()) ((NULL (INTEGER 4 0 0 0 INTEGER ())
0) ()) ((NULL (INTEGER 4 0 0 0 INTEGER ()) 0) ()) ((STRUCTURE (DERIVED
45 0 0 0 DERIVED ()) 0 ((() ()) (() ()) (() ()) (() ()) ((NULL (INTEGER
4 0 0 0 INTEGER ()) 0) ()) (() ()) (() ())) ()) ())) ())) (46 'lprm' (
INTEGER 4 0 0 0 INTEGER ()) (1 0 DEFERRED () ()) (UNKNOWN-FL
UNKNOWN-INTENT UNKNOWN-PROC UNKNOWN UNKNOWN 0 0 ALLOCATABLE DIMENSION)
UNKNOWN-ACCESS ()) (47 'base_desc' (DERIVED 33 0 0 0 DERIVED ()) () (
UNKNOWN-FL UNKNOWN-INTENT UNKNOWN-PROC UNKNOWN UNKNOWN 0 0 POINTER)
UNKNOWN-ACCESS (NULL (UNKNOWN 0 0 0 0 UNKNOWN ()) 0)) (48 'idx_space' (
INTEGER 4 0 0 0 INTEGER ()) (1 0 DEFERRED () ()) (UNKNOWN-FL
UNKNOWN-INTENT UNKNOWN-PROC UNKNOWN UNKNOWN 0 0 ALLOCATABLE DIMENSION)
UNKNOWN-ACCESS ())) PUBLIC (() () () ()) () 0 0 40140499)
34 'Psb_desc_type' 'psb_descriptor_type' '' 13 ((DERIVED UNKNOWN-INTENT
UNKNOWN-PROC UNKNOWN UNKNOWN 0 0 ALLOC_COMP POINTER_COMP) (UNKNOWN 0 0 0
0 UNKNOWN ()) 0 0 () () 0 ((49 'matrix_data' (INTEGER 4 0 0 0 INTEGER ())
(1 0 DEFERRED () ()) (UNKNOWN-FL UNKNOWN-INTENT UNKNOWN-PROC UNKNOWN
UNKNOWN 0 0 ALLOCATABLE DIMENSION) UNKNOWN-ACCESS ()) (50 'halo_index' (
INTEGER 4 0 0 0 INTEGER ()) (1 0 DEFERRED () ()) (UNKNOWN-FL
UNKNOWN-INTENT UNKNOWN-PROC UNKNOWN UNKNOWN 0 0 ALLOCATABLE DIMENSION)
UNKNOWN-ACCESS ()) (51 'ext_index' (INTEGER 4 0 0 0 INTEGER ()) (1 0
DEFERRED () ()) (UNKNOWN-FL UNKNOWN-INTENT UNKNOWN-PROC UNKNOWN UNKNOWN
0 0 ALLOCATABLE DIMENSION) UNKNOWN-ACCESS ()) (52 'ovrlap_index' (
INTEGER 4 0 0 0 INTEGER ()) (1 0 DEFERRED () ()) (UNKNOWN-FL
UNKNOWN-INTENT UNKNOWN-PROC UNKNOWN UNKNOWN 0 0 ALLOCATABLE DIMENSION)
UNKNOWN-ACCESS ()) (53 'ovrlap_elem' (INTEGER 4 0 0 0 INTEGER ()) (2 0
DEFERRED () () () ()) (UNKNOWN-FL UNKNOWN-INTENT UNKNOWN-PROC UNKNOWN
UNKNOWN 0 0 ALLOCATABLE DIMENSION) UNKNOWN-ACCESS ()) (54 'ovr_mst_idx'
(INTEGER 4 0 0 0 INTEGER ()) (1 0 DEFERRED () ()) (UNKNOWN-FL
UNKNOWN-INTENT UNKNOWN-PROC UNKNOWN UNKNOWN 0 0 ALLOCATABLE DIMENSION)
UNKNOWN-ACCESS ()) (55 'bnd_elem' (INTEGER 4 0 0 0 INTEGER ()) (1 0
DEFERRED () ()) (UNKNOWN-FL UNKNOWN-INTENT UNKNOWN-PROC UNKNOWN UNKNOWN
0 0 ALLOCATABLE DIMENSION) UNKNOWN-ACCESS ()) (56 'idxmap' (DERIVED 57 0
0 0 DERIVED ()) () (UNKNOWN-FL UNKNOWN-INTENT UNKNOWN-PROC UNKNOWN
UNKNOWN 0 0) UNKNOWN-ACCESS (STRUCTURE (DERIVED 57 0 0 0 DERIVED ()) 0 (
(() ()) ((NULL (INTEGER 4 0 0 0 INTEGER ()) 0) ()) ((NULL (INTEGER 4 0 0
0 INTEGER ()) 0) ()) (() ()) (() ()) ((NULL (INTEGER 4 0 0 0 INTEGER ())
0) ()) ((NULL (INTEGER 4 0 0 0 INTEGER ()) 0) ()) ((STRUCTURE (DERIVED
58 0 0 0 DERIVED ()) 0 ((() ()) (() ()) (() ()) (() ()) ((NULL (INTEGER
4 0 0 0 INTEGER ()) 0) ()) (() ()) (() ())) ()) ())) ())) (59 'lprm' (
INTEGER 4 0 0 0 INTEGER ()) (1 0 DEFERRED () ()) (UNKNOWN-FL
UNKNOWN-INTENT UNKNOWN-PROC UNKNOWN UNKNOWN 0 0 ALLOCATABLE DIMENSION)
UNKNOWN-ACCESS ()) (60 'base_desc' (DERIVED 34 0 0 0 DERIVED ()) () (
UNKNOWN-FL UNKNOWN-INTENT UNKNOWN-PROC UNKNOWN UNKNOWN 0 0 POINTER)
UNKNOWN-ACCESS (NULL (UNKNOWN 0 0 0 0 UNKNOWN ()) 0)) (61 'idx_space' (
INTEGER 4 0 0 0 INTEGER ()) (1 0 DEFERRED () ()) (UNKNOWN-FL
UNKNOWN-INTENT UNKNOWN-PROC UNKNOWN UNKNOWN 0 0 ALLOCATABLE DIMENSION)
UNKNOWN-ACCESS ())) PUBLIC (() () () ()) () 0 0 40140499)
35 'Psb_desc_type' 'psb_descriptor_type' '' 23 ((DERIVED UNKNOWN-INTENT
UNKNOWN-PROC UNKNOWN UNKNOWN 0 0 ALLOC_COMP POINTER_COMP) (UNKNOWN 0 0 0
0 UNKNOWN ()) 0 0 () () 0 ((62 'matrix_data' (INTEGER 4 0 0 0 INTEGER ())
(1 0 DEFERRED () ()) (UNKNOWN-FL UNKNOWN-INTENT UNKNOWN-PROC UNKNOWN
UNKNOWN 0 0 ALLOCATABLE DIMENSION) UNKNOWN-ACCESS ()) (63 'halo_index' (
INTEGER 4 0 0 0 INTEGER ()) (1 0 DEFERRED () ()) (UNKNOWN-FL
UNKNOWN-INTENT UNKNOWN-PROC UNKNOWN UNKNOWN 0 0 ALLOCATABLE DIMENSION)
UNKNOWN-ACCESS ()) (64 'ext_index' (INTEGER 4 0 0 0 INTEGER ()) (1 0
DEFERRED () ()) (UNKNOWN-FL UNKNOWN-INTENT UNKNOWN-PROC UNKNOWN UNKNOWN
0 0 ALLOCATABLE DIMENSION) UNKNOWN-ACCESS ()) (65 'ovrlap_index' (
INTEGER 4 0 0 0 INTEGER ()) (1 0 DEFERRED () ()) (UNKNOWN-FL
UNKNOWN-INTENT UNKNOWN-PROC UNKNOWN UNKNOWN 0 0 ALLOCATABLE DIMENSION)
UNKNOWN-ACCESS ()) (66 'ovrlap_elem' (INTEGER 4 0 0 0 INTEGER ()) (2 0
DEFERRED () () () ()) (UNKNOWN-FL UNKNOWN-INTENT UNKNOWN-PROC UNKNOWN
UNKNOWN 0 0 ALLOCATABLE DIMENSION) UNKNOWN-ACCESS ()) (67 'ovr_mst_idx'
(INTEGER 4 0 0 0 INTEGER ()) (1 0 DEFERRED () ()) (UNKNOWN-FL
UNKNOWN-INTENT UNKNOWN-PROC UNKNOWN UNKNOWN 0 0 ALLOCATABLE DIMENSION)
UNKNOWN-ACCESS ()) (68 'bnd_elem' (INTEGER 4 0 0 0 INTEGER ()) (1 0
DEFERRED () ()) (UNKNOWN-FL UNKNOWN-INTENT UNKNOWN-PROC UNKNOWN UNKNOWN
0 0 ALLOCATABLE DIMENSION) UNKNOWN-ACCESS ()) (69 'idxmap' (DERIVED 70 0
0 0 DERIVED ()) () (UNKNOWN-FL UNKNOWN-INTENT UNKNOWN-PROC UNKNOWN
UNKNOWN 0 0) UNKNOWN-ACCESS (STRUCTURE (DERIVED 70 0 0 0 DERIVED ()) 0 (
(() ()) ((NULL (INTEGER 4 0 0 0 INTEGER ()) 0) ()) ((NULL (INTEGER 4 0 0
0 INTEGER ()) 0) ()) (() ()) (() ()) ((NULL (INTEGER 4 0 0 0 INTEGER ())
0) ()) ((NULL (INTEGER 4 0 0 0 INTEGER ()) 0) ()) ((STRUCTURE (DERIVED
71 0 0 0 DERIVED ()) 0 ((() ()) (() ()) (() ()) (() ()) ((NULL (INTEGER
4 0 0 0 INTEGER ()) 0) ()) (() ()) (() ())) ()) ())) ())) (72 'lprm' (
INTEGER 4 0 0 0 INTEGER ()) (1 0 DEFERRED () ()) (UNKNOWN-FL
UNKNOWN-INTENT UNKNOWN-PROC UNKNOWN UNKNOWN 0 0 ALLOCATABLE DIMENSION)
UNKNOWN-ACCESS ()) (73 'base_desc' (DERIVED 35 0 0 0 DERIVED ()) () (
UNKNOWN-FL UNKNOWN-INTENT UNKNOWN-PROC UNKNOWN UNKNOWN 0 0 POINTER)
UNKNOWN-ACCESS (NULL (UNKNOWN 0 0 0 0 UNKNOWN ()) 0)) (74 'idx_space' (
INTEGER 4 0 0 0 INTEGER ()) (1 0 DEFERRED () ()) (UNKNOWN-FL
UNKNOWN-INTENT UNKNOWN-PROC UNKNOWN UNKNOWN 0 0 ALLOCATABLE DIMENSION)
UNKNOWN-ACCESS ())) PUBLIC (() () () ()) () 0 0 40140499)
44 'Psb_idxmap_type' 'psb_descriptor_type' '' 4 ((DERIVED UNKNOWN-INTENT
UNKNOWN-PROC UNKNOWN UNKNOWN 0 0 ALLOC_COMP) (UNKNOWN 0 0 0 0 UNKNOWN ())
0 0 () () 0 ((75 'state' (INTEGER 4 0 0 0 INTEGER ()) () (UNKNOWN-FL
UNKNOWN-INTENT UNKNOWN-PROC UNKNOWN UNKNOWN 0 0) UNKNOWN-ACCESS ()) (76
'loc_to_glob' (INTEGER 4 0 0 0 INTEGER ()) (1 0 DEFERRED () ()) (
UNKNOWN-FL UNKNOWN-INTENT UNKNOWN-PROC UNKNOWN UNKNOWN 0 0 ALLOCATABLE
DIMENSION) UNKNOWN-ACCESS ()) (77 'glob_to_loc' (INTEGER 4 0 0 0 INTEGER
()) (1 0 DEFERRED () ()) (UNKNOWN-FL UNKNOWN-INTENT UNKNOWN-PROC UNKNOWN
UNKNOWN 0 0 ALLOCATABLE DIMENSION) UNKNOWN-ACCESS ()) (78 'hashvsize' (
INTEGER 4 0 0 0 INTEGER ()) () (UNKNOWN-FL UNKNOWN-INTENT UNKNOWN-PROC
UNKNOWN UNKNOWN 0 0) UNKNOWN-ACCESS ()) (79 'hashvmask' (INTEGER 4 0 0 0
INTEGER ()) () (UNKNOWN-FL UNKNOWN-INTENT UNKNOWN-PROC UNKNOWN UNKNOWN 0
0) UNKNOWN-ACCESS ()) (80 'hashv' (INTEGER 4 0 0 0 INTEGER ()) (1 0
DEFERRED () ()) (UNKNOWN-FL UNKNOWN-INTENT UNKNOWN-PROC UNKNOWN UNKNOWN
0 0 ALLOCATABLE DIMENSION) UNKNOWN-ACCESS ()) (81 'glb_lc' (INTEGER 4 0
0 0 INTEGER ()) (2 0 DEFERRED () () () ()) (UNKNOWN-FL UNKNOWN-INTENT
UNKNOWN-PROC UNKNOWN UNKNOWN 0 0 ALLOCATABLE DIMENSION) UNKNOWN-ACCESS ())
(82 'hash' (DERIVED 45 0 0 0 DERIVED ()) () (UNKNOWN-FL UNKNOWN-INTENT
UNKNOWN-PROC UNKNOWN UNKNOWN 0 0) UNKNOWN-ACCESS (STRUCTURE (DERIVED 45
0 0 0 DERIVED ()) 0 ((() ()) (() ()) (() ()) (() ()) ((NULL (INTEGER 4 0
0 0 INTEGER ()) 0) ()) (() ()) (() ())) ()))) PUBLIC (() () () ()) () 0
0 61816325)
45 'Psb_hash_type' 'psb_hash_mod' '' 4 ((DERIVED UNKNOWN-INTENT
UNKNOWN-PROC UNKNOWN UNKNOWN 0 0 ALLOC_COMP) (UNKNOWN 0 0 0 0 UNKNOWN ())
0 0 () () 0 ((83 'nbits' (INTEGER 4 0 0 0 INTEGER ()) () (UNKNOWN-FL
UNKNOWN-INTENT UNKNOWN-PROC UNKNOWN UNKNOWN 0 0) UNKNOWN-ACCESS ()) (84
'hsize' (INTEGER 4 0 0 0 INTEGER ()) () (UNKNOWN-FL UNKNOWN-INTENT
UNKNOWN-PROC UNKNOWN UNKNOWN 0 0) UNKNOWN-ACCESS ()) (85 'hmask' (
INTEGER 4 0 0 0 INTEGER ()) () (UNKNOWN-FL UNKNOWN-INTENT UNKNOWN-PROC
UNKNOWN UNKNOWN 0 0) UNKNOWN-ACCESS ()) (86 'nk' (INTEGER 4 0 0 0
INTEGER ()) () (UNKNOWN-FL UNKNOWN-INTENT UNKNOWN-PROC UNKNOWN UNKNOWN 0
0) UNKNOWN-ACCESS ()) (87 'table' (INTEGER 4 0 0 0 INTEGER ()) (2 0
DEFERRED () () () ()) (UNKNOWN-FL UNKNOWN-INTENT UNKNOWN-PROC UNKNOWN
UNKNOWN 0 0 ALLOCATABLE DIMENSION) UNKNOWN-ACCESS ()) (88 'nsrch' (
INTEGER 8 0 0 0 INTEGER ()) () (UNKNOWN-FL UNKNOWN-INTENT UNKNOWN-PROC
UNKNOWN UNKNOWN 0 0) UNKNOWN-ACCESS ()) (89 'nacc' (INTEGER 8 0 0 0
INTEGER ()) () (UNKNOWN-FL UNKNOWN-INTENT UNKNOWN-PROC UNKNOWN UNKNOWN 0
0) UNKNOWN-ACCESS ())) PUBLIC (() () () ()) () 0 0 24773533)
57 'Psb_idxmap_type' 'psb_descriptor_type' '' 13 ((DERIVED
UNKNOWN-INTENT UNKNOWN-PROC UNKNOWN UNKNOWN 0 0 ALLOC_COMP) (UNKNOWN 0 0
0 0 UNKNOWN ()) 0 0 () () 0 ((90 'state' (INTEGER 4 0 0 0 INTEGER ()) ()
(UNKNOWN-FL UNKNOWN-INTENT UNKNOWN-PROC UNKNOWN UNKNOWN 0 0)
UNKNOWN-ACCESS ()) (91 'loc_to_glob' (INTEGER 4 0 0 0 INTEGER ()) (1 0
DEFERRED () ()) (UNKNOWN-FL UNKNOWN-INTENT UNKNOWN-PROC UNKNOWN UNKNOWN
0 0 ALLOCATABLE DIMENSION) UNKNOWN-ACCESS ()) (92 'glob_to_loc' (
INTEGER 4 0 0 0 INTEGER ()) (1 0 DEFERRED () ()) (UNKNOWN-FL
UNKNOWN-INTENT UNKNOWN-PROC UNKNOWN UNKNOWN 0 0 ALLOCATABLE DIMENSION)
UNKNOWN-ACCESS ()) (93 'hashvsize' (INTEGER 4 0 0 0 INTEGER ()) () (
UNKNOWN-FL UNKNOWN-INTENT UNKNOWN-PROC UNKNOWN UNKNOWN 0 0)
UNKNOWN-ACCESS ()) (94 'hashvmask' (INTEGER 4 0 0 0 INTEGER ()) () (
UNKNOWN-FL UNKNOWN-INTENT UNKNOWN-PROC UNKNOWN UNKNOWN 0 0)
UNKNOWN-ACCESS ()) (95 'hashv' (INTEGER 4 0 0 0 INTEGER ()) (1 0
DEFERRED () ()) (UNKNOWN-FL UNKNOWN-INTENT UNKNOWN-PROC UNKNOWN UNKNOWN
0 0 ALLOCATABLE DIMENSION) UNKNOWN-ACCESS ()) (96 'glb_lc' (INTEGER 4 0
0 0 INTEGER ()) (2 0 DEFERRED () () () ()) (UNKNOWN-FL UNKNOWN-INTENT
UNKNOWN-PROC UNKNOWN UNKNOWN 0 0 ALLOCATABLE DIMENSION) UNKNOWN-ACCESS ())
(97 'hash' (DERIVED 58 0 0 0 DERIVED ()) () (UNKNOWN-FL UNKNOWN-INTENT
UNKNOWN-PROC UNKNOWN UNKNOWN 0 0) UNKNOWN-ACCESS (STRUCTURE (DERIVED 58
0 0 0 DERIVED ()) 0 ((() ()) (() ()) (() ()) (() ()) ((NULL (INTEGER 4 0
0 0 INTEGER ()) 0) ()) (() ()) (() ())) ()))) PUBLIC (() () () ()) () 0
0 61816325)
58 'Psb_hash_type' 'psb_hash_mod' '' 13 ((DERIVED UNKNOWN-INTENT
UNKNOWN-PROC UNKNOWN UNKNOWN 0 0 ALLOC_COMP) (UNKNOWN 0 0 0 0 UNKNOWN ())
0 0 () () 0 ((98 'nbits' (INTEGER 4 0 0 0 INTEGER ()) () (UNKNOWN-FL
UNKNOWN-INTENT UNKNOWN-PROC UNKNOWN UNKNOWN 0 0) UNKNOWN-ACCESS ()) (99
'hsize' (INTEGER 4 0 0 0 INTEGER ()) () (UNKNOWN-FL UNKNOWN-INTENT
UNKNOWN-PROC UNKNOWN UNKNOWN 0 0) UNKNOWN-ACCESS ()) (100 'hmask' (
INTEGER 4 0 0 0 INTEGER ()) () (UNKNOWN-FL UNKNOWN-INTENT UNKNOWN-PROC
UNKNOWN UNKNOWN 0 0) UNKNOWN-ACCESS ()) (101 'nk' (INTEGER 4 0 0 0
INTEGER ()) () (UNKNOWN-FL UNKNOWN-INTENT UNKNOWN-PROC UNKNOWN UNKNOWN 0
0) UNKNOWN-ACCESS ()) (102 'table' (INTEGER 4 0 0 0 INTEGER ()) (2 0
DEFERRED () () () ()) (UNKNOWN-FL UNKNOWN-INTENT UNKNOWN-PROC UNKNOWN
UNKNOWN 0 0 ALLOCATABLE DIMENSION) UNKNOWN-ACCESS ()) (103 'nsrch' (
INTEGER 8 0 0 0 INTEGER ()) () (UNKNOWN-FL UNKNOWN-INTENT UNKNOWN-PROC
UNKNOWN UNKNOWN 0 0) UNKNOWN-ACCESS ()) (104 'nacc' (INTEGER 8 0 0 0
INTEGER ()) () (UNKNOWN-FL UNKNOWN-INTENT UNKNOWN-PROC UNKNOWN UNKNOWN 0
0) UNKNOWN-ACCESS ())) PUBLIC (() () () ()) () 0 0 24773533)
70 'Psb_idxmap_type' 'psb_descriptor_type' '' 23 ((DERIVED
UNKNOWN-INTENT UNKNOWN-PROC UNKNOWN UNKNOWN 0 0 ALLOC_COMP) (UNKNOWN 0 0
0 0 UNKNOWN ()) 0 0 () () 0 ((105 'state' (INTEGER 4 0 0 0 INTEGER ()) ()
(UNKNOWN-FL UNKNOWN-INTENT UNKNOWN-PROC UNKNOWN UNKNOWN 0 0)
UNKNOWN-ACCESS ()) (106 'loc_to_glob' (INTEGER 4 0 0 0 INTEGER ()) (1 0
DEFERRED () ()) (UNKNOWN-FL UNKNOWN-INTENT UNKNOWN-PROC UNKNOWN UNKNOWN
0 0 ALLOCATABLE DIMENSION) UNKNOWN-ACCESS ()) (107 'glob_to_loc' (
INTEGER 4 0 0 0 INTEGER ()) (1 0 DEFERRED () ()) (UNKNOWN-FL
UNKNOWN-INTENT UNKNOWN-PROC UNKNOWN UNKNOWN 0 0 ALLOCATABLE DIMENSION)
UNKNOWN-ACCESS ()) (108 'hashvsize' (INTEGER 4 0 0 0 INTEGER ()) () (
UNKNOWN-FL UNKNOWN-INTENT UNKNOWN-PROC UNKNOWN UNKNOWN 0 0)
UNKNOWN-ACCESS ()) (109 'hashvmask' (INTEGER 4 0 0 0 INTEGER ()) () (
UNKNOWN-FL UNKNOWN-INTENT UNKNOWN-PROC UNKNOWN UNKNOWN 0 0)
UNKNOWN-ACCESS ()) (110 'hashv' (INTEGER 4 0 0 0 INTEGER ()) (1 0
DEFERRED () ()) (UNKNOWN-FL UNKNOWN-INTENT UNKNOWN-PROC UNKNOWN UNKNOWN
0 0 ALLOCATABLE DIMENSION) UNKNOWN-ACCESS ()) (111 'glb_lc' (INTEGER 4 0
0 0 INTEGER ()) (2 0 DEFERRED () () () ()) (UNKNOWN-FL UNKNOWN-INTENT
UNKNOWN-PROC UNKNOWN UNKNOWN 0 0 ALLOCATABLE DIMENSION) UNKNOWN-ACCESS ())
(112 'hash' (DERIVED 71 0 0 0 DERIVED ()) () (UNKNOWN-FL UNKNOWN-INTENT
UNKNOWN-PROC UNKNOWN UNKNOWN 0 0) UNKNOWN-ACCESS (STRUCTURE (DERIVED 71
0 0 0 DERIVED ()) 0 ((() ()) (() ()) (() ()) (() ()) ((NULL (INTEGER 4 0
0 0 INTEGER ()) 0) ()) (() ()) (() ())) ()))) PUBLIC (() () () ()) () 0
0 61816325)
71 'Psb_hash_type' 'psb_hash_mod' '' 23 ((DERIVED UNKNOWN-INTENT
UNKNOWN-PROC UNKNOWN UNKNOWN 0 0 ALLOC_COMP) (UNKNOWN 0 0 0 0 UNKNOWN ())
0 0 () () 0 ((113 'nbits' (INTEGER 4 0 0 0 INTEGER ()) () (UNKNOWN-FL
UNKNOWN-INTENT UNKNOWN-PROC UNKNOWN UNKNOWN 0 0) UNKNOWN-ACCESS ()) (
114 'hsize' (INTEGER 4 0 0 0 INTEGER ()) () (UNKNOWN-FL UNKNOWN-INTENT
UNKNOWN-PROC UNKNOWN UNKNOWN 0 0) UNKNOWN-ACCESS ()) (115 'hmask' (
INTEGER 4 0 0 0 INTEGER ()) () (UNKNOWN-FL UNKNOWN-INTENT UNKNOWN-PROC
UNKNOWN UNKNOWN 0 0) UNKNOWN-ACCESS ()) (116 'nk' (INTEGER 4 0 0 0
INTEGER ()) () (UNKNOWN-FL UNKNOWN-INTENT UNKNOWN-PROC UNKNOWN UNKNOWN 0
0) UNKNOWN-ACCESS ()) (117 'table' (INTEGER 4 0 0 0 INTEGER ()) (2 0
DEFERRED () () () ()) (UNKNOWN-FL UNKNOWN-INTENT UNKNOWN-PROC UNKNOWN
UNKNOWN 0 0 ALLOCATABLE DIMENSION) UNKNOWN-ACCESS ()) (118 'nsrch' (
INTEGER 8 0 0 0 INTEGER ()) () (UNKNOWN-FL UNKNOWN-INTENT UNKNOWN-PROC
UNKNOWN UNKNOWN 0 0) UNKNOWN-ACCESS ()) (119 'nacc' (INTEGER 8 0 0 0
INTEGER ()) () (UNKNOWN-FL UNKNOWN-INTENT UNKNOWN-PROC UNKNOWN UNKNOWN 0
0) UNKNOWN-ACCESS ())) PUBLIC (() () () ()) () 0 0 24773533)
)

('psb_check_mod' 0 2 'psb_chkglobvect' 0 3 'psb_chkmat' 0 12 'psb_chkvect'
0 22)
