GFORTRAN module version '10' created from psb_hash_mod.f90
MD5:01589db0b113b610ed86577739a27617 -- If you edit this, you'll get what you deserve.

(() () () () () () () () () () () () () () () () () () () () () () ()
() () () ())

()

(('psb_free' 'psb_hash_mod' 2) ('psb_hash_copy' 'psb_hash_mod' 3) (
'psb_hash_init' 'psb_hash_mod' 4 5) ('psb_hash_type' 'psb_hash_mod' 6) (
'psb_move_alloc' 'psb_hash_mod' 7) ('psb_sizeof' 'psb_hash_mod' 8))

()

()

()

(6 'Psb_hash_type' 'psb_hash_mod' '' 1 ((DERIVED UNKNOWN-INTENT
UNKNOWN-PROC UNKNOWN UNKNOWN 0 0 ALLOC_COMP) (UNKNOWN 0 0 0 0 UNKNOWN ())
0 0 () () 0 ((9 'nbits' (INTEGER 4 0 0 0 INTEGER ()) () (UNKNOWN-FL
UNKNOWN-INTENT UNKNOWN-PROC UNKNOWN UNKNOWN 0 0) UNKNOWN-ACCESS ()) (10
'hsize' (INTEGER 4 0 0 0 INTEGER ()) () (UNKNOWN-FL UNKNOWN-INTENT
UNKNOWN-PROC UNKNOWN UNKNOWN 0 0) UNKNOWN-ACCESS ()) (11 'hmask' (
INTEGER 4 0 0 0 INTEGER ()) () (UNKNOWN-FL UNKNOWN-INTENT UNKNOWN-PROC
UNKNOWN UNKNOWN 0 0) UNKNOWN-ACCESS ()) (12 'nk' (INTEGER 4 0 0 0
INTEGER ()) () (UNKNOWN-FL UNKNOWN-INTENT UNKNOWN-PROC UNKNOWN UNKNOWN 0
0) UNKNOWN-ACCESS ()) (13 'table' (INTEGER 4 0 0 0 INTEGER ()) (2 0
DEFERRED () () () ()) (UNKNOWN-FL UNKNOWN-INTENT UNKNOWN-PROC UNKNOWN
UNKNOWN 0 0 ALLOCATABLE DIMENSION) UNKNOWN-ACCESS ()) (14 'nsrch' (
INTEGER 8 0 0 0 INTEGER ()) () (UNKNOWN-FL UNKNOWN-INTENT UNKNOWN-PROC
UNKNOWN UNKNOWN 0 0) UNKNOWN-ACCESS ()) (15 'nacc' (INTEGER 8 0 0 0
INTEGER ()) () (UNKNOWN-FL UNKNOWN-INTENT UNKNOWN-PROC UNKNOWN UNKNOWN 0
0) UNKNOWN-ACCESS ())) PUBLIC (() () () ()) () 0 0 24773533)
16 '__convert_r4_r8' '(intrinsic)' '' 1 ((PROCEDURE UNKNOWN-INTENT
UNKNOWN-PROC UNKNOWN UNKNOWN 0 0 FUNCTION ELEMENTAL PURE) (REAL 8 0 0 0
REAL ()) 0 0 () () 16 () () () 0 0)
17 'clonehashtable' 'psb_hash_mod' '' 1 ((PROCEDURE UNKNOWN-INTENT
MODULE-PROC DECL UNKNOWN 0 0 SUBROUTINE ALWAYS_EXPLICIT) (UNKNOWN 0 0 0
0 UNKNOWN ()) 18 0 (19 20 21) () 0 () () () 0 0)
22 'cone' 'psb_const_mod' '' 1 ((PARAMETER UNKNOWN-INTENT UNKNOWN-PROC
UNKNOWN IMPLICIT-SAVE 0 0) (COMPLEX 4 0 0 0 COMPLEX ()) 0 0 () (
CONSTANT (COMPLEX 4 0 0 0 COMPLEX ()) 0 '0.1000000@1' '0.0000000@0') ()
0 () () () 0 0)
23 'czero' 'psb_const_mod' '' 1 ((PARAMETER UNKNOWN-INTENT UNKNOWN-PROC
UNKNOWN IMPLICIT-SAVE 0 0) (COMPLEX 4 0 0 0 COMPLEX ()) 0 0 () (
CONSTANT (COMPLEX 4 0 0 0 COMPLEX ()) 0 '0.0000000@0' '0.0000000@0') ()
0 () () () 0 0)
24 'd_epstol' 'psb_const_mod' '' 1 ((PARAMETER UNKNOWN-INTENT
UNKNOWN-PROC UNKNOWN IMPLICIT-SAVE 0 0) (REAL 8 0 0 0 REAL ()) 0 0 () (
CONSTANT (REAL 8 0 0 0 REAL ()) 0 '0.7ed2450285913c@-13') () 0 () () ()
0 0)
25 'done' 'psb_const_mod' '' 1 ((PARAMETER UNKNOWN-INTENT UNKNOWN-PROC
UNKNOWN IMPLICIT-SAVE 0 0) (REAL 8 0 0 0 REAL ()) 0 0 () (CONSTANT (
REAL 8 0 0 0 REAL ()) 0 '0.10000000000000@1') () 0 () () () 0 0)
26 'dzero' 'psb_const_mod' '' 1 ((PARAMETER UNKNOWN-INTENT UNKNOWN-PROC
UNKNOWN IMPLICIT-SAVE 0 0) (REAL 8 0 0 0 REAL ()) 0 0 () (CONSTANT (
REAL 8 0 0 0 REAL ()) 0 '0.00000000000000@0') () 0 () () () 0 0)
3 'hashcopy' 'psb_hash_mod' '' 1 ((PROCEDURE UNKNOWN-INTENT MODULE-PROC
DECL UNKNOWN 0 0 SUBROUTINE) (UNKNOWN 0 0 0 0 UNKNOWN ()) 27 0 (28 29 30)
() 0 () () () 0 0)
31 'hashduplicate' 'psb_hash_mod' '' 1 ((PARAMETER UNKNOWN-INTENT
UNKNOWN-PROC UNKNOWN IMPLICIT-SAVE 0 0) (INTEGER 4 0 0 0 INTEGER ()) 0 0
() (CONSTANT (INTEGER 4 0 0 0 INTEGER ()) 0 '123') () 0 () () () 0 0)
2 'hashfree' 'psb_hash_mod' '' 1 ((PROCEDURE UNKNOWN-INTENT MODULE-PROC
DECL UNKNOWN 0 0 SUBROUTINE) (UNKNOWN 0 0 0 0 UNKNOWN ()) 32 0 (33 34) ()
0 () () () 0 0)
35 'hashfreeentry' 'psb_hash_mod' '' 1 ((PARAMETER UNKNOWN-INTENT
UNKNOWN-PROC UNKNOWN IMPLICIT-SAVE 0 0) (INTEGER 4 0 0 0 INTEGER ()) 0 0
() (CONSTANT (INTEGER 4 0 0 0 INTEGER ()) 0 '-1') () 0 () () () 0 0)
36 'hashnotfound' 'psb_hash_mod' '' 1 ((PARAMETER UNKNOWN-INTENT
UNKNOWN-PROC UNKNOWN IMPLICIT-SAVE 0 0) (INTEGER 4 0 0 0 INTEGER ()) 0 0
() (CONSTANT (INTEGER 4 0 0 0 INTEGER ()) 0 '-256') () 0 () () () 0 0)
37 'hashok' 'psb_hash_mod' '' 1 ((PARAMETER UNKNOWN-INTENT UNKNOWN-PROC
UNKNOWN IMPLICIT-SAVE 0 0) (INTEGER 4 0 0 0 INTEGER ()) 0 0 () (
CONSTANT (INTEGER 4 0 0 0 INTEGER ()) 0 '0') () 0 () () () 0 0)
38 'hashoutofmemory' 'psb_hash_mod' '' 1 ((PARAMETER UNKNOWN-INTENT
UNKNOWN-PROC UNKNOWN IMPLICIT-SAVE 0 0) (INTEGER 4 0 0 0 INTEGER ()) 0 0
() (CONSTANT (INTEGER 4 0 0 0 INTEGER ()) 0 '-512') () 0 () () () 0 0)
7 'hashtransfer' 'psb_hash_mod' '' 1 ((PROCEDURE UNKNOWN-INTENT
MODULE-PROC DECL UNKNOWN 0 0 SUBROUTINE) (UNKNOWN 0 0 0 0 UNKNOWN ()) 39
0 (40 41 42) () 0 () () () 0 0)
43 'hashval' 'psb_hash_mod' '' 1 ((PROCEDURE UNKNOWN-INTENT MODULE-PROC
DECL UNKNOWN 0 0 FUNCTION IMPLICIT_PURE) (INTEGER 4 0 0 0 INTEGER ()) 44
0 (45) () 46 () () () 0 0)
47 'ione' 'psb_const_mod' '' 1 ((PARAMETER UNKNOWN-INTENT UNKNOWN-PROC
UNKNOWN IMPLICIT-SAVE 0 0) (INTEGER 4 0 0 0 INTEGER ()) 0 0 () (
CONSTANT (INTEGER 4 0 0 0 INTEGER ()) 0 '1') () 0 () () () 0 0)
48 'ithree' 'psb_const_mod' '' 1 ((PARAMETER UNKNOWN-INTENT UNKNOWN-PROC
UNKNOWN IMPLICIT-SAVE 0 0) (INTEGER 4 0 0 0 INTEGER ()) 0 0 () (
CONSTANT (INTEGER 4 0 0 0 INTEGER ()) 0 '3') () 0 () () () 0 0)
49 'itwo' 'psb_const_mod' '' 1 ((PARAMETER UNKNOWN-INTENT UNKNOWN-PROC
UNKNOWN IMPLICIT-SAVE 0 0) (INTEGER 4 0 0 0 INTEGER ()) 0 0 () (
CONSTANT (INTEGER 4 0 0 0 INTEGER ()) 0 '2') () 0 () () () 0 0)
50 'izero' 'psb_const_mod' '' 1 ((PARAMETER UNKNOWN-INTENT UNKNOWN-PROC
UNKNOWN IMPLICIT-SAVE 0 0) (INTEGER 4 0 0 0 INTEGER ()) 0 0 () (
CONSTANT (INTEGER 4 0 0 0 INTEGER ()) 0 '0') () 0 () () () 0 0)
51 'kind' '(intrinsic)' '' 1 ((PROCEDURE UNKNOWN-INTENT UNKNOWN-PROC
UNKNOWN UNKNOWN 0 0 FUNCTION) (INTEGER 4 0 0 0 INTEGER ()) 0 0 () () 51
() () () 0 0)
52 'longndig' 'psb_const_mod' '' 1 ((PARAMETER UNKNOWN-INTENT
UNKNOWN-PROC UNKNOWN IMPLICIT-SAVE 0 0) (INTEGER 4 0 0 0 INTEGER ()) 0 0
() (CONSTANT (INTEGER 4 0 0 0 INTEGER ()) 0 '12') () 0 () () () 0 0)
53 'mone' 'psb_const_mod' '' 1 ((PARAMETER UNKNOWN-INTENT UNKNOWN-PROC
UNKNOWN IMPLICIT-SAVE 0 0) (INTEGER 4 0 0 0 INTEGER ()) 0 0 () (
CONSTANT (INTEGER 4 0 0 0 INTEGER ()) 0 '-1') () 0 () () () 0 0)
54 'ndig' 'psb_const_mod' '' 1 ((PARAMETER UNKNOWN-INTENT UNKNOWN-PROC
UNKNOWN IMPLICIT-SAVE 0 0) (INTEGER 4 0 0 0 INTEGER ()) 0 0 () (
CONSTANT (INTEGER 4 0 0 0 INTEGER ()) 0 '8') () 0 () () () 0 0)
55 'psb_all_' 'psb_const_mod' '' 1 ((PARAMETER UNKNOWN-INTENT
UNKNOWN-PROC UNKNOWN IMPLICIT-SAVE 0 0) (CHARACTER 1 0 0 0 CHARACTER ((
CONSTANT (INTEGER 4 0 0 0 INTEGER ()) 0 '1'))) 0 0 () (CONSTANT (
CHARACTER 1 0 0 0 CHARACTER (())) 0 1 'A') () 0 () () () 0 0)
56 'psb_const_mod' 'psb_const_mod' '' 1 ((MODULE UNKNOWN-INTENT
UNKNOWN-PROC UNKNOWN UNKNOWN 0 0) (UNKNOWN 0 0 0 0 UNKNOWN ()) 0 0 () ()
0 () () () 0 0)
57 'psb_dpk_' 'psb_const_mod' '' 1 ((PARAMETER UNKNOWN-INTENT
UNKNOWN-PROC UNKNOWN IMPLICIT-SAVE 0 0) (INTEGER 4 0 0 0 INTEGER ()) 0 0
() (CONSTANT (INTEGER 4 0 0 0 INTEGER ()) 0 '8') () 0 () () () 0 0)
58 'psb_err_alloc_dealloc_' 'psb_const_mod' '' 1 ((PARAMETER
UNKNOWN-INTENT UNKNOWN-PROC UNKNOWN IMPLICIT-SAVE 0 0) (INTEGER 4 0 0 0
INTEGER ()) 0 0 () (CONSTANT (INTEGER 4 0 0 0 INTEGER ()) 0 '4000') () 0
() () () 0 0)
59 'psb_err_alloc_request_' 'psb_const_mod' '' 1 ((PARAMETER
UNKNOWN-INTENT UNKNOWN-PROC UNKNOWN IMPLICIT-SAVE 0 0) (INTEGER 4 0 0 0
INTEGER ()) 0 0 () (CONSTANT (INTEGER 4 0 0 0 INTEGER ()) 0 '4025') () 0
() () () 0 0)
60 'psb_err_arg_m_required_' 'psb_const_mod' '' 1 ((PARAMETER
UNKNOWN-INTENT UNKNOWN-PROC UNKNOWN IMPLICIT-SAVE 0 0) (INTEGER 4 0 0 0
INTEGER ()) 0 0 () (CONSTANT (INTEGER 4 0 0 0 INTEGER ()) 0 '582') () 0
() () () 0 0)
61 'psb_err_asb_nrc_error_' 'psb_const_mod' '' 1 ((PARAMETER
UNKNOWN-INTENT UNKNOWN-PROC UNKNOWN IMPLICIT-SAVE 0 0) (INTEGER 4 0 0 0
INTEGER ()) 0 0 () (CONSTANT (INTEGER 4 0 0 0 INTEGER ()) 0 '71') () 0 ()
() () 0 0)
62 'psb_err_context_error_' 'psb_const_mod' '' 1 ((PARAMETER
UNKNOWN-INTENT UNKNOWN-PROC UNKNOWN IMPLICIT-SAVE 0 0) (INTEGER 4 0 0 0
INTEGER ()) 0 0 () (CONSTANT (INTEGER 4 0 0 0 INTEGER ()) 0 '2010') () 0
() () () 0 0)
63 'psb_err_dupl_cd_vl' 'psb_const_mod' '' 1 ((PARAMETER UNKNOWN-INTENT
UNKNOWN-PROC UNKNOWN IMPLICIT-SAVE 0 0) (INTEGER 4 0 0 0 INTEGER ()) 0 0
() (CONSTANT (INTEGER 4 0 0 0 INTEGER ()) 0 '123') () 0 () () () 0 0)
64 'psb_err_duplicate_coo' 'psb_const_mod' '' 1 ((PARAMETER
UNKNOWN-INTENT UNKNOWN-PROC UNKNOWN IMPLICIT-SAVE 0 0) (INTEGER 4 0 0 0
INTEGER ()) 0 0 () (CONSTANT (INTEGER 4 0 0 0 INTEGER ()) 0 '130') () 0
() () () 0 0)
65 'psb_err_entry_out_of_bounds_' 'psb_const_mod' '' 1 ((PARAMETER
UNKNOWN-INTENT UNKNOWN-PROC UNKNOWN IMPLICIT-SAVE 0 0) (INTEGER 4 0 0 0
INTEGER ()) 0 0 () (CONSTANT (INTEGER 4 0 0 0 INTEGER ()) 0 '551') () 0
() () () 0 0)
66 'psb_err_forgot_geall_' 'psb_const_mod' '' 1 ((PARAMETER
UNKNOWN-INTENT UNKNOWN-PROC UNKNOWN IMPLICIT-SAVE 0 0) (INTEGER 4 0 0 0
INTEGER ()) 0 0 () (CONSTANT (INTEGER 4 0 0 0 INTEGER ()) 0 '290') () 0
() () () 0 0)
67 'psb_err_forgot_spall_' 'psb_const_mod' '' 1 ((PARAMETER
UNKNOWN-INTENT UNKNOWN-PROC UNKNOWN IMPLICIT-SAVE 0 0) (INTEGER 4 0 0 0
INTEGER ()) 0 0 () (CONSTANT (INTEGER 4 0 0 0 INTEGER ()) 0 '295') () 0
() () () 0 0)
68 'psb_err_format_unknown_' 'psb_const_mod' '' 1 ((PARAMETER
UNKNOWN-INTENT UNKNOWN-PROC UNKNOWN IMPLICIT-SAVE 0 0) (INTEGER 4 0 0 0
INTEGER ()) 0 0 () (CONSTANT (INTEGER 4 0 0 0 INTEGER ()) 0 '136') () 0
() () () 0 0)
69 'psb_err_from_subroutine_' 'psb_const_mod' '' 1 ((PARAMETER
UNKNOWN-INTENT UNKNOWN-PROC UNKNOWN IMPLICIT-SAVE 0 0) (INTEGER 4 0 0 0
INTEGER ()) 0 0 () (CONSTANT (INTEGER 4 0 0 0 INTEGER ()) 0 '4010') () 0
() () () 0 0)
70 'psb_err_from_subroutine_ai_' 'psb_const_mod' '' 1 ((PARAMETER
UNKNOWN-INTENT UNKNOWN-PROC UNKNOWN IMPLICIT-SAVE 0 0) (INTEGER 4 0 0 0
INTEGER ()) 0 0 () (CONSTANT (INTEGER 4 0 0 0 INTEGER ()) 0 '4013') () 0
() () () 0 0)
71 'psb_err_from_subroutine_i_' 'psb_const_mod' '' 1 ((PARAMETER
UNKNOWN-INTENT UNKNOWN-PROC UNKNOWN IMPLICIT-SAVE 0 0) (INTEGER 4 0 0 0
INTEGER ()) 0 0 () (CONSTANT (INTEGER 4 0 0 0 INTEGER ()) 0 '4012') () 0
() () () 0 0)
72 'psb_err_from_subroutine_non_' 'psb_const_mod' '' 1 ((PARAMETER
UNKNOWN-INTENT UNKNOWN-PROC UNKNOWN IMPLICIT-SAVE 0 0) (INTEGER 4 0 0 0
INTEGER ()) 0 0 () (CONSTANT (INTEGER 4 0 0 0 INTEGER ()) 0 '4011') () 0
() () () 0 0)
73 'psb_err_ia1_badindices_' 'psb_const_mod' '' 1 ((PARAMETER
UNKNOWN-INTENT UNKNOWN-PROC UNKNOWN IMPLICIT-SAVE 0 0) (INTEGER 4 0 0 0
INTEGER ()) 0 0 () (CONSTANT (INTEGER 4 0 0 0 INTEGER ()) 0 '100') () 0
() () () 0 0)
74 'psb_err_ia1_not_increasing_' 'psb_const_mod' '' 1 ((PARAMETER
UNKNOWN-INTENT UNKNOWN-PROC UNKNOWN IMPLICIT-SAVE 0 0) (INTEGER 4 0 0 0
INTEGER ()) 0 0 () (CONSTANT (INTEGER 4 0 0 0 INTEGER ()) 0 '91') () 0 ()
() () 0 0)
75 'psb_err_ia2_not_increasing_' 'psb_const_mod' '' 1 ((PARAMETER
UNKNOWN-INTENT UNKNOWN-PROC UNKNOWN IMPLICIT-SAVE 0 0) (INTEGER 4 0 0 0
INTEGER ()) 0 0 () (CONSTANT (INTEGER 4 0 0 0 INTEGER ()) 0 '90') () 0 ()
() () 0 0)
76 'psb_err_iarg2_neg_' 'psb_const_mod' '' 1 ((PARAMETER UNKNOWN-INTENT
UNKNOWN-PROC UNKNOWN IMPLICIT-SAVE 0 0) (INTEGER 4 0 0 0 INTEGER ()) 0 0
() (CONSTANT (INTEGER 4 0 0 0 INTEGER ()) 0 '80') () 0 () () () 0 0)
77 'psb_err_iarg_invalid_i_' 'psb_const_mod' '' 1 ((PARAMETER
UNKNOWN-INTENT UNKNOWN-PROC UNKNOWN IMPLICIT-SAVE 0 0) (INTEGER 4 0 0 0
INTEGER ()) 0 0 () (CONSTANT (INTEGER 4 0 0 0 INTEGER ()) 0 '40') () 0 ()
() () 0 0)
78 'psb_err_iarg_invalid_value_' 'psb_const_mod' '' 1 ((PARAMETER
UNKNOWN-INTENT UNKNOWN-PROC UNKNOWN IMPLICIT-SAVE 0 0) (INTEGER 4 0 0 0
INTEGER ()) 0 0 () (CONSTANT (INTEGER 4 0 0 0 INTEGER ()) 0 '70') () 0 ()
() () 0 0)
79 'psb_err_iarg_mbeeiarra_i_' 'psb_const_mod' '' 1 ((PARAMETER
UNKNOWN-INTENT UNKNOWN-PROC UNKNOWN IMPLICIT-SAVE 0 0) (INTEGER 4 0 0 0
INTEGER ()) 0 0 () (CONSTANT (INTEGER 4 0 0 0 INTEGER ()) 0 '300') () 0
() () () 0 0)
80 'psb_err_iarg_n_mbgtian_' 'psb_const_mod' '' 1 ((PARAMETER
UNKNOWN-INTENT UNKNOWN-PROC UNKNOWN IMPLICIT-SAVE 0 0) (INTEGER 4 0 0 0
INTEGER ()) 0 0 () (CONSTANT (INTEGER 4 0 0 0 INTEGER ()) 0 '120') () 0
() () () 0 0)
81 'psb_err_iarg_neg_' 'psb_const_mod' '' 1 ((PARAMETER UNKNOWN-INTENT
UNKNOWN-PROC UNKNOWN IMPLICIT-SAVE 0 0) (INTEGER 4 0 0 0 INTEGER ()) 0 0
() (CONSTANT (INTEGER 4 0 0 0 INTEGER ()) 0 '10') () 0 () () () 0 0)
82 'psb_err_iarg_not_gteia_ii_' 'psb_const_mod' '' 1 ((PARAMETER
UNKNOWN-INTENT UNKNOWN-PROC UNKNOWN IMPLICIT-SAVE 0 0) (INTEGER 4 0 0 0
INTEGER ()) 0 0 () (CONSTANT (INTEGER 4 0 0 0 INTEGER ()) 0 '60') () 0 ()
() () 0 0)
83 'psb_err_iarg_not_gtia_ii_' 'psb_const_mod' '' 1 ((PARAMETER
UNKNOWN-INTENT UNKNOWN-PROC UNKNOWN IMPLICIT-SAVE 0 0) (INTEGER 4 0 0 0
INTEGER ()) 0 0 () (CONSTANT (INTEGER 4 0 0 0 INTEGER ()) 0 '50') () 0 ()
() () 0 0)
84 'psb_err_iarg_pos_' 'psb_const_mod' '' 1 ((PARAMETER UNKNOWN-INTENT
UNKNOWN-PROC UNKNOWN IMPLICIT-SAVE 0 0) (INTEGER 4 0 0 0 INTEGER ()) 0 0
() (CONSTANT (INTEGER 4 0 0 0 INTEGER ()) 0 '20') () 0 () () () 0 0)
85 'psb_err_iarray_outside_bounds_' 'psb_const_mod' '' 1 ((PARAMETER
UNKNOWN-INTENT UNKNOWN-PROC UNKNOWN IMPLICIT-SAVE 0 0) (INTEGER 4 0 0 0
INTEGER ()) 0 0 () (CONSTANT (INTEGER 4 0 0 0 INTEGER ()) 0 '140') () 0
() () () 0 0)
86 'psb_err_iarray_outside_process_' 'psb_const_mod' '' 1 ((PARAMETER
UNKNOWN-INTENT UNKNOWN-PROC UNKNOWN IMPLICIT-SAVE 0 0) (INTEGER 4 0 0 0
INTEGER ()) 0 0 () (CONSTANT (INTEGER 4 0 0 0 INTEGER ()) 0 '150') () 0
() () () 0 0)
87 'psb_err_inconsistent_index_lists_' 'psb_const_mod' '' 1 ((PARAMETER
UNKNOWN-INTENT UNKNOWN-PROC UNKNOWN IMPLICIT-SAVE 0 0) (INTEGER 4 0 0 0
INTEGER ()) 0 0 () (CONSTANT (INTEGER 4 0 0 0 INTEGER ()) 0 '552') () 0
() () () 0 0)
88 'psb_err_initerror_neugh_procs_' 'psb_const_mod' '' 1 ((PARAMETER
UNKNOWN-INTENT UNKNOWN-PROC UNKNOWN IMPLICIT-SAVE 0 0) (INTEGER 4 0 0 0
INTEGER ()) 0 0 () (CONSTANT (INTEGER 4 0 0 0 INTEGER ()) 0 '2011') () 0
() () () 0 0)
89 'psb_err_input_asize_invalid_i_' 'psb_const_mod' '' 1 ((PARAMETER
UNKNOWN-INTENT UNKNOWN-PROC UNKNOWN IMPLICIT-SAVE 0 0) (INTEGER 4 0 0 0
INTEGER ()) 0 0 () (CONSTANT (INTEGER 4 0 0 0 INTEGER ()) 0 '35') () 0 ()
() () 0 0)
90 'psb_err_input_matrix_unassembled_' 'psb_const_mod' '' 1 ((PARAMETER
UNKNOWN-INTENT UNKNOWN-PROC UNKNOWN IMPLICIT-SAVE 0 0) (INTEGER 4 0 0 0
INTEGER ()) 0 0 () (CONSTANT (INTEGER 4 0 0 0 INTEGER ()) 0 '3110') () 0
() () () 0 0)
91 'psb_err_input_no_regen_' 'psb_const_mod' '' 1 ((PARAMETER
UNKNOWN-INTENT UNKNOWN-PROC UNKNOWN IMPLICIT-SAVE 0 0) (INTEGER 4 0 0 0
INTEGER ()) 0 0 () (CONSTANT (INTEGER 4 0 0 0 INTEGER ()) 0 '2232') () 0
() () () 0 0)
92 'psb_err_input_value_invalid_i_' 'psb_const_mod' '' 1 ((PARAMETER
UNKNOWN-INTENT UNKNOWN-PROC UNKNOWN IMPLICIT-SAVE 0 0) (INTEGER 4 0 0 0
INTEGER ()) 0 0 () (CONSTANT (INTEGER 4 0 0 0 INTEGER ()) 0 '30') () 0 ()
() () 0 0)
93 'psb_err_internal_error_' 'psb_const_mod' '' 1 ((PARAMETER
UNKNOWN-INTENT UNKNOWN-PROC UNKNOWN IMPLICIT-SAVE 0 0) (INTEGER 4 0 0 0
INTEGER ()) 0 0 () (CONSTANT (INTEGER 4 0 0 0 INTEGER ()) 0 '4001') () 0
() () () 0 0)
94 'psb_err_invalid_a_and_cd_state_' 'psb_const_mod' '' 1 ((PARAMETER
UNKNOWN-INTENT UNKNOWN-PROC UNKNOWN IMPLICIT-SAVE 0 0) (INTEGER 4 0 0 0
INTEGER ()) 0 0 () (CONSTANT (INTEGER 4 0 0 0 INTEGER ()) 0 '1123') () 0
() () () 0 0)
95 'psb_err_invalid_args_combination_' 'psb_const_mod' '' 1 ((PARAMETER
UNKNOWN-INTENT UNKNOWN-PROC UNKNOWN IMPLICIT-SAVE 0 0) (INTEGER 4 0 0 0
INTEGER ()) 0 0 () (CONSTANT (INTEGER 4 0 0 0 INTEGER ()) 0 '110') () 0
() () () 0 0)
96 'psb_err_invalid_cd_state_' 'psb_const_mod' '' 1 ((PARAMETER
UNKNOWN-INTENT UNKNOWN-PROC UNKNOWN IMPLICIT-SAVE 0 0) (INTEGER 4 0 0 0
INTEGER ()) 0 0 () (CONSTANT (INTEGER 4 0 0 0 INTEGER ()) 0 '1122') () 0
() () () 0 0)
97 'psb_err_invalid_input_' 'psb_const_mod' '' 1 ((PARAMETER
UNKNOWN-INTENT UNKNOWN-PROC UNKNOWN IMPLICIT-SAVE 0 0) (INTEGER 4 0 0 0
INTEGER ()) 0 0 () (CONSTANT (INTEGER 4 0 0 0 INTEGER ()) 0 '5') () 0 ()
() () 0 0)
98 'psb_err_invalid_input_format_' 'psb_const_mod' '' 1 ((PARAMETER
UNKNOWN-INTENT UNKNOWN-PROC UNKNOWN IMPLICIT-SAVE 0 0) (INTEGER 4 0 0 0
INTEGER ()) 0 0 () (CONSTANT (INTEGER 4 0 0 0 INTEGER ()) 0 '134') () 0
() () () 0 0)
99 'psb_err_invalid_istop_' 'psb_const_mod' '' 1 ((PARAMETER
UNKNOWN-INTENT UNKNOWN-PROC UNKNOWN IMPLICIT-SAVE 0 0) (INTEGER 4 0 0 0
INTEGER ()) 0 0 () (CONSTANT (INTEGER 4 0 0 0 INTEGER ()) 0 '5001') () 0
() () () 0 0)
100 'psb_err_invalid_matrix_input_state_' 'psb_const_mod' '' 1 ((
PARAMETER UNKNOWN-INTENT UNKNOWN-PROC UNKNOWN IMPLICIT-SAVE 0 0) (
INTEGER 4 0 0 0 INTEGER ()) 0 0 () (CONSTANT (INTEGER 4 0 0 0 INTEGER ())
0 '2231') () 0 () () () 0 0)
101 'psb_err_invalid_ovr_num_' 'psb_const_mod' '' 1 ((PARAMETER
UNKNOWN-INTENT UNKNOWN-PROC UNKNOWN IMPLICIT-SAVE 0 0) (INTEGER 4 0 0 0
INTEGER ()) 0 0 () (CONSTANT (INTEGER 4 0 0 0 INTEGER ()) 0 '3') () 0 ()
() () 0 0)
102 'psb_err_invalid_pid_arg_' 'psb_const_mod' '' 1 ((PARAMETER
UNKNOWN-INTENT UNKNOWN-PROC UNKNOWN IMPLICIT-SAVE 0 0) (INTEGER 4 0 0 0
INTEGER ()) 0 0 () (CONSTANT (INTEGER 4 0 0 0 INTEGER ()) 0 '115') () 0
() () () 0 0)
103 'psb_err_ix_n1_iy_n1_unsupported_' 'psb_const_mod' '' 1 ((PARAMETER
UNKNOWN-INTENT UNKNOWN-PROC UNKNOWN IMPLICIT-SAVE 0 0) (INTEGER 4 0 0 0
INTEGER ()) 0 0 () (CONSTANT (INTEGER 4 0 0 0 INTEGER ()) 0 '3040') () 0
() () () 0 0)
104 'psb_err_ja_nix_ia_niy_unsupported_' 'psb_const_mod' '' 1 ((
PARAMETER UNKNOWN-INTENT UNKNOWN-PROC UNKNOWN IMPLICIT-SAVE 0 0) (
INTEGER 4 0 0 0 INTEGER ()) 0 0 () (CONSTANT (INTEGER 4 0 0 0 INTEGER ())
0 '3030') () 0 () () () 0 0)
105 'psb_err_lld_case_not_implemented_' 'psb_const_mod' '' 1 ((
PARAMETER UNKNOWN-INTENT UNKNOWN-PROC UNKNOWN IMPLICIT-SAVE 0 0) (
INTEGER 4 0 0 0 INTEGER ()) 0 0 () (CONSTANT (INTEGER 4 0 0 0 INTEGER ())
0 '3010') () 0 () () () 0 0)
106 'psb_err_mpi_error_' 'psb_const_mod' '' 1 ((PARAMETER UNKNOWN-INTENT
UNKNOWN-PROC UNKNOWN IMPLICIT-SAVE 0 0) (INTEGER 4 0 0 0 INTEGER ()) 0 0
() (CONSTANT (INTEGER 4 0 0 0 INTEGER ()) 0 '400') () 0 () () () 0 0)
107 'psb_err_no_optional_arg_' 'psb_const_mod' '' 1 ((PARAMETER
UNKNOWN-INTENT UNKNOWN-PROC UNKNOWN IMPLICIT-SAVE 0 0) (INTEGER 4 0 0 0
INTEGER ()) 0 0 () (CONSTANT (INTEGER 4 0 0 0 INTEGER ()) 0 '581') () 0
() () () 0 0)
108 'psb_err_only_unit_diag_' 'psb_const_mod' '' 1 ((PARAMETER
UNKNOWN-INTENT UNKNOWN-PROC UNKNOWN IMPLICIT-SAVE 0 0) (INTEGER 4 0 0 0
INTEGER ()) 0 0 () (CONSTANT (INTEGER 4 0 0 0 INTEGER ()) 0 '3022') () 0
() () () 0 0)
109 'psb_err_parm_differs_among_procs_' 'psb_const_mod' '' 1 ((
PARAMETER UNKNOWN-INTENT UNKNOWN-PROC UNKNOWN IMPLICIT-SAVE 0 0) (
INTEGER 4 0 0 0 INTEGER ()) 0 0 () (CONSTANT (INTEGER 4 0 0 0 INTEGER ())
0 '550') () 0 () () () 0 0)
110 'psb_err_partfunc_toofewprocs_' 'psb_const_mod' '' 1 ((PARAMETER
UNKNOWN-INTENT UNKNOWN-PROC UNKNOWN IMPLICIT-SAVE 0 0) (INTEGER 4 0 0 0
INTEGER ()) 0 0 () (CONSTANT (INTEGER 4 0 0 0 INTEGER ()) 0 '575') () 0
() () () 0 0)
111 'psb_err_partfunc_toomuchprocs_' 'psb_const_mod' '' 1 ((PARAMETER
UNKNOWN-INTENT UNKNOWN-PROC UNKNOWN IMPLICIT-SAVE 0 0) (INTEGER 4 0 0 0
INTEGER ()) 0 0 () (CONSTANT (INTEGER 4 0 0 0 INTEGER ()) 0 '570') () 0
() () () 0 0)
112 'psb_err_partfunc_wrong_pid_' 'psb_const_mod' '' 1 ((PARAMETER
UNKNOWN-INTENT UNKNOWN-PROC UNKNOWN IMPLICIT-SAVE 0 0) (INTEGER 4 0 0 0
INTEGER ()) 0 0 () (CONSTANT (INTEGER 4 0 0 0 INTEGER ()) 0 '580') () 0
() () () 0 0)
113 'psb_err_pivot_too_small_' 'psb_const_mod' '' 1 ((PARAMETER
UNKNOWN-INTENT UNKNOWN-PROC UNKNOWN IMPLICIT-SAVE 0 0) (INTEGER 4 0 0 0
INTEGER ()) 0 0 () (CONSTANT (INTEGER 4 0 0 0 INTEGER ()) 0 '2') () 0 ()
() () 0 0)
114 'psb_err_spmat_invalid_state_' 'psb_const_mod' '' 1 ((PARAMETER
UNKNOWN-INTENT UNKNOWN-PROC UNKNOWN IMPLICIT-SAVE 0 0) (INTEGER 4 0 0 0
INTEGER ()) 0 0 () (CONSTANT (INTEGER 4 0 0 0 INTEGER ()) 0 '600') () 0
() () () 0 0)
115 'psb_err_transpose_c_unsupported_' 'psb_const_mod' '' 1 ((PARAMETER
UNKNOWN-INTENT UNKNOWN-PROC UNKNOWN IMPLICIT-SAVE 0 0) (INTEGER 4 0 0 0
INTEGER ()) 0 0 () (CONSTANT (INTEGER 4 0 0 0 INTEGER ()) 0 '3020') () 0
() () () 0 0)
116 'psb_err_transpose_not_n_unsupported_' 'psb_const_mod' '' 1 ((
PARAMETER UNKNOWN-INTENT UNKNOWN-PROC UNKNOWN IMPLICIT-SAVE 0 0) (
INTEGER 4 0 0 0 INTEGER ()) 0 0 () (CONSTANT (INTEGER 4 0 0 0 INTEGER ())
0 '3021') () 0 () () () 0 0)
117 'psb_err_transpose_unsupported_' 'psb_const_mod' '' 1 ((PARAMETER
UNKNOWN-INTENT UNKNOWN-PROC UNKNOWN IMPLICIT-SAVE 0 0) (INTEGER 4 0 0 0
INTEGER ()) 0 0 () (CONSTANT (INTEGER 4 0 0 0 INTEGER ()) 0 '3015') () 0
() () () 0 0)
118 'psb_err_unsupported_format_' 'psb_const_mod' '' 1 ((PARAMETER
UNKNOWN-INTENT UNKNOWN-PROC UNKNOWN IMPLICIT-SAVE 0 0) (INTEGER 4 0 0 0
INTEGER ()) 0 0 () (CONSTANT (INTEGER 4 0 0 0 INTEGER ()) 0 '135') () 0
() () () 0 0)
119 'psb_err_wrong_ins_' 'psb_const_mod' '' 1 ((PARAMETER UNKNOWN-INTENT
UNKNOWN-PROC UNKNOWN IMPLICIT-SAVE 0 0) (INTEGER 4 0 0 0 INTEGER ()) 0 0
() (CONSTANT (INTEGER 4 0 0 0 INTEGER ()) 0 '298') () 0 () () () 0 0)
120 'psb_fidasize_' 'psb_const_mod' '' 1 ((PARAMETER UNKNOWN-INTENT
UNKNOWN-PROC UNKNOWN IMPLICIT-SAVE 0 0) (INTEGER 4 0 0 0 INTEGER ()) 0 0
() (CONSTANT (INTEGER 4 0 0 0 INTEGER ()) 0 '16') () 0 () () () 0 0)
121 'psb_hash_avg_acc' 'psb_hash_mod' '' 1 ((PROCEDURE UNKNOWN-INTENT
MODULE-PROC DECL UNKNOWN 0 0 FUNCTION IMPLICIT_PURE) (REAL 8 0 0 0 REAL
()) 122 0 (123) () 121 () () () 0 0)
4 'psb_hash_init_n' 'psb_hash_mod' '' 1 ((PROCEDURE UNKNOWN-INTENT
MODULE-PROC DECL UNKNOWN 0 0 SUBROUTINE) (UNKNOWN 0 0 0 0 UNKNOWN ())
124 0 (125 126 127) () 0 () () () 0 0)
5 'psb_hash_init_v' 'psb_hash_mod' '' 1 ((PROCEDURE UNKNOWN-INTENT
MODULE-PROC DECL UNKNOWN 0 0 SUBROUTINE ALWAYS_EXPLICIT) (UNKNOWN 0 0 0
0 UNKNOWN ()) 128 0 (129 130 131) () 0 () () () 0 0)
132 'psb_hash_mod' 'psb_hash_mod' '' 1 ((MODULE UNKNOWN-INTENT
UNKNOWN-PROC UNKNOWN UNKNOWN 0 0) (UNKNOWN 0 0 0 0 UNKNOWN ()) 0 0 () ()
0 () () () 0 0)
133 'psb_hash_realloc' 'psb_hash_mod' '' 1 ((PROCEDURE UNKNOWN-INTENT
MODULE-PROC DECL UNKNOWN 0 0 SUBROUTINE) (UNKNOWN 0 0 0 0 UNKNOWN ())
134 0 (135 136) () 0 () () () 0 0)
137 'psb_hash_searchinskey' 'psb_hash_mod' '' 1 ((PROCEDURE
UNKNOWN-INTENT MODULE-PROC DECL UNKNOWN 0 0 SUBROUTINE RECURSIVE) (
UNKNOWN 0 0 0 0 UNKNOWN ()) 138 0 (139 140 141 142 143) () 0 () () () 0
0)
144 'psb_hash_searchkey' 'psb_hash_mod' '' 1 ((PROCEDURE UNKNOWN-INTENT
MODULE-PROC DECL UNKNOWN 0 0 SUBROUTINE) (UNKNOWN 0 0 0 0 UNKNOWN ())
145 0 (146 147 148 149) () 0 () () () 0 0)
150 'psb_hash_type' 'psb_hash_mod' '' 1 ((PROCEDURE UNKNOWN-INTENT
UNKNOWN-PROC DECL UNKNOWN 0 0 FUNCTION GENERIC) (REAL 4 0 0 0 REAL ()) 0
0 () () 0 () () () 0 0)
151 'psb_int_k_' 'psb_const_mod' '' 1 ((PARAMETER UNKNOWN-INTENT
UNKNOWN-PROC UNKNOWN IMPLICIT-SAVE 0 0) (INTEGER 4 0 0 0 INTEGER ()) 0 0
() (CONSTANT (INTEGER 4 0 0 0 INTEGER ()) 0 '4') () 0 () () () 0 0)
152 'psb_long_int_k_' 'psb_const_mod' '' 1 ((PARAMETER UNKNOWN-INTENT
UNKNOWN-PROC UNKNOWN IMPLICIT-SAVE 0 0) (INTEGER 4 0 0 0 INTEGER ()) 0 0
() (CONSTANT (INTEGER 4 0 0 0 INTEGER ()) 0 '8') () 0 () () () 0 0)
153 'psb_mpi_integer' 'psb_const_mod' '' 1 ((VARIABLE UNKNOWN-INTENT
UNKNOWN-PROC UNKNOWN EXPLICIT-SAVE 0 0) (INTEGER 4 0 0 0 INTEGER ()) 0 0
() () 0 () () () 0 0)
154 'psb_patchlevel' 'psb_const_mod' '' 1 ((PARAMETER UNKNOWN-INTENT
UNKNOWN-PROC UNKNOWN IMPLICIT-SAVE 0 0) (INTEGER 4 0 0 0 INTEGER ()) 0 0
() (CONSTANT (INTEGER 4 0 0 0 INTEGER ()) 0 '0') () 0 () () () 0 0)
155 'psb_percent_' 'psb_const_mod' '' 1 ((PARAMETER UNKNOWN-INTENT
UNKNOWN-PROC UNKNOWN IMPLICIT-SAVE 0 0) (REAL 8 0 0 0 REAL ()) 0 0 () (
CONSTANT (REAL 8 0 0 0 REAL ()) 0 '0.b3333300000000@0') () 0 () () () 0
0)
156 'psb_root_' 'psb_const_mod' '' 1 ((PARAMETER UNKNOWN-INTENT
UNKNOWN-PROC UNKNOWN IMPLICIT-SAVE 0 0) (INTEGER 4 0 0 0 INTEGER ()) 0 0
() (CONSTANT (INTEGER 4 0 0 0 INTEGER ()) 0 '0') () 0 () () () 0 0)
157 'psb_sizeof_dp' 'psb_const_mod' '' 1 ((VARIABLE UNKNOWN-INTENT
UNKNOWN-PROC UNKNOWN EXPLICIT-SAVE 0 0) (INTEGER 4 0 0 0 INTEGER ()) 0 0
() () 0 () () () 0 0)
8 'psb_sizeof_hash_type' 'psb_hash_mod' '' 1 ((PROCEDURE UNKNOWN-INTENT
MODULE-PROC DECL UNKNOWN 0 0 FUNCTION) (INTEGER 8 0 0 0 INTEGER ()) 158
0 (159) () 160 () () () 0 0)
161 'psb_sizeof_int' 'psb_const_mod' '' 1 ((VARIABLE UNKNOWN-INTENT
UNKNOWN-PROC UNKNOWN EXPLICIT-SAVE 0 0) (INTEGER 4 0 0 0 INTEGER ()) 0 0
() () 0 () () () 0 0)
162 'psb_sizeof_long_int' 'psb_const_mod' '' 1 ((VARIABLE UNKNOWN-INTENT
UNKNOWN-PROC UNKNOWN EXPLICIT-SAVE 0 0) (INTEGER 4 0 0 0 INTEGER ()) 0 0
() () 0 () () () 0 0)
163 'psb_sizeof_sp' 'psb_const_mod' '' 1 ((VARIABLE UNKNOWN-INTENT
UNKNOWN-PROC UNKNOWN EXPLICIT-SAVE 0 0) (INTEGER 4 0 0 0 INTEGER ()) 0 0
() () 0 () () () 0 0)
164 'psb_spk_' 'psb_const_mod' '' 1 ((PARAMETER UNKNOWN-INTENT
UNKNOWN-PROC UNKNOWN IMPLICIT-SAVE 0 0) (INTEGER 4 0 0 0 INTEGER ()) 0 0
() (CONSTANT (INTEGER 4 0 0 0 INTEGER ()) 0 '4') () 0 () () () 0 0)
165 'psb_success_' 'psb_const_mod' '' 1 ((PARAMETER UNKNOWN-INTENT
UNKNOWN-PROC UNKNOWN IMPLICIT-SAVE 0 0) (INTEGER 4 0 0 0 INTEGER ()) 0 0
() (CONSTANT (INTEGER 4 0 0 0 INTEGER ()) 0 '0') () 0 () () () 0 0)
166 'psb_topdef_' 'psb_const_mod' '' 1 ((PARAMETER UNKNOWN-INTENT
UNKNOWN-PROC UNKNOWN IMPLICIT-SAVE 0 0) (CHARACTER 1 0 0 0 CHARACTER ((
CONSTANT (INTEGER 4 0 0 0 INTEGER ()) 0 '1'))) 0 0 () (CONSTANT (
CHARACTER 1 0 0 0 CHARACTER (())) 0 1 ' ') () 0 () () () 0 0)
167 'psb_version_major' 'psb_const_mod' '' 1 ((PARAMETER UNKNOWN-INTENT
UNKNOWN-PROC UNKNOWN IMPLICIT-SAVE 0 0) (INTEGER 4 0 0 0 INTEGER ()) 0 0
() (CONSTANT (INTEGER 4 0 0 0 INTEGER ()) 0 '2') () 0 () () () 0 0)
168 'psb_version_minor' 'psb_const_mod' '' 1 ((PARAMETER UNKNOWN-INTENT
UNKNOWN-PROC UNKNOWN IMPLICIT-SAVE 0 0) (INTEGER 4 0 0 0 INTEGER ()) 0 0
() (CONSTANT (INTEGER 4 0 0 0 INTEGER ()) 0 '4') () 0 () () () 0 0)
169 'psb_version_string' 'psb_const_mod' '' 1 ((PARAMETER UNKNOWN-INTENT
UNKNOWN-PROC UNKNOWN IMPLICIT-SAVE 0 0) (CHARACTER 1 0 0 0 CHARACTER ((
CONSTANT (INTEGER 4 0 0 0 INTEGER ()) 0 '5'))) 0 0 () (CONSTANT (
CHARACTER 1 0 0 0 CHARACTER (())) 0 5 '2.4.0') () 0 () () () 0 0)
170 's_epstol' 'psb_const_mod' '' 1 ((PARAMETER UNKNOWN-INTENT
UNKNOWN-PROC UNKNOWN IMPLICIT-SAVE 0 0) (REAL 4 0 0 0 REAL ()) 0 0 () (
CONSTANT (REAL 4 0 0 0 REAL ()) 0 '0.d6bf950@-6') () 0 () () () 0 0)
171 'selected_int_kind' '(intrinsic)' '' 1 ((PROCEDURE UNKNOWN-INTENT
UNKNOWN-PROC UNKNOWN UNKNOWN 0 0 FUNCTION) (REAL 4 0 0 0 REAL ()) 0 0 ()
() 171 () () () 0 0)
172 'sone' 'psb_const_mod' '' 1 ((PARAMETER UNKNOWN-INTENT UNKNOWN-PROC
UNKNOWN IMPLICIT-SAVE 0 0) (REAL 4 0 0 0 REAL ()) 0 0 () (CONSTANT (
REAL 4 0 0 0 REAL ()) 0 '0.1000000@1') () 0 () () () 0 0)
173 'szero' 'psb_const_mod' '' 1 ((PARAMETER UNKNOWN-INTENT UNKNOWN-PROC
UNKNOWN IMPLICIT-SAVE 0 0) (REAL 4 0 0 0 REAL ()) 0 0 () (CONSTANT (
REAL 4 0 0 0 REAL ()) 0 '0.0000000@0') () 0 () () () 0 0)
174 'zone' 'psb_const_mod' '' 1 ((PARAMETER UNKNOWN-INTENT UNKNOWN-PROC
UNKNOWN IMPLICIT-SAVE 0 0) (COMPLEX 8 0 0 0 COMPLEX ()) 0 0 () (
CONSTANT (COMPLEX 8 0 0 0 COMPLEX ()) 0 '0.10000000000000@1'
'0.00000000000000@0') () 0 () () () 0 0)
175 'zzero' 'psb_const_mod' '' 1 ((PARAMETER UNKNOWN-INTENT UNKNOWN-PROC
UNKNOWN IMPLICIT-SAVE 0 0) (COMPLEX 8 0 0 0 COMPLEX ()) 0 0 () (
CONSTANT (COMPLEX 8 0 0 0 COMPLEX ()) 0 '0.00000000000000@0'
'0.00000000000000@0') () 0 () () () 0 0)
19 'hashin' '' '' 18 ((VARIABLE UNKNOWN-INTENT UNKNOWN-PROC UNKNOWN
UNKNOWN 0 0 POINTER DUMMY) (DERIVED 6 0 0 0 DERIVED ()) 0 0 () () 0 () ()
() 0 0)
20 'hashout' '' '' 18 ((VARIABLE UNKNOWN-INTENT UNKNOWN-PROC UNKNOWN
UNKNOWN 0 0 POINTER DUMMY) (DERIVED 6 0 0 0 DERIVED ()) 0 0 () () 0 () ()
() 0 0)
21 'info' '' '' 18 ((VARIABLE OUT UNKNOWN-PROC UNKNOWN UNKNOWN 0 0 DUMMY)
(INTEGER 4 0 0 0 INTEGER ()) 0 0 () () 0 () () () 0 0)
28 'hashin' '' '' 27 ((VARIABLE UNKNOWN-INTENT UNKNOWN-PROC UNKNOWN
UNKNOWN 0 0 DUMMY) (DERIVED 6 0 0 0 DERIVED ()) 0 0 () () 0 () () () 0 0)
29 'hashout' '' '' 27 ((VARIABLE UNKNOWN-INTENT UNKNOWN-PROC UNKNOWN
UNKNOWN 0 0 DUMMY) (DERIVED 6 0 0 0 DERIVED ()) 0 0 () () 0 () () () 0 0)
30 'info' '' '' 27 ((VARIABLE OUT UNKNOWN-PROC UNKNOWN UNKNOWN 0 0 DUMMY)
(INTEGER 4 0 0 0 INTEGER ()) 0 0 () () 0 () () () 0 0)
33 'hashin' '' '' 32 ((VARIABLE UNKNOWN-INTENT UNKNOWN-PROC UNKNOWN
UNKNOWN 0 0 DUMMY) (DERIVED 6 0 0 0 DERIVED ()) 0 0 () () 0 () () () 0 0)
34 'info' '' '' 32 ((VARIABLE UNKNOWN-INTENT UNKNOWN-PROC UNKNOWN
UNKNOWN 0 0 DUMMY) (INTEGER 4 0 0 0 INTEGER ()) 0 0 () () 0 () () () 0 0)
40 'hashin' '' '' 39 ((VARIABLE UNKNOWN-INTENT UNKNOWN-PROC UNKNOWN
UNKNOWN 0 0 DUMMY) (DERIVED 6 0 0 0 DERIVED ()) 0 0 () () 0 () () () 0 0)
41 'hashout' '' '' 39 ((VARIABLE UNKNOWN-INTENT UNKNOWN-PROC UNKNOWN
UNKNOWN 0 0 DUMMY) (DERIVED 6 0 0 0 DERIVED ()) 0 0 () () 0 () () () 0 0)
42 'info' '' '' 39 ((VARIABLE OUT UNKNOWN-PROC UNKNOWN UNKNOWN 0 0 DUMMY)
(INTEGER 4 0 0 0 INTEGER ()) 0 0 () () 0 () () () 0 0)
45 'key' '' '' 44 ((VARIABLE IN UNKNOWN-PROC UNKNOWN UNKNOWN 0 0 DUMMY)
(INTEGER 4 0 0 0 INTEGER ()) 0 0 () () 0 () () () 0 0)
46 'val' '' '' 44 ((VARIABLE UNKNOWN-INTENT UNKNOWN-PROC UNKNOWN UNKNOWN
0 0 RESULT) (INTEGER 4 0 0 0 INTEGER ()) 0 0 () () 0 () () () 0 0)
123 'hash' '' '' 122 ((VARIABLE IN UNKNOWN-PROC UNKNOWN UNKNOWN 0 0
DUMMY) (DERIVED 6 0 0 0 DERIVED ()) 0 0 () () 0 () () () 0 0)
125 'nv' '' '' 124 ((VARIABLE IN UNKNOWN-PROC UNKNOWN UNKNOWN 0 0 DUMMY)
(INTEGER 4 0 0 0 INTEGER ()) 0 0 () () 0 () () () 0 0)
126 'hash' '' '' 124 ((VARIABLE OUT UNKNOWN-PROC UNKNOWN UNKNOWN 0 0
DUMMY) (DERIVED 6 0 0 0 DERIVED ()) 0 0 () () 0 () () () 0 0)
127 'info' '' '' 124 ((VARIABLE OUT UNKNOWN-PROC UNKNOWN UNKNOWN 0 0
DUMMY) (INTEGER 4 0 0 0 INTEGER ()) 0 0 () () 0 () () () 0 0)
129 'v' '' '' 128 ((VARIABLE IN UNKNOWN-PROC UNKNOWN UNKNOWN 0 0
DIMENSION DUMMY) (INTEGER 4 0 0 0 INTEGER ()) 0 0 () (1 0 ASSUMED_SHAPE
(CONSTANT (INTEGER 4 0 0 0 INTEGER ()) 0 '1') ()) 0 () () () 0 0)
130 'hash' '' '' 128 ((VARIABLE OUT UNKNOWN-PROC UNKNOWN UNKNOWN 0 0
DUMMY) (DERIVED 6 0 0 0 DERIVED ()) 0 0 () () 0 () () () 0 0)
131 'info' '' '' 128 ((VARIABLE OUT UNKNOWN-PROC UNKNOWN UNKNOWN 0 0
DUMMY) (INTEGER 4 0 0 0 INTEGER ()) 0 0 () () 0 () () () 0 0)
135 'hash' '' '' 134 ((VARIABLE INOUT UNKNOWN-PROC UNKNOWN UNKNOWN 0 0
DUMMY) (DERIVED 6 0 0 0 DERIVED ()) 0 0 () () 0 () () () 0 0)
136 'info' '' '' 134 ((VARIABLE OUT UNKNOWN-PROC UNKNOWN UNKNOWN 0 0
DUMMY) (INTEGER 4 0 0 0 INTEGER ()) 0 0 () () 0 () () () 0 0)
139 'key' '' '' 138 ((VARIABLE IN UNKNOWN-PROC UNKNOWN UNKNOWN 0 0 DUMMY)
(INTEGER 4 0 0 0 INTEGER ()) 0 0 () () 0 () () () 0 0)
140 'val' '' '' 138 ((VARIABLE OUT UNKNOWN-PROC UNKNOWN UNKNOWN 0 0
DUMMY) (INTEGER 4 0 0 0 INTEGER ()) 0 0 () () 0 () () () 0 0)
141 'nextval' '' '' 138 ((VARIABLE IN UNKNOWN-PROC UNKNOWN UNKNOWN 0 0
DUMMY) (INTEGER 4 0 0 0 INTEGER ()) 0 0 () () 0 () () () 0 0)
142 'hash' '' '' 138 ((VARIABLE UNKNOWN-INTENT UNKNOWN-PROC UNKNOWN
UNKNOWN 0 0 DUMMY) (DERIVED 6 0 0 0 DERIVED ()) 0 0 () () 0 () () () 0 0)
143 'info' '' '' 138 ((VARIABLE OUT UNKNOWN-PROC UNKNOWN UNKNOWN 0 0
DUMMY) (INTEGER 4 0 0 0 INTEGER ()) 0 0 () () 0 () () () 0 0)
146 'key' '' '' 145 ((VARIABLE IN UNKNOWN-PROC UNKNOWN UNKNOWN 0 0 DUMMY)
(INTEGER 4 0 0 0 INTEGER ()) 0 0 () () 0 () () () 0 0)
147 'val' '' '' 145 ((VARIABLE OUT UNKNOWN-PROC UNKNOWN UNKNOWN 0 0
DUMMY) (INTEGER 4 0 0 0 INTEGER ()) 0 0 () () 0 () () () 0 0)
148 'hash' '' '' 145 ((VARIABLE UNKNOWN-INTENT UNKNOWN-PROC UNKNOWN
UNKNOWN 0 0 DUMMY) (DERIVED 6 0 0 0 DERIVED ()) 0 0 () () 0 () () () 0 0)
149 'info' '' '' 145 ((VARIABLE OUT UNKNOWN-PROC UNKNOWN UNKNOWN 0 0
DUMMY) (INTEGER 4 0 0 0 INTEGER ()) 0 0 () () 0 () () () 0 0)
159 'hash' '' '' 158 ((VARIABLE UNKNOWN-INTENT UNKNOWN-PROC UNKNOWN
UNKNOWN 0 0 DUMMY) (DERIVED 6 0 0 0 DERIVED ()) 0 0 () () 0 () () () 0 0)
160 'val' '' '' 158 ((VARIABLE UNKNOWN-INTENT UNKNOWN-PROC UNKNOWN
UNKNOWN 0 0 RESULT) (INTEGER 8 0 0 0 INTEGER ()) 0 0 () () 0 () () () 0
0)
)

('Psb_hash_type' 0 6 '__convert_r4_r8' 0 16 'clonehashtable' 0 17 'cone'
0 22 'czero' 0 23 'd_epstol' 0 24 'done' 0 25 'dzero' 0 26 'hashcopy' 0
3 'hashduplicate' 0 31 'hashfree' 0 2 'hashfreeentry' 0 35 'hashnotfound'
0 36 'hashok' 0 37 'hashoutofmemory' 0 38 'hashtransfer' 0 7 'hashval' 0
43 'ione' 0 47 'ithree' 0 48 'itwo' 0 49 'izero' 0 50 'kind' 0 51
'longndig' 0 52 'mone' 0 53 'ndig' 0 54 'psb_all_' 0 55 'psb_const_mod'
0 56 'psb_dpk_' 0 57 'psb_err_alloc_dealloc_' 0 58
'psb_err_alloc_request_' 0 59 'psb_err_arg_m_required_' 0 60
'psb_err_asb_nrc_error_' 0 61 'psb_err_context_error_' 0 62
'psb_err_dupl_cd_vl' 0 63 'psb_err_duplicate_coo' 0 64
'psb_err_entry_out_of_bounds_' 0 65 'psb_err_forgot_geall_' 0 66
'psb_err_forgot_spall_' 0 67 'psb_err_format_unknown_' 0 68
'psb_err_from_subroutine_' 0 69 'psb_err_from_subroutine_ai_' 0 70
'psb_err_from_subroutine_i_' 0 71 'psb_err_from_subroutine_non_' 0 72
'psb_err_ia1_badindices_' 0 73 'psb_err_ia1_not_increasing_' 0 74
'psb_err_ia2_not_increasing_' 0 75 'psb_err_iarg2_neg_' 0 76
'psb_err_iarg_invalid_i_' 0 77 'psb_err_iarg_invalid_value_' 0 78
'psb_err_iarg_mbeeiarra_i_' 0 79 'psb_err_iarg_n_mbgtian_' 0 80
'psb_err_iarg_neg_' 0 81 'psb_err_iarg_not_gteia_ii_' 0 82
'psb_err_iarg_not_gtia_ii_' 0 83 'psb_err_iarg_pos_' 0 84
'psb_err_iarray_outside_bounds_' 0 85 'psb_err_iarray_outside_process_'
0 86 'psb_err_inconsistent_index_lists_' 0 87
'psb_err_initerror_neugh_procs_' 0 88 'psb_err_input_asize_invalid_i_' 0
89 'psb_err_input_matrix_unassembled_' 0 90 'psb_err_input_no_regen_' 0
91 'psb_err_input_value_invalid_i_' 0 92 'psb_err_internal_error_' 0 93
'psb_err_invalid_a_and_cd_state_' 0 94 'psb_err_invalid_args_combination_'
0 95 'psb_err_invalid_cd_state_' 0 96 'psb_err_invalid_input_' 0 97
'psb_err_invalid_input_format_' 0 98 'psb_err_invalid_istop_' 0 99
'psb_err_invalid_matrix_input_state_' 0 100 'psb_err_invalid_ovr_num_' 0
101 'psb_err_invalid_pid_arg_' 0 102 'psb_err_ix_n1_iy_n1_unsupported_'
0 103 'psb_err_ja_nix_ia_niy_unsupported_' 0 104
'psb_err_lld_case_not_implemented_' 0 105 'psb_err_mpi_error_' 0 106
'psb_err_no_optional_arg_' 0 107 'psb_err_only_unit_diag_' 0 108
'psb_err_parm_differs_among_procs_' 0 109 'psb_err_partfunc_toofewprocs_'
0 110 'psb_err_partfunc_toomuchprocs_' 0 111 'psb_err_partfunc_wrong_pid_'
0 112 'psb_err_pivot_too_small_' 0 113 'psb_err_spmat_invalid_state_' 0
114 'psb_err_transpose_c_unsupported_' 0 115
'psb_err_transpose_not_n_unsupported_' 0 116
'psb_err_transpose_unsupported_' 0 117 'psb_err_unsupported_format_' 0
118 'psb_err_wrong_ins_' 0 119 'psb_fidasize_' 0 120 'psb_hash_avg_acc'
0 121 'psb_hash_init_n' 0 4 'psb_hash_init_v' 0 5 'psb_hash_mod' 0 132
'psb_hash_realloc' 0 133 'psb_hash_searchinskey' 0 137
'psb_hash_searchkey' 0 144 'psb_hash_type' 0 150 'psb_int_k_' 0 151
'psb_long_int_k_' 0 152 'psb_mpi_integer' 0 153 'psb_patchlevel' 0 154
'psb_percent_' 0 155 'psb_root_' 0 156 'psb_sizeof_dp' 0 157
'psb_sizeof_hash_type' 0 8 'psb_sizeof_int' 0 161 'psb_sizeof_long_int'
0 162 'psb_sizeof_sp' 0 163 'psb_spk_' 0 164 'psb_success_' 0 165
'psb_topdef_' 0 166 'psb_version_major' 0 167 'psb_version_minor' 0 168
'psb_version_string' 0 169 's_epstol' 0 170 'selected_int_kind' 0 171
'sone' 0 172 'szero' 0 173 'zone' 0 174 'zzero' 0 175)
