GFORTRAN module version '10' created from psi_comm_buffers_mod.F90
MD5:3f4a154388b01fb7b831726ed6ab9be4 -- If you edit this, you'll get what you deserve.

(() () () () () () () () () () () () () () () () () () () () () () ()
() () () ())

()

(('psb_buffer_node' 'psi_comm_buffers_mod' 2) ('psb_buffer_queue'
'psi_comm_buffers_mod' 3) ('psi_snd' 'psi_comm_buffers_mod' 4 5 6 7 8 9
10 11))

()

()

()

(2 'Psb_buffer_node' 'psi_comm_buffers_mod' '' 1 ((DERIVED
UNKNOWN-INTENT UNKNOWN-PROC UNKNOWN UNKNOWN 0 0 ALLOC_COMP POINTER_COMP)
(UNKNOWN 0 0 0 0 UNKNOWN ()) 0 0 () () 0 ((12 'request' (INTEGER 4 0 0 0
INTEGER ()) () (UNKNOWN-FL UNKNOWN-INTENT UNKNOWN-PROC UNKNOWN UNKNOWN 0
0) UNKNOWN-ACCESS ()) (13 'icontxt' (INTEGER 4 0 0 0 INTEGER ()) () (
UNKNOWN-FL UNKNOWN-INTENT UNKNOWN-PROC UNKNOWN UNKNOWN 0 0)
UNKNOWN-ACCESS ()) (14 'buffer_type' (INTEGER 4 0 0 0 INTEGER ()) () (
UNKNOWN-FL UNKNOWN-INTENT UNKNOWN-PROC UNKNOWN UNKNOWN 0 0)
UNKNOWN-ACCESS ()) (15 'intbuf' (INTEGER 4 0 0 0 INTEGER ()) (1 0
DEFERRED () ()) (UNKNOWN-FL UNKNOWN-INTENT UNKNOWN-PROC UNKNOWN UNKNOWN
0 0 ALLOCATABLE DIMENSION) UNKNOWN-ACCESS ()) (16 'int8buf' (INTEGER 8 0
0 0 INTEGER ()) (1 0 DEFERRED () ()) (UNKNOWN-FL UNKNOWN-INTENT
UNKNOWN-PROC UNKNOWN UNKNOWN 0 0 ALLOCATABLE DIMENSION) UNKNOWN-ACCESS ())
(17 'realbuf' (REAL 4 0 0 0 REAL ()) (1 0 DEFERRED () ()) (UNKNOWN-FL
UNKNOWN-INTENT UNKNOWN-PROC UNKNOWN UNKNOWN 0 0 ALLOCATABLE DIMENSION)
UNKNOWN-ACCESS ()) (18 'doublebuf' (REAL 8 0 0 0 REAL ()) (1 0 DEFERRED
() ()) (UNKNOWN-FL UNKNOWN-INTENT UNKNOWN-PROC UNKNOWN UNKNOWN 0 0
ALLOCATABLE DIMENSION) UNKNOWN-ACCESS ()) (19 'complexbuf' (COMPLEX 4 0
0 0 COMPLEX ()) (1 0 DEFERRED () ()) (UNKNOWN-FL UNKNOWN-INTENT
UNKNOWN-PROC UNKNOWN UNKNOWN 0 0 ALLOCATABLE DIMENSION) UNKNOWN-ACCESS ())
(20 'dcomplbuf' (COMPLEX 8 0 0 0 COMPLEX ()) (1 0 DEFERRED () ()) (
UNKNOWN-FL UNKNOWN-INTENT UNKNOWN-PROC UNKNOWN UNKNOWN 0 0 ALLOCATABLE
DIMENSION) UNKNOWN-ACCESS ()) (21 'logbuf' (LOGICAL 4 0 0 0 LOGICAL ())
(1 0 DEFERRED () ()) (UNKNOWN-FL UNKNOWN-INTENT UNKNOWN-PROC UNKNOWN
UNKNOWN 0 0 ALLOCATABLE DIMENSION) UNKNOWN-ACCESS ()) (22 'charbuf' (
CHARACTER 1 0 0 0 CHARACTER ((CONSTANT (INTEGER 4 0 0 0 INTEGER ()) 0 '1')))
(1 0 DEFERRED () ()) (UNKNOWN-FL UNKNOWN-INTENT UNKNOWN-PROC UNKNOWN
UNKNOWN 0 0 ALLOCATABLE DIMENSION) UNKNOWN-ACCESS ()) (23 'prev' (
DERIVED 2 0 0 0 DERIVED ()) () (UNKNOWN-FL UNKNOWN-INTENT UNKNOWN-PROC
UNKNOWN UNKNOWN 0 0 POINTER) UNKNOWN-ACCESS (NULL (UNKNOWN 0 0 0 0
UNKNOWN ()) 0)) (24 'next' (DERIVED 2 0 0 0 DERIVED ()) () (UNKNOWN-FL
UNKNOWN-INTENT UNKNOWN-PROC UNKNOWN UNKNOWN 0 0 POINTER) UNKNOWN-ACCESS
(NULL (UNKNOWN 0 0 0 0 UNKNOWN ()) 0))) PUBLIC (() () () ()) () 0 0
41275390)
3 'Psb_buffer_queue' 'psi_comm_buffers_mod' '' 1 ((DERIVED
UNKNOWN-INTENT UNKNOWN-PROC UNKNOWN UNKNOWN 0 0 POINTER_COMP) (UNKNOWN 0
0 0 0 UNKNOWN ()) 0 0 () () 0 ((25 'head' (DERIVED 2 0 0 0 DERIVED ()) ()
(UNKNOWN-FL UNKNOWN-INTENT UNKNOWN-PROC UNKNOWN UNKNOWN 0 0 POINTER)
UNKNOWN-ACCESS (NULL (UNKNOWN 0 0 0 0 UNKNOWN ()) 0)) (26 'tail' (
DERIVED 2 0 0 0 DERIVED ()) () (UNKNOWN-FL UNKNOWN-INTENT UNKNOWN-PROC
UNKNOWN UNKNOWN 0 0 POINTER) UNKNOWN-ACCESS (NULL (UNKNOWN 0 0 0 0
UNKNOWN ()) 0))) PUBLIC (() () () ()) () 0 0 4973781)
27 '__convert_r4_r8' '(intrinsic)' '' 1 ((PROCEDURE UNKNOWN-INTENT
UNKNOWN-PROC UNKNOWN UNKNOWN 0 0 FUNCTION ELEMENTAL PURE) (REAL 8 0 0 0
REAL ()) 0 0 () () 27 () () () 0 0)
28 'cone' 'psb_const_mod' '' 1 ((PARAMETER UNKNOWN-INTENT UNKNOWN-PROC
UNKNOWN IMPLICIT-SAVE 0 0) (COMPLEX 4 0 0 0 COMPLEX ()) 0 0 () (
CONSTANT (COMPLEX 4 0 0 0 COMPLEX ()) 0 '0.1000000@1' '0.0000000@0') ()
0 () () () 0 0)
29 'czero' 'psb_const_mod' '' 1 ((PARAMETER UNKNOWN-INTENT UNKNOWN-PROC
UNKNOWN IMPLICIT-SAVE 0 0) (COMPLEX 4 0 0 0 COMPLEX ()) 0 0 () (
CONSTANT (COMPLEX 4 0 0 0 COMPLEX ()) 0 '0.0000000@0' '0.0000000@0') ()
0 () () () 0 0)
30 'd_epstol' 'psb_const_mod' '' 1 ((PARAMETER UNKNOWN-INTENT
UNKNOWN-PROC UNKNOWN IMPLICIT-SAVE 0 0) (REAL 8 0 0 0 REAL ()) 0 0 () (
CONSTANT (REAL 8 0 0 0 REAL ()) 0 '0.7ed2450285913c@-13') () 0 () () ()
0 0)
31 'done' 'psb_const_mod' '' 1 ((PARAMETER UNKNOWN-INTENT UNKNOWN-PROC
UNKNOWN IMPLICIT-SAVE 0 0) (REAL 8 0 0 0 REAL ()) 0 0 () (CONSTANT (
REAL 8 0 0 0 REAL ()) 0 '0.10000000000000@1') () 0 () () () 0 0)
32 'dzero' 'psb_const_mod' '' 1 ((PARAMETER UNKNOWN-INTENT UNKNOWN-PROC
UNKNOWN IMPLICIT-SAVE 0 0) (REAL 8 0 0 0 REAL ()) 0 0 () (CONSTANT (
REAL 8 0 0 0 REAL ()) 0 '0.00000000000000@0') () 0 () () () 0 0)
33 'ione' 'psb_const_mod' '' 1 ((PARAMETER UNKNOWN-INTENT UNKNOWN-PROC
UNKNOWN IMPLICIT-SAVE 0 0) (INTEGER 4 0 0 0 INTEGER ()) 0 0 () (
CONSTANT (INTEGER 4 0 0 0 INTEGER ()) 0 '1') () 0 () () () 0 0)
34 'ithree' 'psb_const_mod' '' 1 ((PARAMETER UNKNOWN-INTENT UNKNOWN-PROC
UNKNOWN IMPLICIT-SAVE 0 0) (INTEGER 4 0 0 0 INTEGER ()) 0 0 () (
CONSTANT (INTEGER 4 0 0 0 INTEGER ()) 0 '3') () 0 () () () 0 0)
35 'itwo' 'psb_const_mod' '' 1 ((PARAMETER UNKNOWN-INTENT UNKNOWN-PROC
UNKNOWN IMPLICIT-SAVE 0 0) (INTEGER 4 0 0 0 INTEGER ()) 0 0 () (
CONSTANT (INTEGER 4 0 0 0 INTEGER ()) 0 '2') () 0 () () () 0 0)
36 'izero' 'psb_const_mod' '' 1 ((PARAMETER UNKNOWN-INTENT UNKNOWN-PROC
UNKNOWN IMPLICIT-SAVE 0 0) (INTEGER 4 0 0 0 INTEGER ()) 0 0 () (
CONSTANT (INTEGER 4 0 0 0 INTEGER ()) 0 '0') () 0 () () () 0 0)
37 'kind' '(intrinsic)' '' 1 ((PROCEDURE UNKNOWN-INTENT UNKNOWN-PROC
UNKNOWN UNKNOWN 0 0 FUNCTION) (INTEGER 4 0 0 0 INTEGER ()) 0 0 () () 37
() () () 0 0)
38 'longndig' 'psb_const_mod' '' 1 ((PARAMETER UNKNOWN-INTENT
UNKNOWN-PROC UNKNOWN IMPLICIT-SAVE 0 0) (INTEGER 4 0 0 0 INTEGER ()) 0 0
() (CONSTANT (INTEGER 4 0 0 0 INTEGER ()) 0 '12') () 0 () () () 0 0)
39 'mone' 'psb_const_mod' '' 1 ((PARAMETER UNKNOWN-INTENT UNKNOWN-PROC
UNKNOWN IMPLICIT-SAVE 0 0) (INTEGER 4 0 0 0 INTEGER ()) 0 0 () (
CONSTANT (INTEGER 4 0 0 0 INTEGER ()) 0 '-1') () 0 () () () 0 0)
40 'ndig' 'psb_const_mod' '' 1 ((PARAMETER UNKNOWN-INTENT UNKNOWN-PROC
UNKNOWN IMPLICIT-SAVE 0 0) (INTEGER 4 0 0 0 INTEGER ()) 0 0 () (
CONSTANT (INTEGER 4 0 0 0 INTEGER ()) 0 '8') () 0 () () () 0 0)
41 'null' '(intrinsic)' '' 1 ((PROCEDURE UNKNOWN-INTENT INTRINSIC-PROC
UNKNOWN UNKNOWN 0 0 FUNCTION) (INTEGER 4 0 0 0 INTEGER ()) 0 0 () () 41
() () () 0 0)
42 'psb_all_' 'psb_const_mod' '' 1 ((PARAMETER UNKNOWN-INTENT
UNKNOWN-PROC UNKNOWN IMPLICIT-SAVE 0 0) (CHARACTER 1 0 0 0 CHARACTER ((
CONSTANT (INTEGER 4 0 0 0 INTEGER ()) 0 '1'))) 0 0 () (CONSTANT (
CHARACTER 1 0 0 0 CHARACTER (())) 0 1 'A') () 0 () () () 0 0)
43 'psb_buffer_node' 'psi_comm_buffers_mod' '' 1 ((PROCEDURE
UNKNOWN-INTENT UNKNOWN-PROC DECL UNKNOWN 0 0 FUNCTION GENERIC) (REAL 4 0
0 0 REAL ()) 0 0 () () 0 () () () 0 0)
44 'psb_buffer_queue' 'psi_comm_buffers_mod' '' 1 ((PROCEDURE
UNKNOWN-INTENT UNKNOWN-PROC DECL UNKNOWN 0 0 FUNCTION GENERIC) (REAL 4 0
0 0 REAL ()) 0 0 () () 0 () () () 0 0)
45 'psb_close_all_context' 'psi_comm_buffers_mod' '' 1 ((PROCEDURE
UNKNOWN-INTENT MODULE-PROC DECL UNKNOWN 0 0 SUBROUTINE) (UNKNOWN 0 0 0 0
UNKNOWN ()) 46 0 (47) () 0 () () () 0 0)
48 'psb_close_context' 'psi_comm_buffers_mod' '' 1 ((PROCEDURE
UNKNOWN-INTENT MODULE-PROC DECL UNKNOWN 0 0 SUBROUTINE) (UNKNOWN 0 0 0 0
UNKNOWN ()) 49 0 (50 51) () 0 () () () 0 0)
52 'psb_const_mod' 'psb_const_mod' '' 1 ((MODULE UNKNOWN-INTENT
UNKNOWN-PROC UNKNOWN UNKNOWN 0 0) (UNKNOWN 0 0 0 0 UNKNOWN ()) 0 0 () ()
0 () () () 0 0)
53 'psb_delete_node' 'psi_comm_buffers_mod' '' 1 ((PROCEDURE
UNKNOWN-INTENT MODULE-PROC DECL UNKNOWN 0 0 SUBROUTINE IMPLICIT_PURE
ALWAYS_EXPLICIT) (UNKNOWN 0 0 0 0 UNKNOWN ()) 54 0 (55 56) () 0 () () ()
0 0)
57 'psb_dpk_' 'psb_const_mod' '' 1 ((PARAMETER UNKNOWN-INTENT
UNKNOWN-PROC UNKNOWN IMPLICIT-SAVE 0 0) (INTEGER 4 0 0 0 INTEGER ()) 0 0
() (CONSTANT (INTEGER 4 0 0 0 INTEGER ()) 0 '8') () 0 () () () 0 0)
58 'psb_err_alloc_dealloc_' 'psb_const_mod' '' 1 ((PARAMETER
UNKNOWN-INTENT UNKNOWN-PROC UNKNOWN IMPLICIT-SAVE 0 0) (INTEGER 4 0 0 0
INTEGER ()) 0 0 () (CONSTANT (INTEGER 4 0 0 0 INTEGER ()) 0 '4000') () 0
() () () 0 0)
59 'psb_err_alloc_request_' 'psb_const_mod' '' 1 ((PARAMETER
UNKNOWN-INTENT UNKNOWN-PROC UNKNOWN IMPLICIT-SAVE 0 0) (INTEGER 4 0 0 0
INTEGER ()) 0 0 () (CONSTANT (INTEGER 4 0 0 0 INTEGER ()) 0 '4025') () 0
() () () 0 0)
60 'psb_err_arg_m_required_' 'psb_const_mod' '' 1 ((PARAMETER
UNKNOWN-INTENT UNKNOWN-PROC UNKNOWN IMPLICIT-SAVE 0 0) (INTEGER 4 0 0 0
INTEGER ()) 0 0 () (CONSTANT (INTEGER 4 0 0 0 INTEGER ()) 0 '582') () 0
() () () 0 0)
61 'psb_err_asb_nrc_error_' 'psb_const_mod' '' 1 ((PARAMETER
UNKNOWN-INTENT UNKNOWN-PROC UNKNOWN IMPLICIT-SAVE 0 0) (INTEGER 4 0 0 0
INTEGER ()) 0 0 () (CONSTANT (INTEGER 4 0 0 0 INTEGER ()) 0 '71') () 0 ()
() () 0 0)
62 'psb_err_context_error_' 'psb_const_mod' '' 1 ((PARAMETER
UNKNOWN-INTENT UNKNOWN-PROC UNKNOWN IMPLICIT-SAVE 0 0) (INTEGER 4 0 0 0
INTEGER ()) 0 0 () (CONSTANT (INTEGER 4 0 0 0 INTEGER ()) 0 '2010') () 0
() () () 0 0)
63 'psb_err_dupl_cd_vl' 'psb_const_mod' '' 1 ((PARAMETER UNKNOWN-INTENT
UNKNOWN-PROC UNKNOWN IMPLICIT-SAVE 0 0) (INTEGER 4 0 0 0 INTEGER ()) 0 0
() (CONSTANT (INTEGER 4 0 0 0 INTEGER ()) 0 '123') () 0 () () () 0 0)
64 'psb_err_duplicate_coo' 'psb_const_mod' '' 1 ((PARAMETER
UNKNOWN-INTENT UNKNOWN-PROC UNKNOWN IMPLICIT-SAVE 0 0) (INTEGER 4 0 0 0
INTEGER ()) 0 0 () (CONSTANT (INTEGER 4 0 0 0 INTEGER ()) 0 '130') () 0
() () () 0 0)
65 'psb_err_entry_out_of_bounds_' 'psb_const_mod' '' 1 ((PARAMETER
UNKNOWN-INTENT UNKNOWN-PROC UNKNOWN IMPLICIT-SAVE 0 0) (INTEGER 4 0 0 0
INTEGER ()) 0 0 () (CONSTANT (INTEGER 4 0 0 0 INTEGER ()) 0 '551') () 0
() () () 0 0)
66 'psb_err_forgot_geall_' 'psb_const_mod' '' 1 ((PARAMETER
UNKNOWN-INTENT UNKNOWN-PROC UNKNOWN IMPLICIT-SAVE 0 0) (INTEGER 4 0 0 0
INTEGER ()) 0 0 () (CONSTANT (INTEGER 4 0 0 0 INTEGER ()) 0 '290') () 0
() () () 0 0)
67 'psb_err_forgot_spall_' 'psb_const_mod' '' 1 ((PARAMETER
UNKNOWN-INTENT UNKNOWN-PROC UNKNOWN IMPLICIT-SAVE 0 0) (INTEGER 4 0 0 0
INTEGER ()) 0 0 () (CONSTANT (INTEGER 4 0 0 0 INTEGER ()) 0 '295') () 0
() () () 0 0)
68 'psb_err_format_unknown_' 'psb_const_mod' '' 1 ((PARAMETER
UNKNOWN-INTENT UNKNOWN-PROC UNKNOWN IMPLICIT-SAVE 0 0) (INTEGER 4 0 0 0
INTEGER ()) 0 0 () (CONSTANT (INTEGER 4 0 0 0 INTEGER ()) 0 '136') () 0
() () () 0 0)
69 'psb_err_from_subroutine_' 'psb_const_mod' '' 1 ((PARAMETER
UNKNOWN-INTENT UNKNOWN-PROC UNKNOWN IMPLICIT-SAVE 0 0) (INTEGER 4 0 0 0
INTEGER ()) 0 0 () (CONSTANT (INTEGER 4 0 0 0 INTEGER ()) 0 '4010') () 0
() () () 0 0)
70 'psb_err_from_subroutine_ai_' 'psb_const_mod' '' 1 ((PARAMETER
UNKNOWN-INTENT UNKNOWN-PROC UNKNOWN IMPLICIT-SAVE 0 0) (INTEGER 4 0 0 0
INTEGER ()) 0 0 () (CONSTANT (INTEGER 4 0 0 0 INTEGER ()) 0 '4013') () 0
() () () 0 0)
71 'psb_err_from_subroutine_i_' 'psb_const_mod' '' 1 ((PARAMETER
UNKNOWN-INTENT UNKNOWN-PROC UNKNOWN IMPLICIT-SAVE 0 0) (INTEGER 4 0 0 0
INTEGER ()) 0 0 () (CONSTANT (INTEGER 4 0 0 0 INTEGER ()) 0 '4012') () 0
() () () 0 0)
72 'psb_err_from_subroutine_non_' 'psb_const_mod' '' 1 ((PARAMETER
UNKNOWN-INTENT UNKNOWN-PROC UNKNOWN IMPLICIT-SAVE 0 0) (INTEGER 4 0 0 0
INTEGER ()) 0 0 () (CONSTANT (INTEGER 4 0 0 0 INTEGER ()) 0 '4011') () 0
() () () 0 0)
73 'psb_err_ia1_badindices_' 'psb_const_mod' '' 1 ((PARAMETER
UNKNOWN-INTENT UNKNOWN-PROC UNKNOWN IMPLICIT-SAVE 0 0) (INTEGER 4 0 0 0
INTEGER ()) 0 0 () (CONSTANT (INTEGER 4 0 0 0 INTEGER ()) 0 '100') () 0
() () () 0 0)
74 'psb_err_ia1_not_increasing_' 'psb_const_mod' '' 1 ((PARAMETER
UNKNOWN-INTENT UNKNOWN-PROC UNKNOWN IMPLICIT-SAVE 0 0) (INTEGER 4 0 0 0
INTEGER ()) 0 0 () (CONSTANT (INTEGER 4 0 0 0 INTEGER ()) 0 '91') () 0 ()
() () 0 0)
75 'psb_err_ia2_not_increasing_' 'psb_const_mod' '' 1 ((PARAMETER
UNKNOWN-INTENT UNKNOWN-PROC UNKNOWN IMPLICIT-SAVE 0 0) (INTEGER 4 0 0 0
INTEGER ()) 0 0 () (CONSTANT (INTEGER 4 0 0 0 INTEGER ()) 0 '90') () 0 ()
() () 0 0)
76 'psb_err_iarg2_neg_' 'psb_const_mod' '' 1 ((PARAMETER UNKNOWN-INTENT
UNKNOWN-PROC UNKNOWN IMPLICIT-SAVE 0 0) (INTEGER 4 0 0 0 INTEGER ()) 0 0
() (CONSTANT (INTEGER 4 0 0 0 INTEGER ()) 0 '80') () 0 () () () 0 0)
77 'psb_err_iarg_invalid_i_' 'psb_const_mod' '' 1 ((PARAMETER
UNKNOWN-INTENT UNKNOWN-PROC UNKNOWN IMPLICIT-SAVE 0 0) (INTEGER 4 0 0 0
INTEGER ()) 0 0 () (CONSTANT (INTEGER 4 0 0 0 INTEGER ()) 0 '40') () 0 ()
() () 0 0)
78 'psb_err_iarg_invalid_value_' 'psb_const_mod' '' 1 ((PARAMETER
UNKNOWN-INTENT UNKNOWN-PROC UNKNOWN IMPLICIT-SAVE 0 0) (INTEGER 4 0 0 0
INTEGER ()) 0 0 () (CONSTANT (INTEGER 4 0 0 0 INTEGER ()) 0 '70') () 0 ()
() () 0 0)
79 'psb_err_iarg_mbeeiarra_i_' 'psb_const_mod' '' 1 ((PARAMETER
UNKNOWN-INTENT UNKNOWN-PROC UNKNOWN IMPLICIT-SAVE 0 0) (INTEGER 4 0 0 0
INTEGER ()) 0 0 () (CONSTANT (INTEGER 4 0 0 0 INTEGER ()) 0 '300') () 0
() () () 0 0)
80 'psb_err_iarg_n_mbgtian_' 'psb_const_mod' '' 1 ((PARAMETER
UNKNOWN-INTENT UNKNOWN-PROC UNKNOWN IMPLICIT-SAVE 0 0) (INTEGER 4 0 0 0
INTEGER ()) 0 0 () (CONSTANT (INTEGER 4 0 0 0 INTEGER ()) 0 '120') () 0
() () () 0 0)
81 'psb_err_iarg_neg_' 'psb_const_mod' '' 1 ((PARAMETER UNKNOWN-INTENT
UNKNOWN-PROC UNKNOWN IMPLICIT-SAVE 0 0) (INTEGER 4 0 0 0 INTEGER ()) 0 0
() (CONSTANT (INTEGER 4 0 0 0 INTEGER ()) 0 '10') () 0 () () () 0 0)
82 'psb_err_iarg_not_gteia_ii_' 'psb_const_mod' '' 1 ((PARAMETER
UNKNOWN-INTENT UNKNOWN-PROC UNKNOWN IMPLICIT-SAVE 0 0) (INTEGER 4 0 0 0
INTEGER ()) 0 0 () (CONSTANT (INTEGER 4 0 0 0 INTEGER ()) 0 '60') () 0 ()
() () 0 0)
83 'psb_err_iarg_not_gtia_ii_' 'psb_const_mod' '' 1 ((PARAMETER
UNKNOWN-INTENT UNKNOWN-PROC UNKNOWN IMPLICIT-SAVE 0 0) (INTEGER 4 0 0 0
INTEGER ()) 0 0 () (CONSTANT (INTEGER 4 0 0 0 INTEGER ()) 0 '50') () 0 ()
() () 0 0)
84 'psb_err_iarg_pos_' 'psb_const_mod' '' 1 ((PARAMETER UNKNOWN-INTENT
UNKNOWN-PROC UNKNOWN IMPLICIT-SAVE 0 0) (INTEGER 4 0 0 0 INTEGER ()) 0 0
() (CONSTANT (INTEGER 4 0 0 0 INTEGER ()) 0 '20') () 0 () () () 0 0)
85 'psb_err_iarray_outside_bounds_' 'psb_const_mod' '' 1 ((PARAMETER
UNKNOWN-INTENT UNKNOWN-PROC UNKNOWN IMPLICIT-SAVE 0 0) (INTEGER 4 0 0 0
INTEGER ()) 0 0 () (CONSTANT (INTEGER 4 0 0 0 INTEGER ()) 0 '140') () 0
() () () 0 0)
86 'psb_err_iarray_outside_process_' 'psb_const_mod' '' 1 ((PARAMETER
UNKNOWN-INTENT UNKNOWN-PROC UNKNOWN IMPLICIT-SAVE 0 0) (INTEGER 4 0 0 0
INTEGER ()) 0 0 () (CONSTANT (INTEGER 4 0 0 0 INTEGER ()) 0 '150') () 0
() () () 0 0)
87 'psb_err_inconsistent_index_lists_' 'psb_const_mod' '' 1 ((PARAMETER
UNKNOWN-INTENT UNKNOWN-PROC UNKNOWN IMPLICIT-SAVE 0 0) (INTEGER 4 0 0 0
INTEGER ()) 0 0 () (CONSTANT (INTEGER 4 0 0 0 INTEGER ()) 0 '552') () 0
() () () 0 0)
88 'psb_err_initerror_neugh_procs_' 'psb_const_mod' '' 1 ((PARAMETER
UNKNOWN-INTENT UNKNOWN-PROC UNKNOWN IMPLICIT-SAVE 0 0) (INTEGER 4 0 0 0
INTEGER ()) 0 0 () (CONSTANT (INTEGER 4 0 0 0 INTEGER ()) 0 '2011') () 0
() () () 0 0)
89 'psb_err_input_asize_invalid_i_' 'psb_const_mod' '' 1 ((PARAMETER
UNKNOWN-INTENT UNKNOWN-PROC UNKNOWN IMPLICIT-SAVE 0 0) (INTEGER 4 0 0 0
INTEGER ()) 0 0 () (CONSTANT (INTEGER 4 0 0 0 INTEGER ()) 0 '35') () 0 ()
() () 0 0)
90 'psb_err_input_matrix_unassembled_' 'psb_const_mod' '' 1 ((PARAMETER
UNKNOWN-INTENT UNKNOWN-PROC UNKNOWN IMPLICIT-SAVE 0 0) (INTEGER 4 0 0 0
INTEGER ()) 0 0 () (CONSTANT (INTEGER 4 0 0 0 INTEGER ()) 0 '3110') () 0
() () () 0 0)
91 'psb_err_input_no_regen_' 'psb_const_mod' '' 1 ((PARAMETER
UNKNOWN-INTENT UNKNOWN-PROC UNKNOWN IMPLICIT-SAVE 0 0) (INTEGER 4 0 0 0
INTEGER ()) 0 0 () (CONSTANT (INTEGER 4 0 0 0 INTEGER ()) 0 '2232') () 0
() () () 0 0)
92 'psb_err_input_value_invalid_i_' 'psb_const_mod' '' 1 ((PARAMETER
UNKNOWN-INTENT UNKNOWN-PROC UNKNOWN IMPLICIT-SAVE 0 0) (INTEGER 4 0 0 0
INTEGER ()) 0 0 () (CONSTANT (INTEGER 4 0 0 0 INTEGER ()) 0 '30') () 0 ()
() () 0 0)
93 'psb_err_internal_error_' 'psb_const_mod' '' 1 ((PARAMETER
UNKNOWN-INTENT UNKNOWN-PROC UNKNOWN IMPLICIT-SAVE 0 0) (INTEGER 4 0 0 0
INTEGER ()) 0 0 () (CONSTANT (INTEGER 4 0 0 0 INTEGER ()) 0 '4001') () 0
() () () 0 0)
94 'psb_err_invalid_a_and_cd_state_' 'psb_const_mod' '' 1 ((PARAMETER
UNKNOWN-INTENT UNKNOWN-PROC UNKNOWN IMPLICIT-SAVE 0 0) (INTEGER 4 0 0 0
INTEGER ()) 0 0 () (CONSTANT (INTEGER 4 0 0 0 INTEGER ()) 0 '1123') () 0
() () () 0 0)
95 'psb_err_invalid_args_combination_' 'psb_const_mod' '' 1 ((PARAMETER
UNKNOWN-INTENT UNKNOWN-PROC UNKNOWN IMPLICIT-SAVE 0 0) (INTEGER 4 0 0 0
INTEGER ()) 0 0 () (CONSTANT (INTEGER 4 0 0 0 INTEGER ()) 0 '110') () 0
() () () 0 0)
96 'psb_err_invalid_cd_state_' 'psb_const_mod' '' 1 ((PARAMETER
UNKNOWN-INTENT UNKNOWN-PROC UNKNOWN IMPLICIT-SAVE 0 0) (INTEGER 4 0 0 0
INTEGER ()) 0 0 () (CONSTANT (INTEGER 4 0 0 0 INTEGER ()) 0 '1122') () 0
() () () 0 0)
97 'psb_err_invalid_input_' 'psb_const_mod' '' 1 ((PARAMETER
UNKNOWN-INTENT UNKNOWN-PROC UNKNOWN IMPLICIT-SAVE 0 0) (INTEGER 4 0 0 0
INTEGER ()) 0 0 () (CONSTANT (INTEGER 4 0 0 0 INTEGER ()) 0 '5') () 0 ()
() () 0 0)
98 'psb_err_invalid_input_format_' 'psb_const_mod' '' 1 ((PARAMETER
UNKNOWN-INTENT UNKNOWN-PROC UNKNOWN IMPLICIT-SAVE 0 0) (INTEGER 4 0 0 0
INTEGER ()) 0 0 () (CONSTANT (INTEGER 4 0 0 0 INTEGER ()) 0 '134') () 0
() () () 0 0)
99 'psb_err_invalid_istop_' 'psb_const_mod' '' 1 ((PARAMETER
UNKNOWN-INTENT UNKNOWN-PROC UNKNOWN IMPLICIT-SAVE 0 0) (INTEGER 4 0 0 0
INTEGER ()) 0 0 () (CONSTANT (INTEGER 4 0 0 0 INTEGER ()) 0 '5001') () 0
() () () 0 0)
100 'psb_err_invalid_matrix_input_state_' 'psb_const_mod' '' 1 ((
PARAMETER UNKNOWN-INTENT UNKNOWN-PROC UNKNOWN IMPLICIT-SAVE 0 0) (
INTEGER 4 0 0 0 INTEGER ()) 0 0 () (CONSTANT (INTEGER 4 0 0 0 INTEGER ())
0 '2231') () 0 () () () 0 0)
101 'psb_err_invalid_ovr_num_' 'psb_const_mod' '' 1 ((PARAMETER
UNKNOWN-INTENT UNKNOWN-PROC UNKNOWN IMPLICIT-SAVE 0 0) (INTEGER 4 0 0 0
INTEGER ()) 0 0 () (CONSTANT (INTEGER 4 0 0 0 INTEGER ()) 0 '3') () 0 ()
() () 0 0)
102 'psb_err_invalid_pid_arg_' 'psb_const_mod' '' 1 ((PARAMETER
UNKNOWN-INTENT UNKNOWN-PROC UNKNOWN IMPLICIT-SAVE 0 0) (INTEGER 4 0 0 0
INTEGER ()) 0 0 () (CONSTANT (INTEGER 4 0 0 0 INTEGER ()) 0 '115') () 0
() () () 0 0)
103 'psb_err_ix_n1_iy_n1_unsupported_' 'psb_const_mod' '' 1 ((PARAMETER
UNKNOWN-INTENT UNKNOWN-PROC UNKNOWN IMPLICIT-SAVE 0 0) (INTEGER 4 0 0 0
INTEGER ()) 0 0 () (CONSTANT (INTEGER 4 0 0 0 INTEGER ()) 0 '3040') () 0
() () () 0 0)
104 'psb_err_ja_nix_ia_niy_unsupported_' 'psb_const_mod' '' 1 ((
PARAMETER UNKNOWN-INTENT UNKNOWN-PROC UNKNOWN IMPLICIT-SAVE 0 0) (
INTEGER 4 0 0 0 INTEGER ()) 0 0 () (CONSTANT (INTEGER 4 0 0 0 INTEGER ())
0 '3030') () 0 () () () 0 0)
105 'psb_err_lld_case_not_implemented_' 'psb_const_mod' '' 1 ((
PARAMETER UNKNOWN-INTENT UNKNOWN-PROC UNKNOWN IMPLICIT-SAVE 0 0) (
INTEGER 4 0 0 0 INTEGER ()) 0 0 () (CONSTANT (INTEGER 4 0 0 0 INTEGER ())
0 '3010') () 0 () () () 0 0)
106 'psb_err_mpi_error_' 'psb_const_mod' '' 1 ((PARAMETER UNKNOWN-INTENT
UNKNOWN-PROC UNKNOWN IMPLICIT-SAVE 0 0) (INTEGER 4 0 0 0 INTEGER ()) 0 0
() (CONSTANT (INTEGER 4 0 0 0 INTEGER ()) 0 '400') () 0 () () () 0 0)
107 'psb_err_no_optional_arg_' 'psb_const_mod' '' 1 ((PARAMETER
UNKNOWN-INTENT UNKNOWN-PROC UNKNOWN IMPLICIT-SAVE 0 0) (INTEGER 4 0 0 0
INTEGER ()) 0 0 () (CONSTANT (INTEGER 4 0 0 0 INTEGER ()) 0 '581') () 0
() () () 0 0)
108 'psb_err_only_unit_diag_' 'psb_const_mod' '' 1 ((PARAMETER
UNKNOWN-INTENT UNKNOWN-PROC UNKNOWN IMPLICIT-SAVE 0 0) (INTEGER 4 0 0 0
INTEGER ()) 0 0 () (CONSTANT (INTEGER 4 0 0 0 INTEGER ()) 0 '3022') () 0
() () () 0 0)
109 'psb_err_parm_differs_among_procs_' 'psb_const_mod' '' 1 ((
PARAMETER UNKNOWN-INTENT UNKNOWN-PROC UNKNOWN IMPLICIT-SAVE 0 0) (
INTEGER 4 0 0 0 INTEGER ()) 0 0 () (CONSTANT (INTEGER 4 0 0 0 INTEGER ())
0 '550') () 0 () () () 0 0)
110 'psb_err_partfunc_toofewprocs_' 'psb_const_mod' '' 1 ((PARAMETER
UNKNOWN-INTENT UNKNOWN-PROC UNKNOWN IMPLICIT-SAVE 0 0) (INTEGER 4 0 0 0
INTEGER ()) 0 0 () (CONSTANT (INTEGER 4 0 0 0 INTEGER ()) 0 '575') () 0
() () () 0 0)
111 'psb_err_partfunc_toomuchprocs_' 'psb_const_mod' '' 1 ((PARAMETER
UNKNOWN-INTENT UNKNOWN-PROC UNKNOWN IMPLICIT-SAVE 0 0) (INTEGER 4 0 0 0
INTEGER ()) 0 0 () (CONSTANT (INTEGER 4 0 0 0 INTEGER ()) 0 '570') () 0
() () () 0 0)
112 'psb_err_partfunc_wrong_pid_' 'psb_const_mod' '' 1 ((PARAMETER
UNKNOWN-INTENT UNKNOWN-PROC UNKNOWN IMPLICIT-SAVE 0 0) (INTEGER 4 0 0 0
INTEGER ()) 0 0 () (CONSTANT (INTEGER 4 0 0 0 INTEGER ()) 0 '580') () 0
() () () 0 0)
113 'psb_err_pivot_too_small_' 'psb_const_mod' '' 1 ((PARAMETER
UNKNOWN-INTENT UNKNOWN-PROC UNKNOWN IMPLICIT-SAVE 0 0) (INTEGER 4 0 0 0
INTEGER ()) 0 0 () (CONSTANT (INTEGER 4 0 0 0 INTEGER ()) 0 '2') () 0 ()
() () 0 0)
114 'psb_err_spmat_invalid_state_' 'psb_const_mod' '' 1 ((PARAMETER
UNKNOWN-INTENT UNKNOWN-PROC UNKNOWN IMPLICIT-SAVE 0 0) (INTEGER 4 0 0 0
INTEGER ()) 0 0 () (CONSTANT (INTEGER 4 0 0 0 INTEGER ()) 0 '600') () 0
() () () 0 0)
115 'psb_err_transpose_c_unsupported_' 'psb_const_mod' '' 1 ((PARAMETER
UNKNOWN-INTENT UNKNOWN-PROC UNKNOWN IMPLICIT-SAVE 0 0) (INTEGER 4 0 0 0
INTEGER ()) 0 0 () (CONSTANT (INTEGER 4 0 0 0 INTEGER ()) 0 '3020') () 0
() () () 0 0)
116 'psb_err_transpose_not_n_unsupported_' 'psb_const_mod' '' 1 ((
PARAMETER UNKNOWN-INTENT UNKNOWN-PROC UNKNOWN IMPLICIT-SAVE 0 0) (
INTEGER 4 0 0 0 INTEGER ()) 0 0 () (CONSTANT (INTEGER 4 0 0 0 INTEGER ())
0 '3021') () 0 () () () 0 0)
117 'psb_err_transpose_unsupported_' 'psb_const_mod' '' 1 ((PARAMETER
UNKNOWN-INTENT UNKNOWN-PROC UNKNOWN IMPLICIT-SAVE 0 0) (INTEGER 4 0 0 0
INTEGER ()) 0 0 () (CONSTANT (INTEGER 4 0 0 0 INTEGER ()) 0 '3015') () 0
() () () 0 0)
118 'psb_err_unsupported_format_' 'psb_const_mod' '' 1 ((PARAMETER
UNKNOWN-INTENT UNKNOWN-PROC UNKNOWN IMPLICIT-SAVE 0 0) (INTEGER 4 0 0 0
INTEGER ()) 0 0 () (CONSTANT (INTEGER 4 0 0 0 INTEGER ()) 0 '135') () 0
() () () 0 0)
119 'psb_err_wrong_ins_' 'psb_const_mod' '' 1 ((PARAMETER UNKNOWN-INTENT
UNKNOWN-PROC UNKNOWN IMPLICIT-SAVE 0 0) (INTEGER 4 0 0 0 INTEGER ()) 0 0
() (CONSTANT (INTEGER 4 0 0 0 INTEGER ()) 0 '298') () 0 () () () 0 0)
120 'psb_fidasize_' 'psb_const_mod' '' 1 ((PARAMETER UNKNOWN-INTENT
UNKNOWN-PROC UNKNOWN IMPLICIT-SAVE 0 0) (INTEGER 4 0 0 0 INTEGER ()) 0 0
() (CONSTANT (INTEGER 4 0 0 0 INTEGER ()) 0 '16') () 0 () () () 0 0)
121 'psb_init_queue' 'psi_comm_buffers_mod' '' 1 ((PROCEDURE
UNKNOWN-INTENT MODULE-PROC DECL UNKNOWN 0 0 SUBROUTINE) (UNKNOWN 0 0 0 0
UNKNOWN ()) 122 0 (123 124) () 0 () () () 0 0)
125 'psb_insert_node' 'psi_comm_buffers_mod' '' 1 ((PROCEDURE
UNKNOWN-INTENT MODULE-PROC DECL UNKNOWN 0 0 SUBROUTINE IMPLICIT_PURE
ALWAYS_EXPLICIT) (UNKNOWN 0 0 0 0 UNKNOWN ()) 126 0 (127 128) () 0 () ()
() 0 0)
129 'psb_int_k_' 'psb_const_mod' '' 1 ((PARAMETER UNKNOWN-INTENT
UNKNOWN-PROC UNKNOWN IMPLICIT-SAVE 0 0) (INTEGER 4 0 0 0 INTEGER ()) 0 0
() (CONSTANT (INTEGER 4 0 0 0 INTEGER ()) 0 '4') () 0 () () () 0 0)
130 'psb_long_int_k_' 'psb_const_mod' '' 1 ((PARAMETER UNKNOWN-INTENT
UNKNOWN-PROC UNKNOWN IMPLICIT-SAVE 0 0) (INTEGER 4 0 0 0 INTEGER ()) 0 0
() (CONSTANT (INTEGER 4 0 0 0 INTEGER ()) 0 '8') () 0 () () () 0 0)
131 'psb_mpi_integer' 'psb_const_mod' '' 1 ((VARIABLE UNKNOWN-INTENT
UNKNOWN-PROC UNKNOWN EXPLICIT-SAVE 0 0) (INTEGER 4 0 0 0 INTEGER ()) 0 0
() () 0 () () () 0 0)
132 'psb_patchlevel' 'psb_const_mod' '' 1 ((PARAMETER UNKNOWN-INTENT
UNKNOWN-PROC UNKNOWN IMPLICIT-SAVE 0 0) (INTEGER 4 0 0 0 INTEGER ()) 0 0
() (CONSTANT (INTEGER 4 0 0 0 INTEGER ()) 0 '0') () 0 () () () 0 0)
133 'psb_percent_' 'psb_const_mod' '' 1 ((PARAMETER UNKNOWN-INTENT
UNKNOWN-PROC UNKNOWN IMPLICIT-SAVE 0 0) (REAL 8 0 0 0 REAL ()) 0 0 () (
CONSTANT (REAL 8 0 0 0 REAL ()) 0 '0.b3333300000000@0') () 0 () () () 0
0)
134 'psb_root_' 'psb_const_mod' '' 1 ((PARAMETER UNKNOWN-INTENT
UNKNOWN-PROC UNKNOWN IMPLICIT-SAVE 0 0) (INTEGER 4 0 0 0 INTEGER ()) 0 0
() (CONSTANT (INTEGER 4 0 0 0 INTEGER ()) 0 '0') () 0 () () () 0 0)
135 'psb_sizeof_dp' 'psb_const_mod' '' 1 ((VARIABLE UNKNOWN-INTENT
UNKNOWN-PROC UNKNOWN EXPLICIT-SAVE 0 0) (INTEGER 4 0 0 0 INTEGER ()) 0 0
() () 0 () () () 0 0)
136 'psb_sizeof_int' 'psb_const_mod' '' 1 ((VARIABLE UNKNOWN-INTENT
UNKNOWN-PROC UNKNOWN EXPLICIT-SAVE 0 0) (INTEGER 4 0 0 0 INTEGER ()) 0 0
() () 0 () () () 0 0)
137 'psb_sizeof_long_int' 'psb_const_mod' '' 1 ((VARIABLE UNKNOWN-INTENT
UNKNOWN-PROC UNKNOWN EXPLICIT-SAVE 0 0) (INTEGER 4 0 0 0 INTEGER ()) 0 0
() () 0 () () () 0 0)
138 'psb_sizeof_sp' 'psb_const_mod' '' 1 ((VARIABLE UNKNOWN-INTENT
UNKNOWN-PROC UNKNOWN EXPLICIT-SAVE 0 0) (INTEGER 4 0 0 0 INTEGER ()) 0 0
() () 0 () () () 0 0)
139 'psb_spk_' 'psb_const_mod' '' 1 ((PARAMETER UNKNOWN-INTENT
UNKNOWN-PROC UNKNOWN IMPLICIT-SAVE 0 0) (INTEGER 4 0 0 0 INTEGER ()) 0 0
() (CONSTANT (INTEGER 4 0 0 0 INTEGER ()) 0 '4') () 0 () () () 0 0)
140 'psb_success_' 'psb_const_mod' '' 1 ((PARAMETER UNKNOWN-INTENT
UNKNOWN-PROC UNKNOWN IMPLICIT-SAVE 0 0) (INTEGER 4 0 0 0 INTEGER ()) 0 0
() (CONSTANT (INTEGER 4 0 0 0 INTEGER ()) 0 '0') () 0 () () () 0 0)
141 'psb_test_buffer' 'psi_comm_buffers_mod' '' 1 ((PROCEDURE
UNKNOWN-INTENT MODULE-PROC DECL UNKNOWN 0 0 SUBROUTINE) (UNKNOWN 0 0 0 0
UNKNOWN ()) 142 0 (143 144 145) () 0 () () () 0 0)
146 'psb_test_nodes' 'psi_comm_buffers_mod' '' 1 ((PROCEDURE
UNKNOWN-INTENT MODULE-PROC DECL UNKNOWN 0 0 SUBROUTINE) (UNKNOWN 0 0 0 0
UNKNOWN ()) 147 0 (148) () 0 () () () 0 0)
149 'psb_topdef_' 'psb_const_mod' '' 1 ((PARAMETER UNKNOWN-INTENT
UNKNOWN-PROC UNKNOWN IMPLICIT-SAVE 0 0) (CHARACTER 1 0 0 0 CHARACTER ((
CONSTANT (INTEGER 4 0 0 0 INTEGER ()) 0 '1'))) 0 0 () (CONSTANT (
CHARACTER 1 0 0 0 CHARACTER (())) 0 1 ' ') () 0 () () () 0 0)
150 'psb_version_major' 'psb_const_mod' '' 1 ((PARAMETER UNKNOWN-INTENT
UNKNOWN-PROC UNKNOWN IMPLICIT-SAVE 0 0) (INTEGER 4 0 0 0 INTEGER ()) 0 0
() (CONSTANT (INTEGER 4 0 0 0 INTEGER ()) 0 '2') () 0 () () () 0 0)
151 'psb_version_minor' 'psb_const_mod' '' 1 ((PARAMETER UNKNOWN-INTENT
UNKNOWN-PROC UNKNOWN IMPLICIT-SAVE 0 0) (INTEGER 4 0 0 0 INTEGER ()) 0 0
() (CONSTANT (INTEGER 4 0 0 0 INTEGER ()) 0 '4') () 0 () () () 0 0)
152 'psb_version_string' 'psb_const_mod' '' 1 ((PARAMETER UNKNOWN-INTENT
UNKNOWN-PROC UNKNOWN IMPLICIT-SAVE 0 0) (CHARACTER 1 0 0 0 CHARACTER ((
CONSTANT (INTEGER 4 0 0 0 INTEGER ()) 0 '5'))) 0 0 () (CONSTANT (
CHARACTER 1 0 0 0 CHARACTER (())) 0 5 '2.4.0') () 0 () () () 0 0)
153 'psb_wait_buffer' 'psi_comm_buffers_mod' '' 1 ((PROCEDURE
UNKNOWN-INTENT MODULE-PROC DECL UNKNOWN 0 0 SUBROUTINE) (UNKNOWN 0 0 0 0
UNKNOWN ()) 154 0 (155 156) () 0 () () () 0 0)
157 'psi_comm_buffers_mod' 'psi_comm_buffers_mod' '' 1 ((MODULE
UNKNOWN-INTENT UNKNOWN-PROC UNKNOWN UNKNOWN 0 0) (UNKNOWN 0 0 0 0
UNKNOWN ()) 0 0 () () 0 () () () 0 0)
8 'psi_csnd' 'psi_comm_buffers_mod' '' 1 ((PROCEDURE UNKNOWN-INTENT
MODULE-PROC DECL UNKNOWN 0 0 SUBROUTINE ALWAYS_EXPLICIT) (UNKNOWN 0 0 0
0 UNKNOWN ()) 158 0 (159 160 161 162 163) () 0 () () () 0 0)
9 'psi_dsnd' 'psi_comm_buffers_mod' '' 1 ((PROCEDURE UNKNOWN-INTENT
MODULE-PROC DECL UNKNOWN 0 0 SUBROUTINE ALWAYS_EXPLICIT) (UNKNOWN 0 0 0
0 UNKNOWN ()) 164 0 (165 166 167 168 169) () 0 () () () 0 0)
5 'psi_hsnd' 'psi_comm_buffers_mod' '' 1 ((PROCEDURE UNKNOWN-INTENT
MODULE-PROC DECL UNKNOWN 0 0 SUBROUTINE ALWAYS_EXPLICIT) (UNKNOWN 0 0 0
0 UNKNOWN ()) 170 0 (171 172 173 174 175) () 0 () () () 0 0)
4 'psi_i8snd' 'psi_comm_buffers_mod' '' 1 ((PROCEDURE UNKNOWN-INTENT
MODULE-PROC DECL UNKNOWN 0 0 SUBROUTINE ALWAYS_EXPLICIT) (UNKNOWN 0 0 0
0 UNKNOWN ()) 176 0 (177 178 179 180 181) () 0 () () () 0 0)
11 'psi_isnd' 'psi_comm_buffers_mod' '' 1 ((PROCEDURE UNKNOWN-INTENT
MODULE-PROC DECL UNKNOWN 0 0 SUBROUTINE ALWAYS_EXPLICIT) (UNKNOWN 0 0 0
0 UNKNOWN ()) 182 0 (183 184 185 186 187) () 0 () () () 0 0)
6 'psi_lsnd' 'psi_comm_buffers_mod' '' 1 ((PROCEDURE UNKNOWN-INTENT
MODULE-PROC DECL UNKNOWN 0 0 SUBROUTINE ALWAYS_EXPLICIT) (UNKNOWN 0 0 0
0 UNKNOWN ()) 188 0 (189 190 191 192 193) () 0 () () () 0 0)
10 'psi_ssnd' 'psi_comm_buffers_mod' '' 1 ((PROCEDURE UNKNOWN-INTENT
MODULE-PROC DECL UNKNOWN 0 0 SUBROUTINE ALWAYS_EXPLICIT) (UNKNOWN 0 0 0
0 UNKNOWN ()) 194 0 (195 196 197 198 199) () 0 () () () 0 0)
7 'psi_zsnd' 'psi_comm_buffers_mod' '' 1 ((PROCEDURE UNKNOWN-INTENT
MODULE-PROC DECL UNKNOWN 0 0 SUBROUTINE ALWAYS_EXPLICIT) (UNKNOWN 0 0 0
0 UNKNOWN ()) 200 0 (201 202 203 204 205) () 0 () () () 0 0)
206 's_epstol' 'psb_const_mod' '' 1 ((PARAMETER UNKNOWN-INTENT
UNKNOWN-PROC UNKNOWN IMPLICIT-SAVE 0 0) (REAL 4 0 0 0 REAL ()) 0 0 () (
CONSTANT (REAL 4 0 0 0 REAL ()) 0 '0.d6bf950@-6') () 0 () () () 0 0)
207 'selected_int_kind' '(intrinsic)' '' 1 ((PROCEDURE UNKNOWN-INTENT
UNKNOWN-PROC UNKNOWN UNKNOWN 0 0 FUNCTION) (REAL 4 0 0 0 REAL ()) 0 0 ()
() 207 () () () 0 0)
208 'sone' 'psb_const_mod' '' 1 ((PARAMETER UNKNOWN-INTENT UNKNOWN-PROC
UNKNOWN IMPLICIT-SAVE 0 0) (REAL 4 0 0 0 REAL ()) 0 0 () (CONSTANT (
REAL 4 0 0 0 REAL ()) 0 '0.1000000@1') () 0 () () () 0 0)
209 'szero' 'psb_const_mod' '' 1 ((PARAMETER UNKNOWN-INTENT UNKNOWN-PROC
UNKNOWN IMPLICIT-SAVE 0 0) (REAL 4 0 0 0 REAL ()) 0 0 () (CONSTANT (
REAL 4 0 0 0 REAL ()) 0 '0.0000000@0') () 0 () () () 0 0)
210 'zone' 'psb_const_mod' '' 1 ((PARAMETER UNKNOWN-INTENT UNKNOWN-PROC
UNKNOWN IMPLICIT-SAVE 0 0) (COMPLEX 8 0 0 0 COMPLEX ()) 0 0 () (
CONSTANT (COMPLEX 8 0 0 0 COMPLEX ()) 0 '0.10000000000000@1'
'0.00000000000000@0') () 0 () () () 0 0)
211 'zzero' 'psb_const_mod' '' 1 ((PARAMETER UNKNOWN-INTENT UNKNOWN-PROC
UNKNOWN IMPLICIT-SAVE 0 0) (COMPLEX 8 0 0 0 COMPLEX ()) 0 0 () (
CONSTANT (COMPLEX 8 0 0 0 COMPLEX ()) 0 '0.00000000000000@0'
'0.00000000000000@0') () 0 () () () 0 0)
47 'mesg_queue' '' '' 46 ((VARIABLE INOUT UNKNOWN-PROC UNKNOWN UNKNOWN 0
0 DUMMY) (DERIVED 3 0 0 0 DERIVED ()) 0 0 () () 0 () () () 0 0)
50 'mesg_queue' '' '' 49 ((VARIABLE INOUT UNKNOWN-PROC UNKNOWN UNKNOWN 0
0 DUMMY) (DERIVED 3 0 0 0 DERIVED ()) 0 0 () () 0 () () () 0 0)
51 'icontxt' '' '' 49 ((VARIABLE IN UNKNOWN-PROC UNKNOWN UNKNOWN 0 0
DUMMY) (INTEGER 4 0 0 0 INTEGER ()) 0 0 () () 0 () () () 0 0)
55 'mesg_queue' '' '' 54 ((VARIABLE INOUT UNKNOWN-PROC UNKNOWN UNKNOWN 0
0 DUMMY) (DERIVED 3 0 0 0 DERIVED ()) 0 0 () () 0 () () () 0 0)
56 'node' '' '' 54 ((VARIABLE UNKNOWN-INTENT UNKNOWN-PROC UNKNOWN
UNKNOWN 0 0 POINTER DUMMY) (DERIVED 2 0 0 0 DERIVED ()) 0 0 () () 0 () ()
() 0 0)
123 'mesg_queue' '' '' 122 ((VARIABLE INOUT UNKNOWN-PROC UNKNOWN UNKNOWN
0 0 DUMMY) (DERIVED 3 0 0 0 DERIVED ()) 0 0 () () 0 () () () 0 0)
124 'info' '' '' 122 ((VARIABLE UNKNOWN-INTENT UNKNOWN-PROC UNKNOWN
UNKNOWN 0 0 DUMMY) (INTEGER 4 0 0 0 INTEGER ()) 0 0 () () 0 () () () 0 0)
127 'mesg_queue' '' '' 126 ((VARIABLE INOUT UNKNOWN-PROC UNKNOWN UNKNOWN
0 0 DUMMY) (DERIVED 3 0 0 0 DERIVED ()) 0 0 () () 0 () () () 0 0)
128 'node' '' '' 126 ((VARIABLE UNKNOWN-INTENT UNKNOWN-PROC UNKNOWN
UNKNOWN 0 0 POINTER DUMMY) (DERIVED 2 0 0 0 DERIVED ()) 0 0 () () 0 () ()
() 0 0)
143 'node' '' '' 142 ((VARIABLE INOUT UNKNOWN-PROC UNKNOWN UNKNOWN 0 0
DUMMY) (DERIVED 2 0 0 0 DERIVED ()) 0 0 () () 0 () () () 0 0)
144 'flag' '' '' 142 ((VARIABLE OUT UNKNOWN-PROC UNKNOWN UNKNOWN 0 0
DUMMY) (LOGICAL 4 0 0 0 LOGICAL ()) 0 0 () () 0 () () () 0 0)
145 'info' '' '' 142 ((VARIABLE OUT UNKNOWN-PROC UNKNOWN UNKNOWN 0 0
DUMMY) (INTEGER 4 0 0 0 INTEGER ()) 0 0 () () 0 () () () 0 0)
148 'mesg_queue' '' '' 147 ((VARIABLE UNKNOWN-INTENT UNKNOWN-PROC
UNKNOWN UNKNOWN 0 0 DUMMY) (DERIVED 3 0 0 0 DERIVED ()) 0 0 () () 0 () ()
() 0 0)
155 'node' '' '' 154 ((VARIABLE INOUT UNKNOWN-PROC UNKNOWN UNKNOWN 0 0
DUMMY) (DERIVED 2 0 0 0 DERIVED ()) 0 0 () () 0 () () () 0 0)
156 'info' '' '' 154 ((VARIABLE OUT UNKNOWN-PROC UNKNOWN UNKNOWN 0 0
DUMMY) (INTEGER 4 0 0 0 INTEGER ()) 0 0 () () 0 () () () 0 0)
159 'icontxt' '' '' 158 ((VARIABLE UNKNOWN-INTENT UNKNOWN-PROC UNKNOWN
UNKNOWN 0 0 DUMMY) (INTEGER 4 0 0 0 INTEGER ()) 0 0 () () 0 () () () 0 0)
160 'tag' '' '' 158 ((VARIABLE UNKNOWN-INTENT UNKNOWN-PROC UNKNOWN
UNKNOWN 0 0 DUMMY) (INTEGER 4 0 0 0 INTEGER ()) 0 0 () () 0 () () () 0 0)
161 'dest' '' '' 158 ((VARIABLE UNKNOWN-INTENT UNKNOWN-PROC UNKNOWN
UNKNOWN 0 0 DUMMY) (INTEGER 4 0 0 0 INTEGER ()) 0 0 () () 0 () () () 0 0)
162 'buffer' '' '' 158 ((VARIABLE INOUT UNKNOWN-PROC UNKNOWN UNKNOWN 0 0
ALLOCATABLE DIMENSION DUMMY) (COMPLEX 4 0 0 0 COMPLEX ()) 0 0 () (1 0
DEFERRED () ()) 0 () () () 0 0)
163 'mesg_queue' '' '' 158 ((VARIABLE UNKNOWN-INTENT UNKNOWN-PROC
UNKNOWN UNKNOWN 0 0 DUMMY) (DERIVED 3 0 0 0 DERIVED ()) 0 0 () () 0 () ()
() 0 0)
165 'icontxt' '' '' 164 ((VARIABLE UNKNOWN-INTENT UNKNOWN-PROC UNKNOWN
UNKNOWN 0 0 DUMMY) (INTEGER 4 0 0 0 INTEGER ()) 0 0 () () 0 () () () 0 0)
166 'tag' '' '' 164 ((VARIABLE UNKNOWN-INTENT UNKNOWN-PROC UNKNOWN
UNKNOWN 0 0 DUMMY) (INTEGER 4 0 0 0 INTEGER ()) 0 0 () () 0 () () () 0 0)
167 'dest' '' '' 164 ((VARIABLE UNKNOWN-INTENT UNKNOWN-PROC UNKNOWN
UNKNOWN 0 0 DUMMY) (INTEGER 4 0 0 0 INTEGER ()) 0 0 () () 0 () () () 0 0)
168 'buffer' '' '' 164 ((VARIABLE INOUT UNKNOWN-PROC UNKNOWN UNKNOWN 0 0
ALLOCATABLE DIMENSION DUMMY) (REAL 8 0 0 0 REAL ()) 0 0 () (1 0 DEFERRED
() ()) 0 () () () 0 0)
169 'mesg_queue' '' '' 164 ((VARIABLE UNKNOWN-INTENT UNKNOWN-PROC
UNKNOWN UNKNOWN 0 0 DUMMY) (DERIVED 3 0 0 0 DERIVED ()) 0 0 () () 0 () ()
() 0 0)
171 'icontxt' '' '' 170 ((VARIABLE UNKNOWN-INTENT UNKNOWN-PROC UNKNOWN
UNKNOWN 0 0 DUMMY) (INTEGER 4 0 0 0 INTEGER ()) 0 0 () () 0 () () () 0 0)
172 'tag' '' '' 170 ((VARIABLE UNKNOWN-INTENT UNKNOWN-PROC UNKNOWN
UNKNOWN 0 0 DUMMY) (INTEGER 4 0 0 0 INTEGER ()) 0 0 () () 0 () () () 0 0)
173 'dest' '' '' 170 ((VARIABLE UNKNOWN-INTENT UNKNOWN-PROC UNKNOWN
UNKNOWN 0 0 DUMMY) (INTEGER 4 0 0 0 INTEGER ()) 0 0 () () 0 () () () 0 0)
174 'buffer' '' '' 170 ((VARIABLE INOUT UNKNOWN-PROC UNKNOWN UNKNOWN 0 0
ALLOCATABLE DIMENSION DUMMY) (CHARACTER 1 0 0 0 CHARACTER ((CONSTANT (
INTEGER 4 0 0 0 INTEGER ()) 0 '1'))) 0 0 () (1 0 DEFERRED () ()) 0 () ()
() 0 0)
175 'mesg_queue' '' '' 170 ((VARIABLE UNKNOWN-INTENT UNKNOWN-PROC
UNKNOWN UNKNOWN 0 0 DUMMY) (DERIVED 3 0 0 0 DERIVED ()) 0 0 () () 0 () ()
() 0 0)
177 'icontxt' '' '' 176 ((VARIABLE UNKNOWN-INTENT UNKNOWN-PROC UNKNOWN
UNKNOWN 0 0 DUMMY) (INTEGER 4 0 0 0 INTEGER ()) 0 0 () () 0 () () () 0 0)
178 'tag' '' '' 176 ((VARIABLE UNKNOWN-INTENT UNKNOWN-PROC UNKNOWN
UNKNOWN 0 0 DUMMY) (INTEGER 4 0 0 0 INTEGER ()) 0 0 () () 0 () () () 0 0)
179 'dest' '' '' 176 ((VARIABLE UNKNOWN-INTENT UNKNOWN-PROC UNKNOWN
UNKNOWN 0 0 DUMMY) (INTEGER 4 0 0 0 INTEGER ()) 0 0 () () 0 () () () 0 0)
180 'buffer' '' '' 176 ((VARIABLE INOUT UNKNOWN-PROC UNKNOWN UNKNOWN 0 0
ALLOCATABLE DIMENSION DUMMY) (INTEGER 8 0 0 0 INTEGER ()) 0 0 () (1 0
DEFERRED () ()) 0 () () () 0 0)
181 'mesg_queue' '' '' 176 ((VARIABLE UNKNOWN-INTENT UNKNOWN-PROC
UNKNOWN UNKNOWN 0 0 DUMMY) (DERIVED 3 0 0 0 DERIVED ()) 0 0 () () 0 () ()
() 0 0)
183 'icontxt' '' '' 182 ((VARIABLE UNKNOWN-INTENT UNKNOWN-PROC UNKNOWN
UNKNOWN 0 0 DUMMY) (INTEGER 4 0 0 0 INTEGER ()) 0 0 () () 0 () () () 0 0)
184 'tag' '' '' 182 ((VARIABLE UNKNOWN-INTENT UNKNOWN-PROC UNKNOWN
UNKNOWN 0 0 DUMMY) (INTEGER 4 0 0 0 INTEGER ()) 0 0 () () 0 () () () 0 0)
185 'dest' '' '' 182 ((VARIABLE UNKNOWN-INTENT UNKNOWN-PROC UNKNOWN
UNKNOWN 0 0 DUMMY) (INTEGER 4 0 0 0 INTEGER ()) 0 0 () () 0 () () () 0 0)
186 'buffer' '' '' 182 ((VARIABLE INOUT UNKNOWN-PROC UNKNOWN UNKNOWN 0 0
ALLOCATABLE DIMENSION DUMMY) (INTEGER 4 0 0 0 INTEGER ()) 0 0 () (1 0
DEFERRED () ()) 0 () () () 0 0)
187 'mesg_queue' '' '' 182 ((VARIABLE UNKNOWN-INTENT UNKNOWN-PROC
UNKNOWN UNKNOWN 0 0 DUMMY) (DERIVED 3 0 0 0 DERIVED ()) 0 0 () () 0 () ()
() 0 0)
189 'icontxt' '' '' 188 ((VARIABLE UNKNOWN-INTENT UNKNOWN-PROC UNKNOWN
UNKNOWN 0 0 DUMMY) (INTEGER 4 0 0 0 INTEGER ()) 0 0 () () 0 () () () 0 0)
190 'tag' '' '' 188 ((VARIABLE UNKNOWN-INTENT UNKNOWN-PROC UNKNOWN
UNKNOWN 0 0 DUMMY) (INTEGER 4 0 0 0 INTEGER ()) 0 0 () () 0 () () () 0 0)
191 'dest' '' '' 188 ((VARIABLE UNKNOWN-INTENT UNKNOWN-PROC UNKNOWN
UNKNOWN 0 0 DUMMY) (INTEGER 4 0 0 0 INTEGER ()) 0 0 () () 0 () () () 0 0)
192 'buffer' '' '' 188 ((VARIABLE INOUT UNKNOWN-PROC UNKNOWN UNKNOWN 0 0
ALLOCATABLE DIMENSION DUMMY) (LOGICAL 4 0 0 0 LOGICAL ()) 0 0 () (1 0
DEFERRED () ()) 0 () () () 0 0)
193 'mesg_queue' '' '' 188 ((VARIABLE UNKNOWN-INTENT UNKNOWN-PROC
UNKNOWN UNKNOWN 0 0 DUMMY) (DERIVED 3 0 0 0 DERIVED ()) 0 0 () () 0 () ()
() 0 0)
195 'icontxt' '' '' 194 ((VARIABLE UNKNOWN-INTENT UNKNOWN-PROC UNKNOWN
UNKNOWN 0 0 DUMMY) (INTEGER 4 0 0 0 INTEGER ()) 0 0 () () 0 () () () 0 0)
196 'tag' '' '' 194 ((VARIABLE UNKNOWN-INTENT UNKNOWN-PROC UNKNOWN
UNKNOWN 0 0 DUMMY) (INTEGER 4 0 0 0 INTEGER ()) 0 0 () () 0 () () () 0 0)
197 'dest' '' '' 194 ((VARIABLE UNKNOWN-INTENT UNKNOWN-PROC UNKNOWN
UNKNOWN 0 0 DUMMY) (INTEGER 4 0 0 0 INTEGER ()) 0 0 () () 0 () () () 0 0)
198 'buffer' '' '' 194 ((VARIABLE INOUT UNKNOWN-PROC UNKNOWN UNKNOWN 0 0
ALLOCATABLE DIMENSION DUMMY) (REAL 4 0 0 0 REAL ()) 0 0 () (1 0 DEFERRED
() ()) 0 () () () 0 0)
199 'mesg_queue' '' '' 194 ((VARIABLE UNKNOWN-INTENT UNKNOWN-PROC
UNKNOWN UNKNOWN 0 0 DUMMY) (DERIVED 3 0 0 0 DERIVED ()) 0 0 () () 0 () ()
() 0 0)
201 'icontxt' '' '' 200 ((VARIABLE UNKNOWN-INTENT UNKNOWN-PROC UNKNOWN
UNKNOWN 0 0 DUMMY) (INTEGER 4 0 0 0 INTEGER ()) 0 0 () () 0 () () () 0 0)
202 'tag' '' '' 200 ((VARIABLE UNKNOWN-INTENT UNKNOWN-PROC UNKNOWN
UNKNOWN 0 0 DUMMY) (INTEGER 4 0 0 0 INTEGER ()) 0 0 () () 0 () () () 0 0)
203 'dest' '' '' 200 ((VARIABLE UNKNOWN-INTENT UNKNOWN-PROC UNKNOWN
UNKNOWN 0 0 DUMMY) (INTEGER 4 0 0 0 INTEGER ()) 0 0 () () 0 () () () 0 0)
204 'buffer' '' '' 200 ((VARIABLE INOUT UNKNOWN-PROC UNKNOWN UNKNOWN 0 0
ALLOCATABLE DIMENSION DUMMY) (COMPLEX 8 0 0 0 COMPLEX ()) 0 0 () (1 0
DEFERRED () ()) 0 () () () 0 0)
205 'mesg_queue' '' '' 200 ((VARIABLE UNKNOWN-INTENT UNKNOWN-PROC
UNKNOWN UNKNOWN 0 0 DUMMY) (DERIVED 3 0 0 0 DERIVED ()) 0 0 () () 0 () ()
() 0 0)
)

('Psb_buffer_node' 0 2 'Psb_buffer_queue' 0 3 '__convert_r4_r8' 0 27
'cone' 0 28 'czero' 0 29 'd_epstol' 0 30 'done' 0 31 'dzero' 0 32 'ione'
0 33 'ithree' 0 34 'itwo' 0 35 'izero' 0 36 'kind' 0 37 'longndig' 0 38
'mone' 0 39 'ndig' 0 40 'null' 0 41 'psb_all_' 0 42 'psb_buffer_node' 0
43 'psb_buffer_queue' 0 44 'psb_close_all_context' 0 45
'psb_close_context' 0 48 'psb_const_mod' 0 52 'psb_delete_node' 0 53
'psb_dpk_' 0 57 'psb_err_alloc_dealloc_' 0 58 'psb_err_alloc_request_' 0
59 'psb_err_arg_m_required_' 0 60 'psb_err_asb_nrc_error_' 0 61
'psb_err_context_error_' 0 62 'psb_err_dupl_cd_vl' 0 63
'psb_err_duplicate_coo' 0 64 'psb_err_entry_out_of_bounds_' 0 65
'psb_err_forgot_geall_' 0 66 'psb_err_forgot_spall_' 0 67
'psb_err_format_unknown_' 0 68 'psb_err_from_subroutine_' 0 69
'psb_err_from_subroutine_ai_' 0 70 'psb_err_from_subroutine_i_' 0 71
'psb_err_from_subroutine_non_' 0 72 'psb_err_ia1_badindices_' 0 73
'psb_err_ia1_not_increasing_' 0 74 'psb_err_ia2_not_increasing_' 0 75
'psb_err_iarg2_neg_' 0 76 'psb_err_iarg_invalid_i_' 0 77
'psb_err_iarg_invalid_value_' 0 78 'psb_err_iarg_mbeeiarra_i_' 0 79
'psb_err_iarg_n_mbgtian_' 0 80 'psb_err_iarg_neg_' 0 81
'psb_err_iarg_not_gteia_ii_' 0 82 'psb_err_iarg_not_gtia_ii_' 0 83
'psb_err_iarg_pos_' 0 84 'psb_err_iarray_outside_bounds_' 0 85
'psb_err_iarray_outside_process_' 0 86 'psb_err_inconsistent_index_lists_'
0 87 'psb_err_initerror_neugh_procs_' 0 88
'psb_err_input_asize_invalid_i_' 0 89 'psb_err_input_matrix_unassembled_'
0 90 'psb_err_input_no_regen_' 0 91 'psb_err_input_value_invalid_i_' 0
92 'psb_err_internal_error_' 0 93 'psb_err_invalid_a_and_cd_state_' 0 94
'psb_err_invalid_args_combination_' 0 95 'psb_err_invalid_cd_state_' 0
96 'psb_err_invalid_input_' 0 97 'psb_err_invalid_input_format_' 0 98
'psb_err_invalid_istop_' 0 99 'psb_err_invalid_matrix_input_state_' 0
100 'psb_err_invalid_ovr_num_' 0 101 'psb_err_invalid_pid_arg_' 0 102
'psb_err_ix_n1_iy_n1_unsupported_' 0 103
'psb_err_ja_nix_ia_niy_unsupported_' 0 104
'psb_err_lld_case_not_implemented_' 0 105 'psb_err_mpi_error_' 0 106
'psb_err_no_optional_arg_' 0 107 'psb_err_only_unit_diag_' 0 108
'psb_err_parm_differs_among_procs_' 0 109 'psb_err_partfunc_toofewprocs_'
0 110 'psb_err_partfunc_toomuchprocs_' 0 111 'psb_err_partfunc_wrong_pid_'
0 112 'psb_err_pivot_too_small_' 0 113 'psb_err_spmat_invalid_state_' 0
114 'psb_err_transpose_c_unsupported_' 0 115
'psb_err_transpose_not_n_unsupported_' 0 116
'psb_err_transpose_unsupported_' 0 117 'psb_err_unsupported_format_' 0
118 'psb_err_wrong_ins_' 0 119 'psb_fidasize_' 0 120 'psb_init_queue' 0
121 'psb_insert_node' 0 125 'psb_int_k_' 0 129 'psb_long_int_k_' 0 130
'psb_mpi_integer' 0 131 'psb_patchlevel' 0 132 'psb_percent_' 0 133
'psb_root_' 0 134 'psb_sizeof_dp' 0 135 'psb_sizeof_int' 0 136
'psb_sizeof_long_int' 0 137 'psb_sizeof_sp' 0 138 'psb_spk_' 0 139
'psb_success_' 0 140 'psb_test_buffer' 0 141 'psb_test_nodes' 0 146
'psb_topdef_' 0 149 'psb_version_major' 0 150 'psb_version_minor' 0 151
'psb_version_string' 0 152 'psb_wait_buffer' 0 153 'psi_comm_buffers_mod'
0 157 'psi_csnd' 0 8 'psi_dsnd' 0 9 'psi_hsnd' 0 5 'psi_i8snd' 0 4
'psi_isnd' 0 11 'psi_lsnd' 0 6 'psi_ssnd' 0 10 'psi_zsnd' 0 7 's_epstol'
0 206 'selected_int_kind' 0 207 'sone' 0 208 'szero' 0 209 'zone' 0 210
'zzero' 0 211)
